*Heading
 /home/edgar/Documents/Shame/Class/FEA/Hw/hw06/lug.gmsh.inp
*NODE
1, -0.01060660171779821, 0.01060660171779821, 0
2, -0.01060660171779821, -0.01060660171779821, 0
3, -0.025, 0.025, 0
4, -0.025, -0.025, 0
5, 0, 0.025, 0
6, 0, 0.015, 0
7, 0, -0.025, 0
8, 0, -0.015, 0
9, -0.125, -0.025, 0
10, -0.125, 0.025, 0
11, -0.025, 0.025, 0.02
12, -0.125, 0.025, 0.02
13, -0.125, -0.025, 0.02
14, -0.025, -0.025, 0.02
15, -0.01060660171779821, -0.01060660171779821, 0.02
16, -0.01060660171779821, 0.01060660171779821, 0.02
17, 0, 0.015, 0.02
18, 0, 0.025, 0.02
19, 0, -0.025, 0.02
20, 0, -0.015, 0.02
21, -0.01299038105676127, 0.007500000000009183, 0
22, -0.01448888739433075, 0.003882285676557482, 0
23, -0.015, 2.822221623066667e-14, 0
24, -0.01448888739434084, -0.003882285676519839, 0
25, -0.01299038105676934, -0.007499999999995226, 0
26, -0.01653329513377862, 0.01653329513377862, 0
27, -0.025, 0.01666666666668496, 0
28, -0.025, 0.00833333333337535, 0
29, -0.025, 6.643643968295976e-14, 0
30, -0.025, -0.008333333333288138, 0
31, -0.025, -0.01666666666664475, 0
32, -0.01653329514705499, -0.01653329514705499, 0
33, -0.005740251485485389, 0.01385819298766556, 0
34, 0, 0.01999999999998846, 0
35, -0.01249999999996714, 0.025, 0
36, -0.005740251485485389, -0.01385819298766556, 0
37, 0, -0.01999999999998846, 0
38, -0.01249999999996714, -0.025, 0
39, 0.005740251485449775, -0.01385819298768031, 0
40, 0.01060660171777028, -0.01060660171782615, 0
41, 0.01385819298765027, -0.005740251485522292, 0
42, 0.015, -5.937009472692961e-14, 0
43, 0.01385819298768431, 0.0057402514854401, 0
44, 0.01060660171781163, 0.01060660171778479, 0
45, 0.005740251485474902, 0.0138581929876699, 0
46, 0.009567085809082783, -0.02309698831280059, 0
47, 0.01767766952961651, -0.01767766952971086, 0
48, 0.02309698831275005, -0.009567085809204789, 0
49, 0.025, -1.002102610111656e-13, 0
50, 0.02309698831280754, 0.009567085809066003, 0
51, 0.01767766952968442, 0.01767766952964295, 0
52, 0.009567085809124487, 0.02309698831278331, 0
53, -0.03409090909089409, 0.025, 0
54, -0.04318181818177928, 0.025, 0
55, -0.05227272727265932, 0.025, 0
56, -0.06136363636354169, 0.025, 0
57, -0.07045454545442406, 0.025, 0
58, -0.07954545454533524, 0.025, 0
59, -0.08863636363626712, 0.025, 0
60, -0.09772727272720119, 0.025, 0
61, -0.1068181818181308, 0.025, 0
62, -0.1159090909090654, 0.025, 0
63, -0.125, 0.01666666666668496, 0
64, -0.125, 0.00833333333337535, 0
65, -0.125, 6.643643968295976e-14, 0
66, -0.125, -0.008333333333288138, 0
67, -0.125, -0.01666666666664475, 0
68, -0.1159090909091161, -0.025, 0
69, -0.1068181818182321, -0.025, 0
70, -0.09772727272734819, -0.025, 0
71, -0.08863636363646424, -0.025, 0
72, -0.07954545454558032, -0.025, 0
73, -0.07045454545467023, -0.025, 0
74, -0.06136363636373672, -0.025, 0
75, -0.05227272727280076, -0.025, 0
76, -0.04318181818186972, -0.025, 0
77, -0.0340909090909335, -0.025, 0
78, -0.03409090909089409, 0.025, 0.02
79, -0.04318181818177928, 0.025, 0.02
80, -0.05227272727265932, 0.025, 0.02
81, -0.06136363636354169, 0.025, 0.02
82, -0.07045454545442406, 0.025, 0.02
83, -0.07954545454533524, 0.025, 0.02
84, -0.08863636363626712, 0.025, 0.02
85, -0.09772727272720119, 0.025, 0.02
86, -0.1068181818181308, 0.025, 0.02
87, -0.1159090909090654, 0.025, 0.02
88, -0.125, 0.01666666666668496, 0.02
89, -0.125, 0.00833333333337535, 0.02
90, -0.125, 6.643643968295976e-14, 0.02
91, -0.125, -0.008333333333288138, 0.02
92, -0.125, -0.01666666666664475, 0.02
93, -0.1159090909091161, -0.025, 0.02
94, -0.1068181818182321, -0.025, 0.02
95, -0.09772727272734819, -0.025, 0.02
96, -0.08863636363646424, -0.025, 0.02
97, -0.07954545454558032, -0.025, 0.02
98, -0.07045454545467023, -0.025, 0.02
99, -0.06136363636373672, -0.025, 0.02
100, -0.05227272727280076, -0.025, 0.02
101, -0.04318181818186972, -0.025, 0.02
102, -0.0340909090909335, -0.025, 0.02
103, -0.025, -0.01666666666664475, 0.02
104, -0.025, -0.008333333333288138, 0.02
105, -0.025, 6.643643968295976e-14, 0.02
106, -0.025, 0.00833333333337535, 0.02
107, -0.025, 0.01666666666668496, 0.02
108, -0.025, 0.025, 0.006666666666666666
109, -0.025, 0.025, 0.01333333333333333
110, -0.125, 0.025, 0.006666666666666666
111, -0.125, 0.025, 0.01333333333333333
112, -0.125, -0.025, 0.006666666666666666
113, -0.125, -0.025, 0.01333333333333333
114, -0.025, -0.025, 0.006666666666666666
115, -0.025, -0.025, 0.01333333333333333
116, -0.01299038105676934, -0.007499999999995226, 0.02
117, -0.01448888739434084, -0.003882285676519839, 0.02
118, -0.015, 2.822221623066667e-14, 0.02
119, -0.01448888739433075, 0.003882285676557482, 0.02
120, -0.01299038105676127, 0.007500000000009183, 0.02
121, -0.01653329513377862, 0.01653329513377862, 0.02
122, -0.01653329514705499, -0.01653329514705499, 0.02
123, -0.01060660171779821, -0.01060660171779821, 0.006666666666666666
124, -0.01060660171779821, -0.01060660171779821, 0.01333333333333333
125, -0.01060660171779821, 0.01060660171779821, 0.006666666666666666
126, -0.01060660171779821, 0.01060660171779821, 0.01333333333333333
127, -0.005740251485485389, 0.01385819298766556, 0.02
128, 0, 0.01999999999998846, 0.02
129, -0.01249999999996714, 0.025, 0.02
130, 0, 0.015, 0.006666666666666666
131, 0, 0.015, 0.01333333333333333
132, 0, 0.025, 0.006666666666666666
133, 0, 0.025, 0.01333333333333333
134, 0.009567085809082783, -0.02309698831280059, 0.02
135, 0.01767766952961651, -0.01767766952971086, 0.02
136, 0.02309698831275005, -0.009567085809204789, 0.02
137, 0.025, -1.002102610111656e-13, 0.02
138, 0.02309698831280754, 0.009567085809066003, 0.02
139, 0.01767766952968442, 0.01767766952964295, 0.02
140, 0.009567085809124487, 0.02309698831278331, 0.02
141, 0.005740251485474902, 0.0138581929876699, 0.02
142, 0.01060660171781163, 0.01060660171778479, 0.02
143, 0.01385819298768431, 0.0057402514854401, 0.02
144, 0.015, -5.937009472692961e-14, 0.02
145, 0.01385819298765027, -0.005740251485522292, 0.02
146, 0.01060660171777028, -0.01060660171782615, 0.02
147, 0.005740251485449775, -0.01385819298768031, 0.02
148, 0, -0.01999999999998846, 0.02
149, 0, -0.025, 0.006666666666666666
150, 0, -0.025, 0.01333333333333333
151, 0, -0.015, 0.006666666666666666
152, 0, -0.015, 0.01333333333333333
153, -0.005740251485485389, -0.01385819298766556, 0.02
154, -0.01249999999996714, -0.025, 0.02
155, -0.01793551827342134, 0.01127450980493208, 0
156, -0.01881699258987973, 0.005715070002841062, 0
157, -0.01911764706534304, -6.594227308755773e-12, 0
158, -0.01881699259431112, -0.005715070016059383, 0
159, -0.01793551828227701, -0.01127450981818368, 0
160, -0.00848512288016548, 0.01879409363126694, 0
161, -0.008485122886803666, -0.01879409363790512, 0
162, 0.007653668647261865, -0.01847759065022979, 0
163, 0.01414213562368524, -0.01414213562376035, 0
164, 0.0184775906501895, -0.007653668647359127, 0
165, 0.01999999999998846, -7.97888768263935e-14, 0
166, 0.01847759065023527, 0.007653668647248637, 0
167, 0.01414213562373987, 0.01414213562370571, 0
168, 0.00765366864729528, 0.01847759065021595, 0
169, -0.03409090909090065, 0.01666666666668496, 0
170, -0.03409090909090723, 0.00833333333337535, 0
171, -0.03409090909091379, 6.643817440643573e-14, 0
172, -0.03409090909092037, -0.008333333333288135, 0
173, -0.03409090909092692, -0.01666666666664475, 0
174, -0.04318181818179435, 0.01666666666668496, 0
175, -0.04318181818180943, 0.00833333333337535, 0
176, -0.0431818181818245, 6.643817440643573e-14, 0
177, -0.04318181818183959, -0.008333333333288137, 0
178, -0.04318181818185465, -0.01666666666664476, 0
179, -0.0522727272726829, 0.01666666666668496, 0
180, -0.05227272727270647, 0.00833333333337535, 0
181, -0.05227272727273004, 6.643643968295976e-14, 0
182, -0.05227272727275363, -0.008333333333288137, 0
183, -0.05227272727277718, -0.01666666666664475, 0
184, -0.0613636363635742, 0.01666666666668496, 0
185, -0.0613636363636067, 0.008333333333375352, 0
186, -0.06136363636363919, 6.643470495948378e-14, 0
187, -0.06136363636367172, -0.008333333333288138, 0
188, -0.06136363636370421, -0.01666666666664475, 0
189, -0.0704545454544651, 0.01666666666668496, 0
190, -0.07045454545450612, 0.00833333333337535, 0
191, -0.07045454545454713, 6.643730704469775e-14, 0
192, -0.07045454545458815, -0.008333333333288135, 0
193, -0.0704545454546292, -0.01666666666664475, 0
194, -0.07954545454537607, 0.01666666666668496, 0
195, -0.07954545454541692, 0.00833333333337535, 0
196, -0.07954545454545778, 6.643817440643573e-14, 0
197, -0.07954545454549863, -0.008333333333288137, 0
198, -0.07954545454553946, -0.01666666666664475, 0
199, -0.08863636363629998, 0.01666666666668496, 0
200, -0.08863636363633282, 0.008333333333375352, 0
201, -0.08863636363636566, 6.643730704469775e-14, 0
202, -0.08863636363639854, -0.008333333333288138, 0
203, -0.08863636363643138, -0.01666666666664475, 0
204, -0.09772727272722571, 0.01666666666668496, 0
205, -0.09772727272725018, 0.008333333333375352, 0
206, -0.09772727272727467, 6.643687336382875e-14, 0
207, -0.09772727272729918, -0.008333333333288138, 0
208, -0.09772727272732369, -0.01666666666664475, 0
209, -0.1068181818181477, 0.01666666666668496, 0
210, -0.1068181818181646, 0.008333333333375352, 0
211, -0.1068181818181815, 6.643643968295976e-14, 0
212, -0.1068181818181984, -0.008333333333288137, 0
213, -0.1068181818182152, -0.01666666666664475, 0
214, -0.1159090909090739, 0.01666666666668496, 0
215, -0.1159090909090823, 0.00833333333337535, 0
216, -0.1159090909090907, 6.643687336382875e-14, 0
217, -0.1159090909090992, -0.008333333333288138, 0
218, -0.1159090909091076, -0.01666666666664475, 0
219, -0.03409090909089409, 0.025, 0.006666666666666666
220, -0.03409090909089409, 0.025, 0.01333333333333333
221, -0.04318181818177928, 0.025, 0.006666666666666666
222, -0.04318181818177928, 0.025, 0.01333333333333333
223, -0.05227272727265932, 0.025, 0.006666666666666666
224, -0.05227272727265932, 0.025, 0.01333333333333333
225, -0.06136363636354169, 0.025, 0.006666666666666666
226, -0.06136363636354169, 0.025, 0.01333333333333333
227, -0.07045454545442406, 0.025, 0.006666666666666666
228, -0.07045454545442406, 0.025, 0.01333333333333333
229, -0.07954545454533524, 0.025, 0.006666666666666666
230, -0.07954545454533524, 0.025, 0.01333333333333333
231, -0.08863636363626712, 0.025, 0.006666666666666666
232, -0.08863636363626712, 0.025, 0.01333333333333333
233, -0.09772727272720119, 0.025, 0.006666666666666666
234, -0.09772727272720119, 0.025, 0.01333333333333333
235, -0.1068181818181308, 0.025, 0.006666666666666666
236, -0.1068181818181308, 0.025, 0.01333333333333333
237, -0.1159090909090654, 0.025, 0.006666666666666666
238, -0.1159090909090654, 0.025, 0.01333333333333333
239, -0.125, 0.01666666666668496, 0.006666666666666666
240, -0.125, 0.01666666666668496, 0.01333333333333333
241, -0.125, 0.00833333333337535, 0.006666666666666666
242, -0.125, 0.00833333333337535, 0.01333333333333333
243, -0.125, 6.643643968295976e-14, 0.006666666666666666
244, -0.125, 6.643643968295976e-14, 0.01333333333333333
245, -0.125, -0.008333333333288138, 0.006666666666666666
246, -0.125, -0.008333333333288138, 0.01333333333333333
247, -0.125, -0.01666666666664475, 0.006666666666666666
248, -0.125, -0.01666666666664475, 0.01333333333333333
249, -0.1159090909091161, -0.025, 0.006666666666666666
250, -0.1159090909091161, -0.025, 0.01333333333333333
251, -0.1068181818182321, -0.025, 0.006666666666666666
252, -0.1068181818182321, -0.025, 0.01333333333333333
253, -0.09772727272734819, -0.025, 0.006666666666666666
254, -0.09772727272734819, -0.025, 0.01333333333333333
255, -0.08863636363646424, -0.025, 0.006666666666666666
256, -0.08863636363646424, -0.025, 0.01333333333333333
257, -0.07954545454558032, -0.025, 0.006666666666666666
258, -0.07954545454558032, -0.025, 0.01333333333333333
259, -0.07045454545467023, -0.025, 0.006666666666666666
260, -0.07045454545467023, -0.025, 0.01333333333333333
261, -0.06136363636373672, -0.025, 0.006666666666666666
262, -0.06136363636373672, -0.025, 0.01333333333333333
263, -0.05227272727280076, -0.025, 0.006666666666666666
264, -0.05227272727280076, -0.025, 0.01333333333333333
265, -0.04318181818186972, -0.025, 0.006666666666666666
266, -0.04318181818186972, -0.025, 0.01333333333333333
267, -0.0340909090909335, -0.025, 0.006666666666666666
268, -0.0340909090909335, -0.025, 0.01333333333333333
269, -0.025, 0.01666666666668496, 0.006666666666666666
270, -0.025, 0.01666666666668496, 0.01333333333333333
271, -0.025, 0.00833333333337535, 0.006666666666666666
272, -0.025, 0.00833333333337535, 0.01333333333333333
273, -0.025, 6.643643968295976e-14, 0.006666666666666666
274, -0.025, 6.643643968295976e-14, 0.01333333333333333
275, -0.025, -0.008333333333288138, 0.006666666666666666
276, -0.025, -0.008333333333288138, 0.01333333333333333
277, -0.025, -0.01666666666664475, 0.006666666666666666
278, -0.025, -0.01666666666664475, 0.01333333333333333
279, -0.03409090909090065, 0.01666666666668496, 0.02
280, -0.03409090909090723, 0.00833333333337535, 0.02
281, -0.03409090909091379, 6.643817440643573e-14, 0.02
282, -0.03409090909092037, -0.008333333333288135, 0.02
283, -0.03409090909092692, -0.01666666666664475, 0.02
284, -0.04318181818179435, 0.01666666666668496, 0.02
285, -0.04318181818180943, 0.00833333333337535, 0.02
286, -0.0431818181818245, 6.643817440643573e-14, 0.02
287, -0.04318181818183959, -0.008333333333288137, 0.02
288, -0.04318181818185465, -0.01666666666664476, 0.02
289, -0.0522727272726829, 0.01666666666668496, 0.02
290, -0.05227272727270647, 0.00833333333337535, 0.02
291, -0.05227272727273004, 6.643643968295976e-14, 0.02
292, -0.05227272727275363, -0.008333333333288137, 0.02
293, -0.05227272727277718, -0.01666666666664475, 0.02
294, -0.0613636363635742, 0.01666666666668496, 0.02
295, -0.0613636363636067, 0.008333333333375352, 0.02
296, -0.06136363636363919, 6.643470495948378e-14, 0.02
297, -0.06136363636367172, -0.008333333333288138, 0.02
298, -0.06136363636370421, -0.01666666666664475, 0.02
299, -0.0704545454544651, 0.01666666666668496, 0.02
300, -0.07045454545450612, 0.00833333333337535, 0.02
301, -0.07045454545454713, 6.643730704469775e-14, 0.02
302, -0.07045454545458815, -0.008333333333288135, 0.02
303, -0.0704545454546292, -0.01666666666664475, 0.02
304, -0.07954545454537607, 0.01666666666668496, 0.02
305, -0.07954545454541692, 0.00833333333337535, 0.02
306, -0.07954545454545778, 6.643817440643573e-14, 0.02
307, -0.07954545454549863, -0.008333333333288137, 0.02
308, -0.07954545454553946, -0.01666666666664475, 0.02
309, -0.08863636363629998, 0.01666666666668496, 0.02
310, -0.08863636363633282, 0.008333333333375352, 0.02
311, -0.08863636363636566, 6.643730704469775e-14, 0.02
312, -0.08863636363639854, -0.008333333333288138, 0.02
313, -0.08863636363643138, -0.01666666666664475, 0.02
314, -0.09772727272722571, 0.01666666666668496, 0.02
315, -0.09772727272725018, 0.008333333333375352, 0.02
316, -0.09772727272727467, 6.643687336382875e-14, 0.02
317, -0.09772727272729918, -0.008333333333288138, 0.02
318, -0.09772727272732369, -0.01666666666664475, 0.02
319, -0.1068181818181477, 0.01666666666668496, 0.02
320, -0.1068181818181646, 0.008333333333375352, 0.02
321, -0.1068181818181815, 6.643643968295976e-14, 0.02
322, -0.1068181818181984, -0.008333333333288137, 0.02
323, -0.1068181818182152, -0.01666666666664475, 0.02
324, -0.1159090909090739, 0.01666666666668496, 0.02
325, -0.1159090909090823, 0.00833333333337535, 0.02
326, -0.1159090909090907, 6.643687336382875e-14, 0.02
327, -0.1159090909090992, -0.008333333333288138, 0.02
328, -0.1159090909091076, -0.01666666666664475, 0.02
329, -0.01299038105676127, 0.007500000000009183, 0.006666666666666666
330, -0.01299038105676127, 0.007500000000009183, 0.01333333333333333
331, -0.01448888739433075, 0.003882285676557482, 0.006666666666666666
332, -0.01448888739433075, 0.003882285676557482, 0.01333333333333333
333, -0.015, 2.822221623066667e-14, 0.006666666666666666
334, -0.015, 2.822221623066667e-14, 0.01333333333333333
335, -0.01448888739434084, -0.003882285676519839, 0.006666666666666666
336, -0.01448888739434084, -0.003882285676519839, 0.01333333333333333
337, -0.01299038105676934, -0.007499999999995226, 0.006666666666666666
338, -0.01299038105676934, -0.007499999999995226, 0.01333333333333333
339, -0.01653329513377862, 0.01653329513377862, 0.006666666666666666
340, -0.01653329513377862, 0.01653329513377862, 0.01333333333333333
341, -0.01653329514705499, -0.01653329514705499, 0.006666666666666666
342, -0.01653329514705499, -0.01653329514705499, 0.01333333333333333
343, -0.01793551827342134, 0.01127450980493208, 0.02
344, -0.01881699258987973, 0.005715070002841062, 0.02
345, -0.01911764706534304, -6.594227308755773e-12, 0.02
346, -0.01881699259431112, -0.005715070016059383, 0.02
347, -0.01793551828227701, -0.01127450981818368, 0.02
348, -0.005740251485485389, 0.01385819298766556, 0.006666666666666666
349, -0.005740251485485389, 0.01385819298766556, 0.01333333333333333
350, 0, 0.01999999999998846, 0.006666666666666666
351, 0, 0.01999999999998846, 0.01333333333333333
352, -0.01249999999996714, 0.025, 0.006666666666666666
353, -0.01249999999996714, 0.025, 0.01333333333333333
354, -0.00848512288016548, 0.01879409363126694, 0.02
355, 0.009567085809082783, -0.02309698831280059, 0.006666666666666666
356, 0.009567085809082783, -0.02309698831280059, 0.01333333333333333
357, 0.01767766952961651, -0.01767766952971086, 0.006666666666666666
358, 0.01767766952961651, -0.01767766952971086, 0.01333333333333333
359, 0.02309698831275005, -0.009567085809204789, 0.006666666666666666
360, 0.02309698831275005, -0.009567085809204789, 0.01333333333333333
361, 0.025, -1.002102610111656e-13, 0.006666666666666666
362, 0.025, -1.002102610111656e-13, 0.01333333333333333
363, 0.02309698831280754, 0.009567085809066003, 0.006666666666666666
364, 0.02309698831280754, 0.009567085809066003, 0.01333333333333333
365, 0.01767766952968442, 0.01767766952964295, 0.006666666666666666
366, 0.01767766952968442, 0.01767766952964295, 0.01333333333333333
367, 0.009567085809124487, 0.02309698831278331, 0.006666666666666666
368, 0.009567085809124487, 0.02309698831278331, 0.01333333333333333
369, 0.005740251485449775, -0.01385819298768031, 0.006666666666666666
370, 0.005740251485449775, -0.01385819298768031, 0.01333333333333333
371, 0.01060660171777028, -0.01060660171782615, 0.006666666666666666
372, 0.01060660171777028, -0.01060660171782615, 0.01333333333333333
373, 0.01385819298765027, -0.005740251485522292, 0.006666666666666666
374, 0.01385819298765027, -0.005740251485522292, 0.01333333333333333
375, 0.015, -5.937009472692961e-14, 0.006666666666666666
376, 0.015, -5.937009472692961e-14, 0.01333333333333333
377, 0.01385819298768431, 0.0057402514854401, 0.006666666666666666
378, 0.01385819298768431, 0.0057402514854401, 0.01333333333333333
379, 0.01060660171781163, 0.01060660171778479, 0.006666666666666666
380, 0.01060660171781163, 0.01060660171778479, 0.01333333333333333
381, 0.005740251485474902, 0.0138581929876699, 0.006666666666666666
382, 0.005740251485474902, 0.0138581929876699, 0.01333333333333333
383, 0, -0.01999999999998846, 0.006666666666666666
384, 0, -0.01999999999998846, 0.01333333333333333
385, 0.007653668647261865, -0.01847759065022979, 0.02
386, 0.01414213562368524, -0.01414213562376035, 0.02
387, 0.0184775906501895, -0.007653668647359127, 0.02
388, 0.01999999999998846, -7.97888768263935e-14, 0.02
389, 0.01847759065023527, 0.007653668647248637, 0.02
390, 0.01414213562373987, 0.01414213562370571, 0.02
391, 0.00765366864729528, 0.01847759065021595, 0.02
392, -0.005740251485485389, -0.01385819298766556, 0.006666666666666666
393, -0.005740251485485389, -0.01385819298766556, 0.01333333333333333
394, -0.01249999999996714, -0.025, 0.006666666666666666
395, -0.01249999999996714, -0.025, 0.01333333333333333
396, -0.008485122886803666, -0.01879409363790512, 0.02
397, -0.03409090909090065, 0.01666666666668496, 0.006666666666666666
398, -0.03409090909090065, 0.01666666666668496, 0.01333333333333333
399, -0.03409090909090723, 0.00833333333337535, 0.006666666666666666
400, -0.03409090909090723, 0.00833333333337535, 0.01333333333333333
401, -0.03409090909091379, 6.643817440643573e-14, 0.006666666666666666
402, -0.03409090909091379, 6.643817440643573e-14, 0.01333333333333333
403, -0.03409090909092037, -0.008333333333288135, 0.006666666666666666
404, -0.03409090909092037, -0.008333333333288135, 0.01333333333333333
405, -0.03409090909092692, -0.01666666666664475, 0.006666666666666666
406, -0.03409090909092692, -0.01666666666664475, 0.01333333333333333
407, -0.04318181818179435, 0.01666666666668496, 0.006666666666666666
408, -0.04318181818179435, 0.01666666666668496, 0.01333333333333333
409, -0.04318181818180943, 0.00833333333337535, 0.006666666666666666
410, -0.04318181818180943, 0.00833333333337535, 0.01333333333333333
411, -0.0431818181818245, 6.643817440643573e-14, 0.006666666666666666
412, -0.0431818181818245, 6.643817440643573e-14, 0.01333333333333333
413, -0.04318181818183959, -0.008333333333288137, 0.006666666666666666
414, -0.04318181818183959, -0.008333333333288137, 0.01333333333333333
415, -0.04318181818185465, -0.01666666666664476, 0.006666666666666666
416, -0.04318181818185465, -0.01666666666664476, 0.01333333333333333
417, -0.0522727272726829, 0.01666666666668496, 0.006666666666666666
418, -0.0522727272726829, 0.01666666666668496, 0.01333333333333333
419, -0.05227272727270647, 0.00833333333337535, 0.006666666666666666
420, -0.05227272727270647, 0.00833333333337535, 0.01333333333333333
421, -0.05227272727273004, 6.643643968295976e-14, 0.006666666666666666
422, -0.05227272727273004, 6.643643968295976e-14, 0.01333333333333333
423, -0.05227272727275363, -0.008333333333288137, 0.006666666666666666
424, -0.05227272727275363, -0.008333333333288137, 0.01333333333333333
425, -0.05227272727277718, -0.01666666666664475, 0.006666666666666666
426, -0.05227272727277718, -0.01666666666664475, 0.01333333333333333
427, -0.0613636363635742, 0.01666666666668496, 0.006666666666666666
428, -0.0613636363635742, 0.01666666666668496, 0.01333333333333333
429, -0.0613636363636067, 0.008333333333375352, 0.006666666666666666
430, -0.0613636363636067, 0.008333333333375352, 0.01333333333333333
431, -0.06136363636363919, 6.643470495948378e-14, 0.006666666666666666
432, -0.06136363636363919, 6.643470495948378e-14, 0.01333333333333333
433, -0.06136363636367172, -0.008333333333288138, 0.006666666666666666
434, -0.06136363636367172, -0.008333333333288138, 0.01333333333333333
435, -0.06136363636370421, -0.01666666666664475, 0.006666666666666666
436, -0.06136363636370421, -0.01666666666664475, 0.01333333333333333
437, -0.0704545454544651, 0.01666666666668496, 0.006666666666666666
438, -0.0704545454544651, 0.01666666666668496, 0.01333333333333333
439, -0.07045454545450612, 0.00833333333337535, 0.006666666666666666
440, -0.07045454545450612, 0.00833333333337535, 0.01333333333333333
441, -0.07045454545454713, 6.643730704469775e-14, 0.006666666666666666
442, -0.07045454545454713, 6.643730704469775e-14, 0.01333333333333333
443, -0.07045454545458815, -0.008333333333288135, 0.006666666666666666
444, -0.07045454545458815, -0.008333333333288135, 0.01333333333333333
445, -0.0704545454546292, -0.01666666666664475, 0.006666666666666666
446, -0.0704545454546292, -0.01666666666664475, 0.01333333333333333
447, -0.07954545454537607, 0.01666666666668496, 0.006666666666666666
448, -0.07954545454537607, 0.01666666666668496, 0.01333333333333333
449, -0.07954545454541692, 0.00833333333337535, 0.006666666666666666
450, -0.07954545454541692, 0.00833333333337535, 0.01333333333333333
451, -0.07954545454545778, 6.643817440643573e-14, 0.006666666666666666
452, -0.07954545454545778, 6.643817440643573e-14, 0.01333333333333333
453, -0.07954545454549863, -0.008333333333288137, 0.006666666666666666
454, -0.07954545454549863, -0.008333333333288137, 0.01333333333333333
455, -0.07954545454553946, -0.01666666666664475, 0.006666666666666666
456, -0.07954545454553946, -0.01666666666664475, 0.01333333333333333
457, -0.08863636363629998, 0.01666666666668496, 0.006666666666666666
458, -0.08863636363629998, 0.01666666666668496, 0.01333333333333333
459, -0.08863636363633282, 0.008333333333375352, 0.006666666666666666
460, -0.08863636363633282, 0.008333333333375352, 0.01333333333333333
461, -0.08863636363636566, 6.643730704469775e-14, 0.006666666666666666
462, -0.08863636363636566, 6.643730704469775e-14, 0.01333333333333333
463, -0.08863636363639854, -0.008333333333288138, 0.006666666666666666
464, -0.08863636363639854, -0.008333333333288138, 0.01333333333333333
465, -0.08863636363643138, -0.01666666666664475, 0.006666666666666666
466, -0.08863636363643138, -0.01666666666664475, 0.01333333333333333
467, -0.09772727272722571, 0.01666666666668496, 0.006666666666666666
468, -0.09772727272722571, 0.01666666666668496, 0.01333333333333333
469, -0.09772727272725018, 0.008333333333375352, 0.006666666666666666
470, -0.09772727272725018, 0.008333333333375352, 0.01333333333333333
471, -0.09772727272727467, 6.643687336382875e-14, 0.006666666666666666
472, -0.09772727272727467, 6.643687336382875e-14, 0.01333333333333333
473, -0.09772727272729918, -0.008333333333288138, 0.006666666666666666
474, -0.09772727272729918, -0.008333333333288138, 0.01333333333333333
475, -0.09772727272732369, -0.01666666666664475, 0.006666666666666666
476, -0.09772727272732369, -0.01666666666664475, 0.01333333333333333
477, -0.1068181818181477, 0.01666666666668496, 0.006666666666666666
478, -0.1068181818181477, 0.01666666666668496, 0.01333333333333333
479, -0.1068181818181646, 0.008333333333375352, 0.006666666666666666
480, -0.1068181818181646, 0.008333333333375352, 0.01333333333333333
481, -0.1068181818181815, 6.643643968295976e-14, 0.006666666666666666
482, -0.1068181818181815, 6.643643968295976e-14, 0.01333333333333333
483, -0.1068181818181984, -0.008333333333288137, 0.006666666666666666
484, -0.1068181818181984, -0.008333333333288137, 0.01333333333333333
485, -0.1068181818182152, -0.01666666666664475, 0.006666666666666666
486, -0.1068181818182152, -0.01666666666664475, 0.01333333333333333
487, -0.1159090909090739, 0.01666666666668496, 0.006666666666666666
488, -0.1159090909090739, 0.01666666666668496, 0.01333333333333333
489, -0.1159090909090823, 0.00833333333337535, 0.006666666666666666
490, -0.1159090909090823, 0.00833333333337535, 0.01333333333333333
491, -0.1159090909090907, 6.643687336382875e-14, 0.006666666666666666
492, -0.1159090909090907, 6.643687336382875e-14, 0.01333333333333333
493, -0.1159090909090992, -0.008333333333288138, 0.006666666666666666
494, -0.1159090909090992, -0.008333333333288138, 0.01333333333333333
495, -0.1159090909091076, -0.01666666666664475, 0.006666666666666666
496, -0.1159090909091076, -0.01666666666664475, 0.01333333333333333
497, -0.01793551827342134, 0.01127450980493208, 0.006666666666666666
498, -0.01793551827342134, 0.01127450980493208, 0.01333333333333333
499, -0.01881699258987973, 0.005715070002841062, 0.006666666666666666
500, -0.01881699258987973, 0.005715070002841062, 0.01333333333333333
501, -0.01911764706534304, -6.594227308755773e-12, 0.006666666666666666
502, -0.01911764706534304, -6.594227308755773e-12, 0.01333333333333333
503, -0.01881699259431112, -0.005715070016059383, 0.006666666666666666
504, -0.01881699259431112, -0.005715070016059383, 0.01333333333333333
505, -0.01793551828227701, -0.01127450981818368, 0.006666666666666666
506, -0.01793551828227701, -0.01127450981818368, 0.01333333333333333
507, -0.00848512288016548, 0.01879409363126694, 0.006666666666666666
508, -0.00848512288016548, 0.01879409363126694, 0.01333333333333333
509, 0.007653668647261865, -0.01847759065022979, 0.006666666666666666
510, 0.007653668647261865, -0.01847759065022979, 0.01333333333333333
511, 0.01414213562368524, -0.01414213562376035, 0.006666666666666666
512, 0.01414213562368524, -0.01414213562376035, 0.01333333333333333
513, 0.0184775906501895, -0.007653668647359127, 0.006666666666666666
514, 0.0184775906501895, -0.007653668647359127, 0.01333333333333333
515, 0.01999999999998846, -7.97888768263935e-14, 0.006666666666666666
516, 0.01999999999998846, -7.97888768263935e-14, 0.01333333333333333
517, 0.01847759065023527, 0.007653668647248637, 0.006666666666666666
518, 0.01847759065023527, 0.007653668647248637, 0.01333333333333333
519, 0.01414213562373987, 0.01414213562370571, 0.006666666666666666
520, 0.01414213562373987, 0.01414213562370571, 0.01333333333333333
521, 0.00765366864729528, 0.01847759065021595, 0.006666666666666666
522, 0.00765366864729528, 0.01847759065021595, 0.01333333333333333
523, -0.008485122886803666, -0.01879409363790512, 0.006666666666666666
524, -0.008485122886803666, -0.01879409363790512, 0.01333333333333333
******* E L E M E N T S *************
*ELEMENT, type=C3D8, ELSET=Volume1
3953, 3, 53, 169, 27, 108, 219, 397, 269
3954, 108, 219, 397, 269, 109, 220, 398, 270
3955, 109, 220, 398, 270, 11, 78, 279, 107
3956, 27, 169, 170, 28, 269, 397, 399, 271
3957, 269, 397, 399, 271, 270, 398, 400, 272
3958, 270, 398, 400, 272, 107, 279, 280, 106
3959, 28, 170, 171, 29, 271, 399, 401, 273
3960, 271, 399, 401, 273, 272, 400, 402, 274
3961, 272, 400, 402, 274, 106, 280, 281, 105
3962, 29, 171, 172, 30, 273, 401, 403, 275
3963, 273, 401, 403, 275, 274, 402, 404, 276
3964, 274, 402, 404, 276, 105, 281, 282, 104
3965, 30, 172, 173, 31, 275, 403, 405, 277
3966, 275, 403, 405, 277, 276, 404, 406, 278
3967, 276, 404, 406, 278, 104, 282, 283, 103
3968, 31, 173, 77, 4, 277, 405, 267, 114
3969, 277, 405, 267, 114, 278, 406, 268, 115
3970, 278, 406, 268, 115, 103, 283, 102, 14
3971, 53, 54, 174, 169, 219, 221, 407, 397
3972, 219, 221, 407, 397, 220, 222, 408, 398
3973, 220, 222, 408, 398, 78, 79, 284, 279
3974, 169, 174, 175, 170, 397, 407, 409, 399
3975, 397, 407, 409, 399, 398, 408, 410, 400
3976, 398, 408, 410, 400, 279, 284, 285, 280
3977, 170, 175, 176, 171, 399, 409, 411, 401
3978, 399, 409, 411, 401, 400, 410, 412, 402
3979, 400, 410, 412, 402, 280, 285, 286, 281
3980, 171, 176, 177, 172, 401, 411, 413, 403
3981, 401, 411, 413, 403, 402, 412, 414, 404
3982, 402, 412, 414, 404, 281, 286, 287, 282
3983, 172, 177, 178, 173, 403, 413, 415, 405
3984, 403, 413, 415, 405, 404, 414, 416, 406
3985, 404, 414, 416, 406, 282, 287, 288, 283
3986, 173, 178, 76, 77, 405, 415, 265, 267
3987, 405, 415, 265, 267, 406, 416, 266, 268
3988, 406, 416, 266, 268, 283, 288, 101, 102
3989, 54, 55, 179, 174, 221, 223, 417, 407
3990, 221, 223, 417, 407, 222, 224, 418, 408
3991, 222, 224, 418, 408, 79, 80, 289, 284
3992, 174, 179, 180, 175, 407, 417, 419, 409
3993, 407, 417, 419, 409, 408, 418, 420, 410
3994, 408, 418, 420, 410, 284, 289, 290, 285
3995, 175, 180, 181, 176, 409, 419, 421, 411
3996, 409, 419, 421, 411, 410, 420, 422, 412
3997, 410, 420, 422, 412, 285, 290, 291, 286
3998, 176, 181, 182, 177, 411, 421, 423, 413
3999, 411, 421, 423, 413, 412, 422, 424, 414
4000, 412, 422, 424, 414, 286, 291, 292, 287
4001, 177, 182, 183, 178, 413, 423, 425, 415
4002, 413, 423, 425, 415, 414, 424, 426, 416
4003, 414, 424, 426, 416, 287, 292, 293, 288
4004, 178, 183, 75, 76, 415, 425, 263, 265
4005, 415, 425, 263, 265, 416, 426, 264, 266
4006, 416, 426, 264, 266, 288, 293, 100, 101
4007, 55, 56, 184, 179, 223, 225, 427, 417
4008, 223, 225, 427, 417, 224, 226, 428, 418
4009, 224, 226, 428, 418, 80, 81, 294, 289
4010, 179, 184, 185, 180, 417, 427, 429, 419
4011, 417, 427, 429, 419, 418, 428, 430, 420
4012, 418, 428, 430, 420, 289, 294, 295, 290
4013, 180, 185, 186, 181, 419, 429, 431, 421
4014, 419, 429, 431, 421, 420, 430, 432, 422
4015, 420, 430, 432, 422, 290, 295, 296, 291
4016, 181, 186, 187, 182, 421, 431, 433, 423
4017, 421, 431, 433, 423, 422, 432, 434, 424
4018, 422, 432, 434, 424, 291, 296, 297, 292
4019, 182, 187, 188, 183, 423, 433, 435, 425
4020, 423, 433, 435, 425, 424, 434, 436, 426
4021, 424, 434, 436, 426, 292, 297, 298, 293
4022, 183, 188, 74, 75, 425, 435, 261, 263
4023, 425, 435, 261, 263, 426, 436, 262, 264
4024, 426, 436, 262, 264, 293, 298, 99, 100
4025, 56, 57, 189, 184, 225, 227, 437, 427
4026, 225, 227, 437, 427, 226, 228, 438, 428
4027, 226, 228, 438, 428, 81, 82, 299, 294
4028, 184, 189, 190, 185, 427, 437, 439, 429
4029, 427, 437, 439, 429, 428, 438, 440, 430
4030, 428, 438, 440, 430, 294, 299, 300, 295
4031, 185, 190, 191, 186, 429, 439, 441, 431
4032, 429, 439, 441, 431, 430, 440, 442, 432
4033, 430, 440, 442, 432, 295, 300, 301, 296
4034, 186, 191, 192, 187, 431, 441, 443, 433
4035, 431, 441, 443, 433, 432, 442, 444, 434
4036, 432, 442, 444, 434, 296, 301, 302, 297
4037, 187, 192, 193, 188, 433, 443, 445, 435
4038, 433, 443, 445, 435, 434, 444, 446, 436
4039, 434, 444, 446, 436, 297, 302, 303, 298
4040, 188, 193, 73, 74, 435, 445, 259, 261
4041, 435, 445, 259, 261, 436, 446, 260, 262
4042, 436, 446, 260, 262, 298, 303, 98, 99
4043, 57, 58, 194, 189, 227, 229, 447, 437
4044, 227, 229, 447, 437, 228, 230, 448, 438
4045, 228, 230, 448, 438, 82, 83, 304, 299
4046, 189, 194, 195, 190, 437, 447, 449, 439
4047, 437, 447, 449, 439, 438, 448, 450, 440
4048, 438, 448, 450, 440, 299, 304, 305, 300
4049, 190, 195, 196, 191, 439, 449, 451, 441
4050, 439, 449, 451, 441, 440, 450, 452, 442
4051, 440, 450, 452, 442, 300, 305, 306, 301
4052, 191, 196, 197, 192, 441, 451, 453, 443
4053, 441, 451, 453, 443, 442, 452, 454, 444
4054, 442, 452, 454, 444, 301, 306, 307, 302
4055, 192, 197, 198, 193, 443, 453, 455, 445
4056, 443, 453, 455, 445, 444, 454, 456, 446
4057, 444, 454, 456, 446, 302, 307, 308, 303
4058, 193, 198, 72, 73, 445, 455, 257, 259
4059, 445, 455, 257, 259, 446, 456, 258, 260
4060, 446, 456, 258, 260, 303, 308, 97, 98
4061, 58, 59, 199, 194, 229, 231, 457, 447
4062, 229, 231, 457, 447, 230, 232, 458, 448
4063, 230, 232, 458, 448, 83, 84, 309, 304
4064, 194, 199, 200, 195, 447, 457, 459, 449
4065, 447, 457, 459, 449, 448, 458, 460, 450
4066, 448, 458, 460, 450, 304, 309, 310, 305
4067, 195, 200, 201, 196, 449, 459, 461, 451
4068, 449, 459, 461, 451, 450, 460, 462, 452
4069, 450, 460, 462, 452, 305, 310, 311, 306
4070, 196, 201, 202, 197, 451, 461, 463, 453
4071, 451, 461, 463, 453, 452, 462, 464, 454
4072, 452, 462, 464, 454, 306, 311, 312, 307
4073, 197, 202, 203, 198, 453, 463, 465, 455
4074, 453, 463, 465, 455, 454, 464, 466, 456
4075, 454, 464, 466, 456, 307, 312, 313, 308
4076, 198, 203, 71, 72, 455, 465, 255, 257
4077, 455, 465, 255, 257, 456, 466, 256, 258
4078, 456, 466, 256, 258, 308, 313, 96, 97
4079, 59, 60, 204, 199, 231, 233, 467, 457
4080, 231, 233, 467, 457, 232, 234, 468, 458
4081, 232, 234, 468, 458, 84, 85, 314, 309
4082, 199, 204, 205, 200, 457, 467, 469, 459
4083, 457, 467, 469, 459, 458, 468, 470, 460
4084, 458, 468, 470, 460, 309, 314, 315, 310
4085, 200, 205, 206, 201, 459, 469, 471, 461
4086, 459, 469, 471, 461, 460, 470, 472, 462
4087, 460, 470, 472, 462, 310, 315, 316, 311
4088, 201, 206, 207, 202, 461, 471, 473, 463
4089, 461, 471, 473, 463, 462, 472, 474, 464
4090, 462, 472, 474, 464, 311, 316, 317, 312
4091, 202, 207, 208, 203, 463, 473, 475, 465
4092, 463, 473, 475, 465, 464, 474, 476, 466
4093, 464, 474, 476, 466, 312, 317, 318, 313
4094, 203, 208, 70, 71, 465, 475, 253, 255
4095, 465, 475, 253, 255, 466, 476, 254, 256
4096, 466, 476, 254, 256, 313, 318, 95, 96
4097, 60, 61, 209, 204, 233, 235, 477, 467
4098, 233, 235, 477, 467, 234, 236, 478, 468
4099, 234, 236, 478, 468, 85, 86, 319, 314
4100, 204, 209, 210, 205, 467, 477, 479, 469
4101, 467, 477, 479, 469, 468, 478, 480, 470
4102, 468, 478, 480, 470, 314, 319, 320, 315
4103, 205, 210, 211, 206, 469, 479, 481, 471
4104, 469, 479, 481, 471, 470, 480, 482, 472
4105, 470, 480, 482, 472, 315, 320, 321, 316
4106, 206, 211, 212, 207, 471, 481, 483, 473
4107, 471, 481, 483, 473, 472, 482, 484, 474
4108, 472, 482, 484, 474, 316, 321, 322, 317
4109, 207, 212, 213, 208, 473, 483, 485, 475
4110, 473, 483, 485, 475, 474, 484, 486, 476
4111, 474, 484, 486, 476, 317, 322, 323, 318
4112, 208, 213, 69, 70, 475, 485, 251, 253
4113, 475, 485, 251, 253, 476, 486, 252, 254
4114, 476, 486, 252, 254, 318, 323, 94, 95
4115, 61, 62, 214, 209, 235, 237, 487, 477
4116, 235, 237, 487, 477, 236, 238, 488, 478
4117, 236, 238, 488, 478, 86, 87, 324, 319
4118, 209, 214, 215, 210, 477, 487, 489, 479
4119, 477, 487, 489, 479, 478, 488, 490, 480
4120, 478, 488, 490, 480, 319, 324, 325, 320
4121, 210, 215, 216, 211, 479, 489, 491, 481
4122, 479, 489, 491, 481, 480, 490, 492, 482
4123, 480, 490, 492, 482, 320, 325, 326, 321
4124, 211, 216, 217, 212, 481, 491, 493, 483
4125, 481, 491, 493, 483, 482, 492, 494, 484
4126, 482, 492, 494, 484, 321, 326, 327, 322
4127, 212, 217, 218, 213, 483, 493, 495, 485
4128, 483, 493, 495, 485, 484, 494, 496, 486
4129, 484, 494, 496, 486, 322, 327, 328, 323
4130, 213, 218, 68, 69, 485, 495, 249, 251
4131, 485, 495, 249, 251, 486, 496, 250, 252
4132, 486, 496, 250, 252, 323, 328, 93, 94
4133, 62, 10, 63, 214, 237, 110, 239, 487
4134, 237, 110, 239, 487, 238, 111, 240, 488
4135, 238, 111, 240, 488, 87, 12, 88, 324
4136, 214, 63, 64, 215, 487, 239, 241, 489
4137, 487, 239, 241, 489, 488, 240, 242, 490
4138, 488, 240, 242, 490, 324, 88, 89, 325
4139, 215, 64, 65, 216, 489, 241, 243, 491
4140, 489, 241, 243, 491, 490, 242, 244, 492
4141, 490, 242, 244, 492, 325, 89, 90, 326
4142, 216, 65, 66, 217, 491, 243, 245, 493
4143, 491, 243, 245, 493, 492, 244, 246, 494
4144, 492, 244, 246, 494, 326, 90, 91, 327
4145, 217, 66, 67, 218, 493, 245, 247, 495
4146, 493, 245, 247, 495, 494, 246, 248, 496
4147, 494, 246, 248, 496, 327, 91, 92, 328
4148, 218, 67, 9, 68, 495, 247, 112, 249
4149, 495, 247, 112, 249, 496, 248, 113, 250
4150, 496, 248, 113, 250, 328, 92, 13, 93
*ELEMENT, type=C3D8, ELSET=Volume2
4151, 1, 26, 155, 21, 125, 339, 497, 329
4152, 125, 339, 497, 329, 126, 340, 498, 330
4153, 126, 340, 498, 330, 16, 121, 343, 120
4154, 26, 3, 27, 155, 339, 108, 269, 497
4155, 339, 108, 269, 497, 340, 109, 270, 498
4156, 340, 109, 270, 498, 121, 11, 107, 343
4157, 21, 155, 156, 22, 329, 497, 499, 331
4158, 329, 497, 499, 331, 330, 498, 500, 332
4159, 330, 498, 500, 332, 120, 343, 344, 119
4160, 155, 27, 28, 156, 497, 269, 271, 499
4161, 497, 269, 271, 499, 498, 270, 272, 500
4162, 498, 270, 272, 500, 343, 107, 106, 344
4163, 22, 156, 157, 23, 331, 499, 501, 333
4164, 331, 499, 501, 333, 332, 500, 502, 334
4165, 332, 500, 502, 334, 119, 344, 345, 118
4166, 156, 28, 29, 157, 499, 271, 273, 501
4167, 499, 271, 273, 501, 500, 272, 274, 502
4168, 500, 272, 274, 502, 344, 106, 105, 345
4169, 23, 157, 158, 24, 333, 501, 503, 335
4170, 333, 501, 503, 335, 334, 502, 504, 336
4171, 334, 502, 504, 336, 118, 345, 346, 117
4172, 157, 29, 30, 158, 501, 273, 275, 503
4173, 501, 273, 275, 503, 502, 274, 276, 504
4174, 502, 274, 276, 504, 345, 105, 104, 346
4175, 24, 158, 159, 25, 335, 503, 505, 337
4176, 335, 503, 505, 337, 336, 504, 506, 338
4177, 336, 504, 506, 338, 117, 346, 347, 116
4178, 158, 30, 31, 159, 503, 275, 277, 505
4179, 503, 275, 277, 505, 504, 276, 278, 506
4180, 504, 276, 278, 506, 346, 104, 103, 347
4181, 25, 159, 32, 2, 337, 505, 341, 123
4182, 337, 505, 341, 123, 338, 506, 342, 124
4183, 338, 506, 342, 124, 116, 347, 122, 15
4184, 159, 31, 4, 32, 505, 277, 114, 341
4185, 505, 277, 114, 341, 506, 278, 115, 342
4186, 506, 278, 115, 342, 347, 103, 14, 122
*ELEMENT, type=C3D8, ELSET=Volume3
4187, 1, 33, 160, 26, 125, 348, 507, 339
4188, 125, 348, 507, 339, 126, 349, 508, 340
4189, 126, 349, 508, 340, 16, 127, 354, 121
4190, 26, 160, 35, 3, 339, 507, 352, 108
4191, 339, 507, 352, 108, 340, 508, 353, 109
4192, 340, 508, 353, 109, 121, 354, 129, 11
4193, 33, 6, 34, 160, 348, 130, 350, 507
4194, 348, 130, 350, 507, 349, 131, 351, 508
4195, 349, 131, 351, 508, 127, 17, 128, 354
4196, 160, 34, 5, 35, 507, 350, 132, 352
4197, 507, 350, 132, 352, 508, 351, 133, 353
4198, 508, 351, 133, 353, 354, 128, 18, 129
*ELEMENT, type=C3D8, ELSET=Volume4
4199, 7, 46, 162, 37, 149, 355, 509, 383
4200, 149, 355, 509, 383, 150, 356, 510, 384
4201, 150, 356, 510, 384, 19, 134, 385, 148
4202, 37, 162, 39, 8, 383, 509, 369, 151
4203, 383, 509, 369, 151, 384, 510, 370, 152
4204, 384, 510, 370, 152, 148, 385, 147, 20
4205, 46, 47, 163, 162, 355, 357, 511, 509
4206, 355, 357, 511, 509, 356, 358, 512, 510
4207, 356, 358, 512, 510, 134, 135, 386, 385
4208, 162, 163, 40, 39, 509, 511, 371, 369
4209, 509, 511, 371, 369, 510, 512, 372, 370
4210, 510, 512, 372, 370, 385, 386, 146, 147
4211, 47, 48, 164, 163, 357, 359, 513, 511
4212, 357, 359, 513, 511, 358, 360, 514, 512
4213, 358, 360, 514, 512, 135, 136, 387, 386
4214, 163, 164, 41, 40, 511, 513, 373, 371
4215, 511, 513, 373, 371, 512, 514, 374, 372
4216, 512, 514, 374, 372, 386, 387, 145, 146
4217, 48, 49, 165, 164, 359, 361, 515, 513
4218, 359, 361, 515, 513, 360, 362, 516, 514
4219, 360, 362, 516, 514, 136, 137, 388, 387
4220, 164, 165, 42, 41, 513, 515, 375, 373
4221, 513, 515, 375, 373, 514, 516, 376, 374
4222, 514, 516, 376, 374, 387, 388, 144, 145
4223, 49, 50, 166, 165, 361, 363, 517, 515
4224, 361, 363, 517, 515, 362, 364, 518, 516
4225, 362, 364, 518, 516, 137, 138, 389, 388
4226, 165, 166, 43, 42, 515, 517, 377, 375
4227, 515, 517, 377, 375, 516, 518, 378, 376
4228, 516, 518, 378, 376, 388, 389, 143, 144
4229, 50, 51, 167, 166, 363, 365, 519, 517
4230, 363, 365, 519, 517, 364, 366, 520, 518
4231, 364, 366, 520, 518, 138, 139, 390, 389
4232, 166, 167, 44, 43, 517, 519, 379, 377
4233, 517, 519, 379, 377, 518, 520, 380, 378
4234, 518, 520, 380, 378, 389, 390, 142, 143
4235, 51, 52, 168, 167, 365, 367, 521, 519
4236, 365, 367, 521, 519, 366, 368, 522, 520
4237, 366, 368, 522, 520, 139, 140, 391, 390
4238, 167, 168, 45, 44, 519, 521, 381, 379
4239, 519, 521, 381, 379, 520, 522, 382, 380
4240, 520, 522, 382, 380, 390, 391, 141, 142
4241, 52, 5, 34, 168, 367, 132, 350, 521
4242, 367, 132, 350, 521, 368, 133, 351, 522
4243, 368, 133, 351, 522, 140, 18, 128, 391
4244, 168, 34, 6, 45, 521, 350, 130, 381
4245, 521, 350, 130, 381, 522, 351, 131, 382
4246, 522, 351, 131, 382, 391, 128, 17, 141
*ELEMENT, type=C3D8, ELSET=Volume5
4247, 161, 36, 2, 32, 523, 392, 123, 341
4248, 523, 392, 123, 341, 524, 393, 124, 342
4249, 524, 393, 124, 342, 396, 153, 15, 122
4250, 38, 161, 32, 4, 394, 523, 341, 114
4251, 394, 523, 341, 114, 395, 524, 342, 115
4252, 395, 524, 342, 115, 154, 396, 122, 14
4253, 37, 8, 36, 161, 383, 151, 392, 523
4254, 383, 151, 392, 523, 384, 152, 393, 524
4255, 384, 152, 393, 524, 148, 20, 153, 396
4256, 7, 37, 161, 38, 149, 383, 523, 394
4257, 149, 383, 523, 394, 150, 384, 524, 395
4258, 150, 384, 524, 395, 19, 148, 396, 154
*ELSET,ELSET=myVol
3953, 3954, 3955, 3956, 3957, 3958, 3959, 3960, 3961, 3962, 
3963, 3964, 3965, 3966, 3967, 3968, 3969, 3970, 3971, 3972, 
3973, 3974, 3975, 3976, 3977, 3978, 3979, 3980, 3981, 3982, 
3983, 3984, 3985, 3986, 3987, 3988, 3989, 3990, 3991, 3992, 
3993, 3994, 3995, 3996, 3997, 3998, 3999, 4000, 4001, 4002, 
4003, 4004, 4005, 4006, 4007, 4008, 4009, 4010, 4011, 4012, 
4013, 4014, 4015, 4016, 4017, 4018, 4019, 4020, 4021, 4022, 
4023, 4024, 4025, 4026, 4027, 4028, 4029, 4030, 4031, 4032, 
4033, 4034, 4035, 4036, 4037, 4038, 4039, 4040, 4041, 4042, 
4043, 4044, 4045, 4046, 4047, 4048, 4049, 4050, 4051, 4052, 
4053, 4054, 4055, 4056, 4057, 4058, 4059, 4060, 4061, 4062, 
4063, 4064, 4065, 4066, 4067, 4068, 4069, 4070, 4071, 4072, 
4073, 4074, 4075, 4076, 4077, 4078, 4079, 4080, 4081, 4082, 
4083, 4084, 4085, 4086, 4087, 4088, 4089, 4090, 4091, 4092, 
4093, 4094, 4095, 4096, 4097, 4098, 4099, 4100, 4101, 4102, 
4103, 4104, 4105, 4106, 4107, 4108, 4109, 4110, 4111, 4112, 
4113, 4114, 4115, 4116, 4117, 4118, 4119, 4120, 4121, 4122, 
4123, 4124, 4125, 4126, 4127, 4128, 4129, 4130, 4131, 4132, 
4133, 4134, 4135, 4136, 4137, 4138, 4139, 4140, 4141, 4142, 
4143, 4144, 4145, 4146, 4147, 4148, 4149, 4150, 4151, 4152, 
4153, 4154, 4155, 4156, 4157, 4158, 4159, 4160, 4161, 4162, 
4163, 4164, 4165, 4166, 4167, 4168, 4169, 4170, 4171, 4172, 
4173, 4174, 4175, 4176, 4177, 4178, 4179, 4180, 4181, 4182, 
4183, 4184, 4185, 4186, 4187, 4188, 4189, 4190, 4191, 4192, 
4193, 4194, 4195, 4196, 4197, 4198, 4199, 4200, 4201, 4202, 
4203, 4204, 4205, 4206, 4207, 4208, 4209, 4210, 4211, 4212, 
4213, 4214, 4215, 4216, 4217, 4218, 4219, 4220, 4221, 4222, 
4223, 4224, 4225, 4226, 4227, 4228, 4229, 4230, 4231, 4232, 
4233, 4234, 4235, 4236, 4237, 4238, 4239, 4240, 4241, 4242, 
4243, 4244, 4245, 4246, 4247, 4248, 4249, 4250, 4251, 4252, 
4253, 4254, 4255, 4256, 4257, 4258, 
