-9.950000001100000047e-01,-1.000000000000000000e+00,-9.989999999499999950e-01
-1.000000000000000000e+00,-9.950000001100000047e-01,-9.989999999499999950e-01
-1.000000000000000000e+00,-9.950000001100000047e-01,-1.000000000000000000e+00
-9.950000001100000047e-01,-1.000000000000000000e+00,-1.000000000000000000e+00
-1.000000000000000000e+00,-9.499999993000000087e-01,-9.989999999499999950e-01
-1.000000000000000000e+00,-9.499999993000000087e-01,-1.000000000000000000e+00
-1.000000000000000000e+00,-9.749999996000000557e-01,-1.000000000000000000e+00
-1.000000000000000000e+00,-9.749999996000000557e-01,-9.989999999499999950e-01
-9.749999996000000557e-01,-9.499999993000000087e-01,-9.989999999499999950e-01
-9.749999996000000557e-01,-9.499999993000000087e-01,-1.000000000000000000e+00
-9.749999996000000557e-01,-9.749999996000000557e-01,-1.000000000000000000e+00
-9.749999996000000557e-01,-1.000000000000000000e+00,-1.000000000000000000e+00
-9.749999996000000557e-01,-1.000000000000000000e+00,-9.989999999499999950e-01
-9.749999996000000557e-01,-9.749999996000000557e-01,-9.989999999499999950e-01
-9.950615582099999745e-01,-9.992178276880000487e-01,-9.989999999499999950e-01
-9.952447172299999645e-01,-9.984549150100000547e-01,-9.989999999499999950e-01
-9.955449672399999672e-01,-9.977300474400000452e-01,-9.989999999499999950e-01
-9.959549149499999920e-01,-9.970610737799999734e-01,-9.989999999499999950e-01
-9.964644662099999550e-01,-9.964644662099999550e-01,-9.989999999499999950e-01
-9.970610737799999734e-01,-9.959549149499999920e-01,-9.989999999499999950e-01
-9.977300474400000452e-01,-9.955449672399999672e-01,-9.989999999499999950e-01
-9.984549150100000547e-01,-9.952447172299999645e-01,-9.989999999499999950e-01
-9.992178276880000487e-01,-9.950615582099999745e-01,-9.989999999499999950e-01
-9.992178276880000487e-01,-9.950615582099999745e-01,-1.000000000000000000e+00
-9.984549150100000547e-01,-9.952447172299999645e-01,-1.000000000000000000e+00
-9.977300474400000452e-01,-9.955449672399999672e-01,-1.000000000000000000e+00
-9.970610737799999734e-01,-9.959549149499999920e-01,-1.000000000000000000e+00
-9.964644662099999550e-01,-9.964644662099999550e-01,-1.000000000000000000e+00
-9.959549149499999920e-01,-9.970610737799999734e-01,-1.000000000000000000e+00
-9.955449672399999672e-01,-9.977300474400000452e-01,-1.000000000000000000e+00
-9.952447172299999645e-01,-9.984549150100000547e-01,-1.000000000000000000e+00
-9.950615582099999745e-01,-9.992178276880000487e-01,-1.000000000000000000e+00
-1.000000000000000000e+00,-9.516926780000000141e-01,-1.000000000000000000e+00
-1.000000000000000000e+00,-9.536729939000000433e-01,-1.000000000000000000e+00
-1.000000000000000000e+00,-9.559898264999999729e-01,-1.000000000000000000e+00
-1.000000000000000000e+00,-9.587003626000000223e-01,-1.000000000000000000e+00
-1.000000000000000000e+00,-9.618714972999999890e-01,-1.000000000000000000e+00
-1.000000000000000000e+00,-9.655815102000000483e-01,-1.000000000000000000e+00
-1.000000000000000000e+00,-9.699219669999999960e-01,-1.000000000000000000e+00
-1.000000000000000000e+00,-9.786339067000000558e-01,-1.000000000000000000e+00
-1.000000000000000000e+00,-9.817490503000000368e-01,-1.000000000000000000e+00
-1.000000000000000000e+00,-9.844194893000000057e-01,-1.000000000000000000e+00
-1.000000000000000000e+00,-9.867087072000000347e-01,-1.000000000000000000e+00
-1.000000000000000000e+00,-9.886711248999999757e-01,-1.000000000000000000e+00
-1.000000000000000000e+00,-9.903533961599999547e-01,-1.000000000000000000e+00
-1.000000000000000000e+00,-9.917955128500000050e-01,-1.000000000000000000e+00
-1.000000000000000000e+00,-9.930317588200000545e-01,-1.000000000000000000e+00
-1.000000000000000000e+00,-9.940915233499999504e-01,-1.000000000000000000e+00
-1.000000000000000000e+00,-9.699219669999999960e-01,-9.989999999499999950e-01
-1.000000000000000000e+00,-9.655815102000000483e-01,-9.989999999499999950e-01
-1.000000000000000000e+00,-9.618714972999999890e-01,-9.989999999499999950e-01
-1.000000000000000000e+00,-9.587003626000000223e-01,-9.989999999499999950e-01
-1.000000000000000000e+00,-9.559898264999999729e-01,-9.989999999499999950e-01
-1.000000000000000000e+00,-9.536729939000000433e-01,-9.989999999499999950e-01
-1.000000000000000000e+00,-9.516926780000000141e-01,-9.989999999499999950e-01
-1.000000000000000000e+00,-9.940915233499999504e-01,-9.989999999499999950e-01
-1.000000000000000000e+00,-9.930317588200000545e-01,-9.989999999499999950e-01
-1.000000000000000000e+00,-9.917955128500000050e-01,-9.989999999499999950e-01
-1.000000000000000000e+00,-9.903533961599999547e-01,-9.989999999499999950e-01
-1.000000000000000000e+00,-9.886711248999999757e-01,-9.989999999499999950e-01
-1.000000000000000000e+00,-9.867087072000000347e-01,-9.989999999499999950e-01
-1.000000000000000000e+00,-9.844194893000000057e-01,-9.989999999499999950e-01
-1.000000000000000000e+00,-9.817490503000000368e-01,-9.989999999499999950e-01
-1.000000000000000000e+00,-9.786339067000000558e-01,-9.989999999499999950e-01
-9.979166665599999986e-01,-9.499999993000000087e-01,-9.989999999499999950e-01
-9.958333331199999972e-01,-9.499999993000000087e-01,-9.989999999499999950e-01
-9.937499999100000148e-01,-9.499999993000000087e-01,-9.989999999499999950e-01
-9.916666662299999935e-01,-9.499999993000000087e-01,-9.989999999499999950e-01
-9.895833330000000094e-01,-9.499999993000000087e-01,-9.989999999499999950e-01
-9.874999998000000279e-01,-9.499999993000000087e-01,-9.989999999499999950e-01
-9.854166666000000463e-01,-9.499999993000000087e-01,-9.989999999499999950e-01
-9.833333324999999903e-01,-9.499999993000000087e-01,-9.989999999499999950e-01
-9.812499993000000087e-01,-9.499999993000000087e-01,-9.989999999499999950e-01
-9.791666660000000189e-01,-9.499999993000000087e-01,-9.989999999499999950e-01
-9.770833328000000373e-01,-9.499999993000000087e-01,-9.989999999499999950e-01
-9.770833328000000373e-01,-9.499999993000000087e-01,-1.000000000000000000e+00
-9.791666660000000189e-01,-9.499999993000000087e-01,-1.000000000000000000e+00
-9.812499993000000087e-01,-9.499999993000000087e-01,-1.000000000000000000e+00
-9.833333324999999903e-01,-9.499999993000000087e-01,-1.000000000000000000e+00
-9.854166666000000463e-01,-9.499999993000000087e-01,-1.000000000000000000e+00
-9.874999998000000279e-01,-9.499999993000000087e-01,-1.000000000000000000e+00
-9.895833330000000094e-01,-9.499999993000000087e-01,-1.000000000000000000e+00
-9.916666662299999935e-01,-9.499999993000000087e-01,-1.000000000000000000e+00
-9.937499999100000148e-01,-9.499999993000000087e-01,-1.000000000000000000e+00
-9.958333331199999972e-01,-9.499999993000000087e-01,-1.000000000000000000e+00
-9.979166665599999986e-01,-9.499999993000000087e-01,-1.000000000000000000e+00
-9.749999996000000557e-01,-9.516926780000000141e-01,-1.000000000000000000e+00
-9.749999996000000557e-01,-9.536729939000000433e-01,-1.000000000000000000e+00
-9.749999996000000557e-01,-9.559898264999999729e-01,-1.000000000000000000e+00
-9.749999996000000557e-01,-9.587003626000000223e-01,-1.000000000000000000e+00
-9.749999996000000557e-01,-9.618714972999999890e-01,-1.000000000000000000e+00
-9.749999996000000557e-01,-9.655815102000000483e-01,-1.000000000000000000e+00
-9.749999996000000557e-01,-9.699219669999999960e-01,-1.000000000000000000e+00
-9.749999996000000557e-01,-9.787938278000000158e-01,-1.000000000000000000e+00
-9.749999996000000557e-01,-9.823741465999999978e-01,-1.000000000000000000e+00
-9.749999996000000557e-01,-9.857529737000000347e-01,-1.000000000000000000e+00
-9.749999996000000557e-01,-9.889416462000000241e-01,-1.000000000000000000e+00
-9.749999996000000557e-01,-9.919508667699999949e-01,-1.000000000000000000e+00
-9.749999996000000557e-01,-9.947907351900000528e-01,-1.000000000000000000e+00
-9.749999996000000557e-01,-9.974707812099999904e-01,-1.000000000000000000e+00
-9.786339067000000558e-01,-1.000000000000000000e+00,-1.000000000000000000e+00
-9.817490503000000368e-01,-1.000000000000000000e+00,-1.000000000000000000e+00
-9.844194893000000057e-01,-1.000000000000000000e+00,-1.000000000000000000e+00
-9.867087072000000347e-01,-1.000000000000000000e+00,-1.000000000000000000e+00
-9.886711248999999757e-01,-1.000000000000000000e+00,-1.000000000000000000e+00
-9.903533961599999547e-01,-1.000000000000000000e+00,-1.000000000000000000e+00
-9.917955128500000050e-01,-1.000000000000000000e+00,-1.000000000000000000e+00
-9.930317588200000545e-01,-1.000000000000000000e+00,-1.000000000000000000e+00
-9.940915233499999504e-01,-1.000000000000000000e+00,-1.000000000000000000e+00
-9.786339067000000558e-01,-1.000000000000000000e+00,-9.989999999499999950e-01
-9.817490503000000368e-01,-1.000000000000000000e+00,-9.989999999499999950e-01
-9.844194893000000057e-01,-1.000000000000000000e+00,-9.989999999499999950e-01
-9.867087072000000347e-01,-1.000000000000000000e+00,-9.989999999499999950e-01
-9.886711248999999757e-01,-1.000000000000000000e+00,-9.989999999499999950e-01
-9.903533961599999547e-01,-1.000000000000000000e+00,-9.989999999499999950e-01
-9.917955128500000050e-01,-1.000000000000000000e+00,-9.989999999499999950e-01
-9.930317588200000545e-01,-1.000000000000000000e+00,-9.989999999499999950e-01
-9.940915233499999504e-01,-1.000000000000000000e+00,-9.989999999499999950e-01
-9.749999996000000557e-01,-9.974707812099999904e-01,-9.989999999499999950e-01
-9.749999996000000557e-01,-9.947907351900000528e-01,-9.989999999499999950e-01
-9.749999996000000557e-01,-9.919508667699999949e-01,-9.989999999499999950e-01
-9.749999996000000557e-01,-9.889416462000000241e-01,-9.989999999499999950e-01
-9.749999996000000557e-01,-9.857529737000000347e-01,-9.989999999499999950e-01
-9.749999996000000557e-01,-9.823741465999999978e-01,-9.989999999499999950e-01
-9.749999996000000557e-01,-9.787938278000000158e-01,-9.989999999499999950e-01
-9.749999996000000557e-01,-9.699219669999999960e-01,-9.989999999499999950e-01
-9.749999996000000557e-01,-9.655815102000000483e-01,-9.989999999499999950e-01
-9.749999996000000557e-01,-9.618714972999999890e-01,-9.989999999499999950e-01
-9.749999996000000557e-01,-9.587003626000000223e-01,-9.989999999499999950e-01
-9.749999996000000557e-01,-9.559898264999999729e-01,-9.989999999499999950e-01
-9.749999996000000557e-01,-9.536729939000000433e-01,-9.989999999499999950e-01
-9.749999996000000557e-01,-9.516926780000000141e-01,-9.989999999499999950e-01
-9.963273361800000227e-01,-9.956945059799999775e-01,-1.000000000000000000e+00
-9.956905911700000278e-01,-9.963260360500000301e-01,-1.000000000000000000e+00
-9.978757144400000056e-01,-9.947199700400000122e-01,-1.000000000000000000e+00
-9.970553705900000452e-01,-9.951434400899999977e-01,-1.000000000000000000e+00
-9.946451820399999644e-01,-9.978626833799999485e-01,-1.000000000000000000e+00
-9.951204769300000530e-01,-9.970451593400000423e-01,-1.000000000000000000e+00
-9.987984983000000039e-01,-9.944101455599999584e-01,-1.000000000000000000e+00
-9.924958487999999690e-01,-9.989547974000000385e-01,-1.000000000000000000e+00
-9.986878146900000086e-01,-9.925762461499999523e-01,-1.000000000000000000e+00
-9.943323498599999644e-01,-9.987972383400000043e-01,-1.000000000000000000e+00
-9.986620708400000268e-01,-9.911000747199999461e-01,-1.000000000000000000e+00
-9.911366747700000035e-01,-9.987559381399999658e-01,-1.000000000000000000e+00
-9.895457299000000040e-01,-9.985535093599999801e-01,-1.000000000000000000e+00
-9.984808595599999892e-01,-9.895346620999999621e-01,-1.000000000000000000e+00
-9.982661790000000313e-01,-9.876949107000000394e-01,-1.000000000000000000e+00
-9.877234408999999715e-01,-9.983566353299999641e-01,-1.000000000000000000e+00
-9.864618992000000475e-01,-9.519489780000000012e-01,-1.000000000000000000e+00
-9.885822507000000536e-01,-9.519334398000000030e-01,-1.000000000000000000e+00
-9.927558968799999883e-01,-9.518681317999999614e-01,-1.000000000000000000e+00
-9.947913661599999680e-01,-9.517428762999999847e-01,-1.000000000000000000e+00
-9.965115678499999463e-01,-9.515195265000000457e-01,-1.000000000000000000e+00
-9.843273125999999484e-01,-9.519668072000000425e-01,-1.000000000000000000e+00
-9.906920278399999891e-01,-9.519099891000000202e-01,-1.000000000000000000e+00
-9.980333352000000380e-01,-9.855565698999999569e-01,-1.000000000000000000e+00
-9.856622266000000243e-01,-9.981582361499999889e-01,-1.000000000000000000e+00
-9.770568237000000211e-01,-9.547308161999999987e-01,-1.000000000000000000e+00
-9.981502455199999790e-01,-9.937371369499999885e-01,-1.000000000000000000e+00
-9.954261425899999516e-01,-9.954438982500000144e-01,-1.000000000000000000e+00
-9.947032025099999952e-01,-9.962153206599999589e-01,-1.000000000000000000e+00
-9.962124796600000387e-01,-9.947299966599999488e-01,-1.000000000000000000e+00
-9.971264884799999617e-01,-9.941406496800000436e-01,-1.000000000000000000e+00
-9.940774845900000045e-01,-9.970690868799999551e-01,-1.000000000000000000e+00
-9.934810530400000061e-01,-9.991676487839999954e-01,-1.000000000000000000e+00
-9.934478029600000148e-01,-9.980906771999999982e-01,-1.000000000000000000e+00
-9.991273116900000195e-01,-9.935693624400000479e-01,-1.000000000000000000e+00
-9.976023256299999531e-01,-9.918279899299999869e-01,-1.000000000000000000e+00
-9.921029452199999765e-01,-9.977317140400000506e-01,-1.000000000000000000e+00
-9.906058907500000510e-01,-9.973102477399999888e-01,-1.000000000000000000e+00
-9.971891902399999674e-01,-9.905697749899999849e-01,-1.000000000000000000e+00
-9.888544092000000063e-01,-9.969253253700000039e-01,-1.000000000000000000e+00
-9.967557832100000237e-01,-9.888525893999999816e-01,-1.000000000000000000e+00
-9.768949486000000348e-01,-9.524995944999999908e-01,-1.000000000000000000e+00
-9.821832030999999574e-01,-9.519218281000000337e-01,-1.000000000000000000e+00
-9.939222130899999508e-01,-9.535787404000000134e-01,-1.000000000000000000e+00
-9.918563216900000423e-01,-9.537125043999999940e-01,-1.000000000000000000e+00
-9.876523912000000349e-01,-9.538668394000000550e-01,-1.000000000000000000e+00
-9.960105679899999842e-01,-9.532424918999999885e-01,-1.000000000000000000e+00
-9.801220763000000336e-01,-9.517702236999999732e-01,-1.000000000000000000e+00
-9.854474263000000400e-01,-9.539833403999999906e-01,-1.000000000000000000e+00
-9.897772035999999884e-01,-9.537785947000000375e-01,-1.000000000000000000e+00
-9.963067104099999627e-01,-9.868547088000000356e-01,-1.000000000000000000e+00
-9.869324555999999804e-01,-9.965461969800000208e-01,-1.000000000000000000e+00
-9.977316567699999750e-01,-9.830722343000000141e-01,-1.000000000000000000e+00
-9.976983920199999911e-01,-9.546541050000000306e-01,-1.000000000000000000e+00
-9.773673153999999919e-01,-9.572086893000000263e-01,-1.000000000000000000e+00
-9.942782800599999637e-01,-9.952173298199999962e-01,-1.000000000000000000e+00
-9.951322055400000366e-01,-9.943452402900000431e-01,-1.000000000000000000e+00
-9.934932030699999972e-01,-9.961356962999999842e-01,-1.000000000000000000e+00
-9.961283793699999833e-01,-9.935308583099999868e-01,-1.000000000000000000e+00
-9.973082512199999972e-01,-9.929595226399999808e-01,-1.000000000000000000e+00
-9.930115062700000106e-01,-9.970510795200000498e-01,-1.000000000000000000e+00
-9.919544216200000264e-01,-9.962121515999999843e-01,-1.000000000000000000e+00
-9.961265807500000458e-01,-9.919493570899999835e-01,-1.000000000000000000e+00
-9.901364156999999944e-01,-9.956568684400000091e-01,-1.000000000000000000e+00
-9.954660218199999910e-01,-9.901801841299999740e-01,-1.000000000000000000e+00
-9.980228657399999870e-01,-9.524636343000000283e-01,-1.000000000000000000e+00
-9.882840132000000333e-01,-9.951084409799999531e-01,-1.000000000000000000e+00
-9.947931771200000384e-01,-9.883160098000000060e-01,-1.000000000000000000e+00
-9.848227230999999637e-01,-9.961564226500000396e-01,-1.000000000000000000e+00
-9.808705747000000530e-01,-9.537752680000000094e-01,-1.000000000000000000e+00
-9.784124065000000536e-01,-9.515246935000000184e-01,-1.000000000000000000e+00
-9.869207627999999621e-01,-9.559649378000000253e-01,-1.000000000000000000e+00
-9.889317220000000130e-01,-9.554363340000000537e-01,-1.000000000000000000e+00
-9.910298902499999896e-01,-9.556077755999999868e-01,-1.000000000000000000e+00
-9.930429495899999459e-01,-9.551633484999999535e-01,-1.000000000000000000e+00
-9.951617671200000403e-01,-9.552228450999999954e-01,-1.000000000000000000e+00
-9.957725466200000319e-01,-9.845672230999999996e-01,-1.000000000000000000e+00
-9.787746164999999721e-01,-9.533141888999999702e-01,-1.000000000000000000e+00
-9.831370767000000566e-01,-9.539749808999999914e-01,-1.000000000000000000e+00
-9.792946577000000152e-01,-9.555291310000000315e-01,-1.000000000000000000e+00
-9.938545804499999692e-01,-9.940327485100000082e-01,-1.000000000000000000e+00
-9.929396570699999813e-01,-9.949915478899999943e-01,-1.000000000000000000e+00
-9.948178664800000348e-01,-9.930223603700000234e-01,-1.000000000000000000e+00
-9.943511648999999730e-01,-9.915272845000000501e-01,-1.000000000000000000e+00
-9.914821144200000047e-01,-9.945126818499999688e-01,-1.000000000000000000e+00
-9.897712395000000107e-01,-9.937934787000000103e-01,-1.000000000000000000e+00
-9.935268405799999591e-01,-9.899186129000000500e-01,-1.000000000000000000e+00
-9.817438722000000340e-01,-9.560022465999999941e-01,-1.000000000000000000e+00
-9.833181090999999485e-01,-9.979298587399999532e-01,-1.000000000000000000e+00
-9.862843351000000203e-01,-9.945689863500000172e-01,-1.000000000000000000e+00
-9.940339028800000420e-01,-9.861967806000000447e-01,-1.000000000000000000e+00
-9.933353592600000503e-01,-9.574639238000000052e-01,-1.000000000000000000e+00
-9.893981255999999558e-01,-9.578076005000000226e-01,-1.000000000000000000e+00
-9.843468162999999826e-01,-9.561397544999999942e-01,-1.000000000000000000e+00
-9.950071005199999652e-01,-9.819278232999999467e-01,-1.000000000000000000e+00
-9.800542480999999695e-01,-9.580576345000000327e-01,-1.000000000000000000e+00
-9.933285792399999536e-01,-9.927263534600000439e-01,-1.000000000000000000e+00
-9.915201067900000220e-01,-9.925887449600000467e-01,-1.000000000000000000e+00
-9.927866128300000259e-01,-9.913825644199999454e-01,-1.000000000000000000e+00
-9.924552626899999508e-01,-9.879959998999999771e-01,-1.000000000000000000e+00
-9.829580168999999534e-01,-9.584597051000000034e-01,-1.000000000000000000e+00
-9.878084435999999746e-01,-9.931192128000000396e-01,-1.000000000000000000e+00
-9.841268882000000495e-01,-9.940128922500000019e-01,-1.000000000000000000e+00
-9.824597835999999695e-01,-9.956886605400000478e-01,-1.000000000000000000e+00
-9.931012806500000289e-01,-9.838377236999999997e-01,-1.000000000000000000e+00
-9.860112956000000040e-01,-9.584191292999999501e-01,-1.000000000000000000e+00
-9.970486087300000078e-01,-9.570916220999999835e-01,-1.000000000000000000e+00
-9.926250078699999646e-01,-9.937704154299999981e-01,-1.000000000000000000e+00
-9.911854500000000234e-01,-9.901767782899999482e-01,-1.000000000000000000e+00
-9.894333630999999629e-01,-9.917652076099999769e-01,-1.000000000000000000e+00
-9.857357405000000128e-01,-9.924459024299999710e-01,-1.000000000000000000e+00
-9.816837030999999714e-01,-9.933599918100000092e-01,-1.000000000000000000e+00
-9.914572238900000167e-01,-9.857669248999999523e-01,-1.000000000000000000e+00
-9.845571797000000069e-01,-9.611310586000000322e-01,-1.000000000000000000e+00
-9.873996414000000277e-01,-9.910347219599999757e-01,-1.000000000000000000e+00
-9.896310632999999468e-01,-9.877795017999999594e-01,-1.000000000000000000e+00
-9.798162244000000465e-01,-9.949927330000000181e-01,-1.000000000000000000e+00
-9.834860787000000437e-01,-9.917335901399999543e-01,-1.000000000000000000e+00
-9.902020050199999979e-01,-9.835222233000000536e-01,-1.000000000000000000e+00
-9.889678013999999573e-01,-9.899130314999999847e-01,-1.000000000000000000e+00
-9.852762800000000043e-01,-9.902102323200000500e-01,-1.000000000000000000e+00
-9.809545538999999703e-01,-9.909378066699999765e-01,-1.000000000000000000e+00
-9.788115675999999876e-01,-9.925790871499999835e-01,-1.000000000000000000e+00
-9.806285780000000285e-01,-9.975220270000000333e-01,-1.000000000000000000e+00
-9.891145220000000515e-01,-9.854698469999999544e-01,-1.000000000000000000e+00
-9.871873976999999689e-01,-9.888670063000000177e-01,-1.000000000000000000e+00
-9.780282489999999607e-01,-9.900042395999999467e-01,-1.000000000000000000e+00
-9.829532970000000036e-01,-9.894127883000000123e-01,-1.000000000000000000e+00
-9.777359496999999955e-01,-9.964949146399999513e-01,-1.000000000000000000e+00
-9.772727489000000434e-01,-9.941616672999999960e-01,-1.000000000000000000e+00
-9.848449910000000029e-01,-9.878846387999999923e-01,-1.000000000000000000e+00
-9.805142712000000094e-01,-9.884378974999999956e-01,-1.000000000000000000e+00
-9.870121366999999868e-01,-9.864883972000000334e-01,-1.000000000000000000e+00
-9.778625014999999809e-01,-9.871681872999999996e-01,-1.000000000000000000e+00
-9.872269873000000251e-01,-9.838997851999999877e-01,-1.000000000000000000e+00
-9.840445909999999685e-01,-9.851279482000000476e-01,-1.000000000000000000e+00
-9.972617195499999809e-01,-9.801280181999999508e-01,-1.000000000000000000e+00
-9.917323291299999788e-01,-9.811559636000000140e-01,-1.000000000000000000e+00
-9.779095799000000477e-01,-9.601229615999999911e-01,-1.000000000000000000e+00
-9.807027560000000088e-01,-9.858165075999999472e-01,-1.000000000000000000e+00
-9.961348224899999604e-01,-9.605192468000000039e-01,-1.000000000000000000e+00
-9.812048188999999976e-01,-9.609411656999999884e-01,-1.000000000000000000e+00
-9.847216206000000138e-01,-9.817733262000000183e-01,-1.000000000000000000e+00
-9.779998045000000140e-01,-9.840944149000000474e-01,-1.000000000000000000e+00
-9.782656208000000131e-01,-9.806968495000000230e-01,-1.000000000000000000e+00
-9.967255289699999965e-01,-9.765943550000000251e-01,-1.000000000000000000e+00
-9.971705649500000046e-01,-9.638917595000000560e-01,-1.000000000000000000e+00
-9.882300579999999668e-01,-9.811038449000000217e-01,-1.000000000000000000e+00
-9.786336719999999545e-01,-9.769145176000000319e-01,-1.000000000000000000e+00
-9.917537616599999550e-01,-9.607693590000000450e-01,-1.000000000000000000e+00
-9.959766338600000157e-01,-9.675938077000000304e-01,-1.000000000000000000e+00
-9.786882028000000178e-01,-9.681639411000000361e-01,-1.000000000000000000e+00
-9.880110621000000037e-01,-9.610030725999999524e-01,-1.000000000000000000e+00
-9.963470855699999573e-01,-9.723750874000000044e-01,-1.000000000000000000e+00
-9.788553342000000379e-01,-9.725856836999999810e-01,-1.000000000000000000e+00
-9.812611677000000476e-01,-9.827954583000000355e-01,-1.000000000000000000e+00
-9.938612915600000264e-01,-9.787108692999999526e-01,-1.000000000000000000e+00
-9.826119822000000115e-01,-9.873359556999999898e-01,-1.000000000000000000e+00
-9.788997675999999704e-01,-9.638996050000000482e-01,-1.000000000000000000e+00
-9.864263264000000531e-01,-9.639599844999999778e-01,-1.000000000000000000e+00
-9.829251207000000434e-01,-9.639208913000000267e-01,-1.000000000000000000e+00
-9.937946503100000273e-01,-9.639461151999999533e-01,-1.000000000000000000e+00
-9.819223173000000138e-01,-9.793053064000000196e-01,-1.000000000000000000e+00
-9.897142099000000304e-01,-9.777957349999999437e-01,-1.000000000000000000e+00
-9.900107076399999873e-01,-9.639153294000000205e-01,-1.000000000000000000e+00
-9.925747080700000335e-01,-9.746496360999999942e-01,-1.000000000000000000e+00
-9.830211904000000223e-01,-9.751996025000000401e-01,-1.000000000000000000e+00
-9.857298898999999892e-01,-9.784981570999999878e-01,-1.000000000000000000e+00
-9.926951471699999585e-01,-9.704580232999999723e-01,-1.000000000000000000e+00
-9.829147346000000063e-01,-9.703177195000000088e-01,-1.000000000000000000e+00
-9.883217941999999923e-01,-9.667841754999999537e-01,-1.000000000000000000e+00
-9.848669153000000343e-01,-9.668936282000000215e-01,-1.000000000000000000e+00
-9.890115373000000210e-01,-9.746339674999999758e-01,-1.000000000000000000e+00
-9.917803052800000518e-01,-9.669814557000000477e-01,-1.000000000000000000e+00
-9.863884755999999809e-01,-9.729383010000000054e-01,-1.000000000000000000e+00
-9.869988440000000418e-01,-9.696791395999999619e-01,-1.000000000000000000e+00
-9.895919346999999533e-01,-9.719250592999999494e-01,-1.000000000000000000e+00
-9.898776048999999855e-01,-9.691655710000000035e-01,-1.000000000000000000e+00
-9.867730606000000293e-01,-9.758131522999999863e-01,-1.000000000000000000e+00
-9.816589486000000253e-01,-9.666391573999999487e-01,-1.000000000000000000e+00
-9.956840337300000288e-01,-9.963227542999999464e-01,-9.989999999499999950e-01
-9.963145535399999808e-01,-9.956897459900000413e-01,-9.989999999499999950e-01
-9.970340561099999555e-01,-9.951376053499999541e-01,-9.989999999499999950e-01
-9.978461545000000266e-01,-9.946587844800000022e-01,-9.989999999499999950e-01
-9.945428073400000013e-01,-9.978354030799999608e-01,-9.989999999499999950e-01
-9.950960329700000440e-01,-9.970280739900000411e-01,-9.989999999499999950e-01
-9.987857388299999917e-01,-9.943436514600000331e-01,-9.989999999499999950e-01
-9.939701021600000352e-01,-9.988912475500000276e-01,-9.989999999499999950e-01
-9.991524893559999843e-01,-9.934902656799999843e-01,-9.989999999499999950e-01
-9.989339335600000425e-01,-9.924859735200000088e-01,-9.989999999499999950e-01
-9.925282397300000392e-01,-9.988495026500000540e-01,-9.989999999499999950e-01
-9.911047900099999586e-01,-9.987127429300000081e-01,-9.989999999499999950e-01
-9.987269567800000081e-01,-9.911146899699999624e-01,-9.989999999499999950e-01
-9.985012138500000134e-01,-9.895277778000000080e-01,-9.989999999499999950e-01
-9.895146685000000275e-01,-9.985239445200000397e-01,-9.989999999499999950e-01
-9.982766227299999517e-01,-9.876972967999999575e-01,-9.989999999499999950e-01
-9.876874600999999698e-01,-9.983249370700000291e-01,-9.989999999499999950e-01
-9.886192250999999986e-01,-9.518837816999999868e-01,-9.989999999499999950e-01
-9.865162511999999717e-01,-9.519287720000000341e-01,-9.989999999499999950e-01
-9.843817529999999705e-01,-9.519196748999999569e-01,-9.989999999499999950e-01
-9.822889511000000295e-01,-9.519053288000000057e-01,-9.989999999499999950e-01
-9.802310169000000295e-01,-9.517969750000000451e-01,-9.989999999499999950e-01
-9.784871992000000462e-01,-9.515577182000000134e-01,-9.989999999499999950e-01
-9.980589395900000271e-01,-9.855790865000000345e-01,-9.989999999499999950e-01
-9.856088254999999521e-01,-9.981249476600000392e-01,-9.989999999499999950e-01
-9.980600641600000378e-01,-9.934528907799999864e-01,-9.989999999499999950e-01
-9.961773078000000226e-01,-9.947103611199999973e-01,-9.989999999499999950e-01
-9.947245433000000414e-01,-9.962028292900000359e-01,-9.989999999499999950e-01
-9.953962056899999800e-01,-9.954282790399999747e-01,-9.989999999499999950e-01
-9.970301834400000507e-01,-9.940728428799999739e-01,-9.989999999499999950e-01
-9.940549093299999583e-01,-9.969578119899999979e-01,-9.989999999499999950e-01
-9.976792179500000302e-01,-9.920807620499999535e-01,-9.989999999499999950e-01
-9.919769447299999765e-01,-9.975956091700000083e-01,-9.989999999499999950e-01
-9.933259026099999778e-01,-9.978054389399999557e-01,-9.989999999499999950e-01
-9.904854679500000314e-01,-9.972509108499999497e-01,-9.989999999499999950e-01
-9.972177897599999730e-01,-9.906001007200000430e-01,-9.989999999499999950e-01
-9.967766527600000481e-01,-9.888530662000000193e-01,-9.989999999499999950e-01
-9.887870932000000224e-01,-9.968703372899999637e-01,-9.989999999499999950e-01
-9.906550189499999659e-01,-9.518792069999999494e-01,-9.989999999499999950e-01
-9.812347125000000503e-01,-9.537711068999999986e-01,-9.989999999499999950e-01
-9.855778320000000425e-01,-9.539068751000000512e-01,-9.989999999499999950e-01
-9.878475050999999674e-01,-9.538735337999999508e-01,-9.989999999499999950e-01
-9.948274493200000013e-01,-9.518035612999999895e-01,-9.989999999499999950e-01
-9.927439740900000364e-01,-9.519127495999999411e-01,-9.989999999499999950e-01
-9.834600110000000228e-01,-9.538433737999999495e-01,-9.989999999499999950e-01
-9.790438077999999988e-01,-9.533812030999999632e-01,-9.989999999499999950e-01
-9.963479705600000180e-01,-9.868618241000000069e-01,-9.989999999499999950e-01
-9.868603349000000247e-01,-9.964888321699999496e-01,-9.989999999499999950e-01
-9.832381307999999986e-01,-9.978687050800000291e-01,-9.989999999499999950e-01
-9.773334208999999717e-01,-9.547725916000000534e-01,-9.989999999499999950e-01
-9.943024884000000174e-01,-9.952294412100000098e-01,-9.989999999499999950e-01
-9.937730613199999841e-01,-9.960653642200000268e-01,-9.989999999499999950e-01
-9.951055157000000539e-01,-9.943047827100000013e-01,-9.989999999499999950e-01
-9.960409109500000246e-01,-9.934974485099999919e-01,-9.989999999499999950e-01
-9.929286744399999920e-01,-9.966423192500000194e-01,-9.989999999499999950e-01
-9.915946098000000264e-01,-9.961449990499999796e-01,-9.989999999499999950e-01
-9.960830383900000085e-01,-9.919682340700000100e-01,-9.989999999499999950e-01
-9.899934446000000499e-01,-9.956033728099999980e-01,-9.989999999499999950e-01
-9.954677736400000532e-01,-9.901533666999999816e-01,-9.989999999499999950e-01
-9.969786829300000264e-01,-9.930144357500000352e-01,-9.989999999499999950e-01
-9.980963753799999560e-01,-9.525546021999999891e-01,-9.989999999499999950e-01
-9.769912939999999546e-01,-9.525128640000000146e-01,-9.989999999499999950e-01
-9.881879864000000513e-01,-9.950463869600000288e-01,-9.989999999499999950e-01
-9.948409870300000124e-01,-9.882427043999999494e-01,-9.989999999499999950e-01
-9.916541781300000080e-01,-9.538551456999999623e-01,-9.989999999499999950e-01
-9.847084442000000326e-01,-9.960838435200000118e-01,-9.989999999499999950e-01
-9.940208708900000190e-01,-9.538042544999999484e-01,-9.989999999499999950e-01
-9.868002114999999685e-01,-9.559396543000000523e-01,-9.989999999499999950e-01
-9.846274927000000510e-01,-9.555312619000000396e-01,-9.989999999499999950e-01
-9.825371540999999764e-01,-9.558404758999999862e-01,-9.989999999499999950e-01
-9.799095504000000512e-01,-9.555470347000000197e-01,-9.989999999499999950e-01
-9.959333618200000293e-01,-9.846775960000000438e-01,-9.989999999499999950e-01
-9.897159757000000280e-01,-9.534533284999999747e-01,-9.989999999499999950e-01
-9.979485834500000374e-01,-9.547924809000000179e-01,-9.989999999499999950e-01
-9.928958541700000362e-01,-9.952089730700000025e-01,-9.989999999499999950e-01
-9.938077549499999552e-01,-9.940450582700000037e-01,-9.989999999499999950e-01
-9.942592312600000426e-01,-9.914351366500000484e-01,-9.989999999499999950e-01
-9.913187017700000325e-01,-9.945296016500000391e-01,-9.989999999499999950e-01
-9.896270847000000481e-01,-9.937777593700000134e-01,-9.989999999499999950e-01
-9.935249965600000399e-01,-9.896716811000000336e-01,-9.989999999499999950e-01
-9.861722291000000196e-01,-9.944918728399999575e-01,-9.989999999499999950e-01
-9.898722683999999772e-01,-9.557443932000000419e-01,-9.989999999499999950e-01
-9.930012705699999831e-01,-9.559864700000000326e-01,-9.989999999499999950e-01
-9.965708567800000139e-01,-9.515634215999999590e-01,-9.989999999499999950e-01
-9.846411441000000320e-01,-9.579878896000000310e-01,-9.989999999499999950e-01
-9.810511898000000564e-01,-9.580329917000000028e-01,-9.989999999499999950e-01
-9.947510776100000340e-01,-9.929963820599999602e-01,-9.989999999499999950e-01
-9.961910601700000312e-01,-9.533696696000000248e-01,-9.989999999499999950e-01
-9.942165119600000489e-01,-9.861218872999999441e-01,-9.989999999499999950e-01
-9.976706739999999796e-01,-9.572821967000000321e-01,-9.989999999499999950e-01
-9.823778066999999670e-01,-9.956208057700000058e-01,-9.989999999499999950e-01
-9.931753845899999877e-01,-9.926636666100000506e-01,-9.989999999499999950e-01
-9.924056874600000189e-01,-9.911106768999999872e-01,-9.989999999499999950e-01
-9.912830432900000543e-01,-9.926527906200000029e-01,-9.989999999499999950e-01
-9.876908855999999570e-01,-9.930719076699999759e-01,-9.989999999499999950e-01
-9.924961477499999463e-01,-9.938200181399999833e-01,-9.989999999499999950e-01
-9.839099198999999851e-01,-9.939490654499999467e-01,-9.989999999499999950e-01
-9.956394764599999503e-01,-9.555808529000000551e-01,-9.989999999499999950e-01
-9.926331918699999868e-01,-9.877479206999999484e-01,-9.989999999499999950e-01
-9.806177802000000110e-01,-9.974297303700000450e-01,-9.989999999499999950e-01
-9.936790284700000031e-01,-9.838513936999999654e-01,-9.989999999499999950e-01
-9.778091348999999877e-01,-9.572672843999999737e-01,-9.989999999499999950e-01
-9.972966187599999754e-01,-9.601423740000000207e-01,-9.989999999499999950e-01
-9.883015416999999525e-01,-9.584470093000000412e-01,-9.989999999499999950e-01
-9.777790494000000443e-01,-9.963180853499999934e-01,-9.989999999499999950e-01
-9.917835919199999850e-01,-9.584858752999999565e-01,-9.989999999499999950e-01
-9.775287565000000400e-01,-9.934332016900000450e-01,-9.989999999499999950e-01
-9.907465232500000107e-01,-9.909615674999999735e-01,-9.989999999499999950e-01
-9.893273356999999768e-01,-9.918690780200000168e-01,-9.989999999499999950e-01
-9.854884137999999627e-01,-9.923305315899999535e-01,-9.989999999499999950e-01
-9.817873835999999521e-01,-9.936110023399999935e-01,-9.989999999499999950e-01
-9.800067432000000300e-01,-9.947700677399999858e-01,-9.989999999499999950e-01
-9.949183999599999773e-01,-9.581002221000000096e-01,-9.989999999499999950e-01
-9.917719932299999819e-01,-9.855040860999999541e-01,-9.989999999499999950e-01
-9.954856825100000250e-01,-9.826586916999999755e-01,-9.989999999499999950e-01
-9.976806098099999520e-01,-9.832336082999999505e-01,-9.989999999499999950e-01
-9.864814979999999567e-01,-9.611960686999999615e-01,-9.989999999499999950e-01
-9.785174708999999638e-01,-9.606096074000000096e-01,-9.989999999499999950e-01
-9.967568684399999990e-01,-9.635165519999999706e-01,-9.989999999499999950e-01
-9.777908288000000114e-01,-9.875280466000000423e-01,-9.989999999499999950e-01
-9.779696948999999639e-01,-9.842165149999999585e-01,-9.989999999499999950e-01
-9.893445829000000469e-01,-9.899135454999999917e-01,-9.989999999499999950e-01
-9.873789622999999960e-01,-9.909915318699999975e-01,-9.989999999499999950e-01
-9.914219947500000352e-01,-9.894872885000000062e-01,-9.989999999499999950e-01
-9.827648866999999511e-01,-9.914955114900000366e-01,-9.989999999499999950e-01
-9.898587344000000510e-01,-9.875103813000000175e-01,-9.989999999499999950e-01
-9.933774238500000520e-01,-9.813805799999999468e-01,-9.989999999499999950e-01
-9.910282334300000162e-01,-9.829533826999999890e-01,-9.989999999499999950e-01
-9.939811490500000124e-01,-9.610846004999999970e-01,-9.989999999499999950e-01
-9.775980468999999617e-01,-9.905916675899999468e-01,-9.989999999499999950e-01
-9.800008050999999831e-01,-9.922316861300000124e-01,-9.989999999499999950e-01
-9.826124850999999882e-01,-9.609495662000000493e-01,-9.989999999499999950e-01
-9.902956569599999925e-01,-9.614119268999999912e-01,-9.989999999499999950e-01
-9.965565230199999736e-01,-9.803498518000000050e-01,-9.989999999499999950e-01
-9.811243974000000145e-01,-9.862778186999999752e-01,-9.989999999499999950e-01
-9.780523982000000061e-01,-9.806931148999999959e-01,-9.989999999499999950e-01
-9.873081213000000078e-01,-9.886325392999999462e-01,-9.989999999499999950e-01
-9.850865854000000477e-01,-9.898825530000000539e-01,-9.989999999499999950e-01
-9.890167648000000034e-01,-9.847846636999999514e-01,-9.989999999499999950e-01
-9.902774728800000092e-01,-9.801513050000000282e-01,-9.989999999499999950e-01
-9.803471845000000240e-01,-9.894981877999999842e-01,-9.989999999499999950e-01
-9.806144834000000143e-01,-9.641080162999999814e-01,-9.989999999499999950e-01
-9.809754993999999506e-01,-9.826568700000000156e-01,-9.989999999499999950e-01
-9.884626223000000378e-01,-9.644607528999999957e-01,-9.989999999499999950e-01
-9.784167670000000205e-01,-9.768506101999999691e-01,-9.989999999499999950e-01
-9.847356779999999477e-01,-9.869360811999999816e-01,-9.989999999499999950e-01
-9.828117453000000392e-01,-9.888180299000000062e-01,-9.989999999499999950e-01
-9.874098086999999468e-01,-9.864320149999999954e-01,-9.989999999499999950e-01
-9.879334950999999476e-01,-9.821102954000000551e-01,-9.989999999499999950e-01
-9.930100296599999599e-01,-9.782506973000000272e-01,-9.989999999499999950e-01
-9.834478553000000067e-01,-9.843024946999999747e-01,-9.989999999499999950e-01
-9.926666342700000145e-01,-9.650054051999999993e-01,-9.989999999499999950e-01
-9.845739100000000521e-01,-9.644194767000000557e-01,-9.989999999499999950e-01
-9.774607681000000436e-01,-9.638588913000000202e-01,-9.989999999499999950e-01
-9.813369698999999668e-01,-9.792052917000000356e-01,-9.989999999499999950e-01
-9.963276514300000164e-01,-9.764161967000000164e-01,-9.989999999499999950e-01
-9.963981595399999946e-01,-9.676234647999999439e-01,-9.989999999499999950e-01
-9.869812150000000228e-01,-9.791893158000000152e-01,-9.989999999499999950e-01
-9.893993568000000183e-01,-9.769312627999999776e-01,-9.989999999499999950e-01
-9.844128041999999912e-01,-9.814317784999999628e-01,-9.989999999499999950e-01
-9.782677758000000168e-01,-9.672723748000000565e-01,-9.989999999499999950e-01
-9.825980215999999823e-01,-9.683277644000000128e-01,-9.989999999499999950e-01
-9.824219122999999776e-01,-9.754352104000000301e-01,-9.989999999499999950e-01
-9.928135066300000089e-01,-9.695024285000000130e-01,-9.989999999499999950e-01
-9.792430009999999463e-01,-9.721043351999999471e-01,-9.989999999499999950e-01
-9.868078995000000297e-01,-9.677102827000000351e-01,-9.989999999499999950e-01
-9.962867635800000121e-01,-9.720958377999999733e-01,-9.989999999499999950e-01
-9.860003888999999688e-01,-9.761787988000000249e-01,-9.989999999499999950e-01
-9.921785294999999616e-01,-9.739240519999999846e-01,-9.989999999499999950e-01
-9.900284968300000488e-01,-9.674566089999999674e-01,-9.989999999499999950e-01
-9.830306600999999533e-01,-9.720770995999999942e-01,-9.989999999499999950e-01
-9.861594009999999910e-01,-9.843328875000000311e-01,-9.989999999499999950e-01
-9.892741608999999769e-01,-9.705319740000000195e-01,-9.989999999499999950e-01
-9.842306579999999805e-01,-9.782880787000000078e-01,-9.989999999499999950e-01
-9.879571338999999508e-01,-9.736807122999999731e-01,-9.989999999499999950e-01
-9.850412094999999590e-01,-9.736605063000000060e-01,-9.989999999499999950e-01
-9.857848473000000444e-01,-9.709980562000000148e-01,-9.989999999499999950e-01
-9.760273453000000154e-01,-9.508579745999999888e-01,-9.995068727879999892e-01
-9.982603707999999632e-01,-9.944912949599999941e-01,-9.995016785689999628e-01
-9.976290972000000368e-01,-9.949427382100000106e-01,-9.995372525879999692e-01
-9.805479012000000161e-01,-9.506998322999999917e-01,-9.995129570020000465e-01
-9.954632171399999674e-01,-9.968212582200000060e-01,-9.995472419249999962e-01
-9.962744638299999567e-01,-9.961061614999999758e-01,-9.994879044240000399e-01
-9.913653675500000428e-01,-9.528527595000000350e-01,-9.995167259480000066e-01
-9.966818036000000269e-01,-9.953881888700000236e-01,-9.995451579159999600e-01
-9.986768860800000480e-01,-9.510885403000000071e-01,-9.994498315500000007e-01
-9.766157344000000462e-01,-9.986707381899999625e-01,-9.994804235180000385e-01
-9.945591464599999876e-01,-9.994669690499999870e-01,-9.995161273689999737e-01
-9.993835928619999587e-01,-9.942549872200000527e-01,-9.995130298479999453e-01
-9.950340585800000470e-01,-9.975614582699999788e-01,-9.995503267859999763e-01
-9.964823904399999766e-01,-9.910729043199999477e-01,-9.994353700889999637e-01
