cpuNaiveA_dot_B	cpuCblasA_dot_B	cpuDaxpyA_dot_B
9.5367e-07	9.5367e-07	9.5367e-07
cpuNaiveA_dot_B	cpuCblasA_dot_B	cpuDaxpyA_dot_B
0.0000e+00	1.1921e-06	9.5367e-07
cpuNaiveA_dot_B	cpuCblasA_dot_B	cpuDaxpyA_dot_B
9.5367e-07	9.5367e-07	9.5367e-07
cpuNaiveA_dot_B	cpuCblasA_dot_B	cpuDaxpyA_dot_B
5.9605e-06	6.9141e-06	6.9141e-06
cpuNaiveA_dot_B	cpuCblasA_dot_B	cpuDaxpyA_dot_B
3.6001e-05	5.0068e-05	4.3869e-05
cpuNaiveA_dot_B	cpuCblasA_dot_B	cpuDaxpyA_dot_B
2.8682e-04	3.5095e-04	4.0698e-04
cpuNaiveA_dot_B	cpuCblasA_dot_B	cpuDaxpyA_dot_B
3.6721e-03	2.7809e-03	7.3678e-03
cpuNaiveA_dot_B	cpuCblasA_dot_B	cpuDaxpyA_dot_B
4.1942e-02	3.6409e-02	1.2307e-01
cpuNaiveA_dot_B	cpuCblasA_dot_B	cpuDaxpyA_dot_B
4.5243e-01	3.0047e-01	2.6968e+00
cpuNaiveA_dot_B	cpuCblasA_dot_B	cpuDaxpyA_dot_B
9.4179e+00	9.5632e+00	2.1960e+01
