matrix size	gpuNaiveA_dot_B (s)	gpuDaxpyA_dot_B (s)	gpuDdotA_dot_B (s)
2	2.806400e-05	8.739200e-05	1.584300e-04
4	2.851200e-05	2.870100e-04	5.010600e-04
8	2.934400e-05	1.076900e-03	1.867300e-03
16	3.251200e-05	4.398400e-03	7.363900e-03
32	3.760000e-05	1.850700e-02	3.021800e-02
64	4.924800e-05	7.358500e-02	1.209800e-01
128	1.486400e-04	2.939500e-01	4.764300e-01
256	9.540500e-04	1.186700e+00	1.906500e+00
512	7.593000e-03	5.120300e+00	7.720600e+00
1024	5.848700e-02	2.152900e+01	3.138000e+01
2048	4.355400e-01	1.037300e+02	1.318000e+02
4096	3.386900e+00	5.709100e+02	5.663300e+02
