********************************************************************************
Field Output Report, written Sat Sep 30 14:59:49 2017

Source 1
---------

   ODB: E:/Class/FEA/Hw/hw03/Abaqus/cantilever30Lin4Elems.odb
   Step: Step-1
   Frame: Increment      1: Step Time =    1.000

Loc 1 : Nodal values from source 1

Output sorted by column "Node Label".

Field Output reported at nodes for part: MYBEAM-1

      Node Label            U.U1            U.U2
                          @Loc 1          @Loc 1
-------------------------------------------------
               1    -300.000E-36    -98.6101E-36
               2    -7.64260E-06    -15.8354E-06
               3    -14.9532E-06    -61.2613E-06
               4    -21.6736E-06    -134.828E-06
               5    -27.8685E-06    -234.206E-06
               6    -33.5217E-06    -357.285E-06
               7    -38.6372E-06    -501.901E-06
               8    -43.2141E-06    -665.901E-06
               9    -47.2526E-06    -847.132E-06
              10    -50.7526E-06    -1.04344E-03
              11    -53.7141E-06    -1.25267E-03
              12    -56.1372E-06    -1.47267E-03
              13    -58.0218E-06    -1.70129E-03
              14    -59.3685E-06    -1.93637E-03
              15    -60.1722E-06    -2.17574E-03
              16    -60.4641E-06    -2.41733E-03
              17    -276.056E-45     187.220E-36
              18    -15.2635E-15    -15.3573E-06
              19    -29.9264E-15    -60.9367E-06
              20    -43.2424E-15    -134.499E-06
              21    -55.7518E-15    -233.912E-06
              22    -68.5984E-15    -357.016E-06
              23    -63.1313E-15    -501.658E-06
              24    -177.411E-15    -665.686E-06
              25     411.258E-15    -846.944E-06
              26    -2.66471E-12    -1.04328E-03
              27     11.9967E-12    -1.25254E-03
              28    -53.7909E-12    -1.47256E-03
              29     223.278E-12    -1.70121E-03
              30    -864.084E-12    -1.93631E-03
              31     3.02704E-09    -2.17572E-03
              32    -8.99086E-09    -2.41729E-03
              33     300.000E-36    -98.6101E-36
              34     7.64260E-06    -15.8354E-06
              35     14.9532E-06    -61.2613E-06
              36     21.6736E-06    -134.828E-06
              37     27.8685E-06    -234.206E-06
              38     33.5217E-06    -357.285E-06
              39     38.6372E-06    -501.901E-06
              40     43.2141E-06    -665.901E-06
              41     47.2526E-06    -847.132E-06
              42     50.7526E-06    -1.04344E-03
              43     53.7141E-06    -1.25267E-03
              44     56.1373E-06    -1.47267E-03
              45     58.0217E-06    -1.70129E-03
              46     59.3682E-06    -1.93636E-03
              47     60.1761E-06    -2.17575E-03
              48     60.4377E-06    -2.41728E-03


