********************************************************************************
Field Output Report, written Sat Sep 30 14:58:57 2017

Source 1
---------

   ODB: E:/Class/FEA/Hw/hw03/Abaqus/cantilever30Lin4Elems.odb
   Step: Step-1
   Frame: Increment      1: Step Time =    1.000

Loc 1 : Integration point values from source 1

Output sorted by column "Element Label".

Field Output reported at integration points for part: MYBEAM-1

   Element Label             Int           E.E11           E.E22           E.E12         ER.ER11         ER.ER22         ER.ER12           S.S11           S.S22           S.S12
                              Pt          @Loc 1          @Loc 1          @Loc 1          @Loc 1          @Loc 1          @Loc 1          @Loc 1          @Loc 1          @Loc 1
---------------------------------------------------------------------------------------------------------------------------------------------------------------------------------
               1               1    -602.753E-06     40.4139E-06    -927.404E-06    -602.753E-06     40.4139E-06    -927.404E-06    -41.8991E+06    -14.3348E+06    -19.8729E+06
               1               2    -602.753E-06     150.827E-06     837.579E-06    -602.753E-06     150.827E-06     837.579E-06    -38.7444E+06    -6.44817E+06     17.9481E+06
               1               3    -161.507E-06     40.4139E-06    -899.801E-06    -161.507E-06     40.4139E-06    -899.801E-06    -10.3815E+06    -1.72778E+06    -19.2815E+06
               1               4    -161.507E-06     150.827E-06     865.182E-06    -161.507E-06     150.827E-06     865.182E-06    -7.22689E+06     6.15885E+06     18.5396E+06
               2               1    -576.568E-06     178.270E-06    -870.836E-06    -576.568E-06     178.270E-06    -870.836E-06    -36.0900E+06    -3.73984E+06    -18.6608E+06
               2               2    -576.568E-06     142.832E-06     817.473E-06    -576.568E-06     142.832E-06     817.473E-06    -37.1025E+06    -6.27112E+06     17.5173E+06
               2               3    -154.491E-06     178.270E-06    -879.695E-06    -154.491E-06     178.270E-06    -879.695E-06    -5.94166E+06     8.31951E+06    -18.8506E+06
               2               4    -154.491E-06     142.832E-06     808.614E-06    -154.491E-06     142.832E-06     808.614E-06    -6.95417E+06     5.78823E+06     17.3274E+06
               3               1    -530.022E-06     130.264E-06    -807.255E-06    -530.022E-06     130.264E-06    -807.255E-06    -34.1369E+06    -5.83890E+06    -17.2983E+06
               3               2    -530.022E-06     131.367E-06     744.757E-06    -530.022E-06     131.367E-06     744.757E-06    -34.1053E+06    -5.76010E+06     15.9591E+06
               3               3    -142.019E-06     130.264E-06    -806.979E-06    -142.019E-06     130.264E-06    -806.979E-06    -6.42237E+06      5.2469E+06    -17.2924E+06
               3               4    -142.019E-06     131.367E-06     745.033E-06    -142.019E-06     131.367E-06     745.033E-06    -6.39086E+06     5.32570E+06     15.9650E+06
               4               1    -488.577E-06     128.824E-06    -745.431E-06    -488.577E-06     128.824E-06    -745.431E-06    -31.2177E+06    -4.75762E+06    -15.9735E+06
               4               2    -488.577E-06     120.772E-06     685.221E-06    -488.577E-06     120.772E-06     685.221E-06    -31.4477E+06    -5.33275E+06     14.6833E+06
               4               3    -130.914E-06     128.824E-06    -747.444E-06    -130.914E-06     128.824E-06    -747.444E-06    -5.67030E+06     5.46132E+06    -16.0166E+06
               4               4    -130.914E-06     120.772E-06     683.208E-06    -130.914E-06     120.772E-06     683.208E-06    -5.90035E+06     4.88619E+06     14.6402E+06
               5               1    -445.853E-06     115.717E-06    -683.166E-06    -445.853E-06     115.717E-06    -683.166E-06    -28.5405E+06    -4.47314E+06    -14.6393E+06
               5               2    -445.853E-06     109.959E-06     622.383E-06    -445.853E-06     109.959E-06     622.383E-06    -28.7050E+06    -4.88443E+06     13.3368E+06
               5               3    -119.466E-06     115.717E-06    -684.606E-06    -119.466E-06     115.717E-06    -684.606E-06    -5.22708E+06     4.85222E+06    -14.6701E+06
               5               4    -119.466E-06     109.959E-06     620.944E-06    -119.466E-06     109.959E-06     620.944E-06    -5.39159E+06     4.44093E+06     13.3059E+06
               6               1    -403.451E-06     105.534E-06    -621.012E-06    -403.451E-06     105.534E-06    -621.012E-06    -25.8027E+06    -3.98903E+06    -13.3074E+06
               6               2    -403.451E-06     99.2011E-06     560.373E-06    -403.451E-06     99.2011E-06     560.373E-06    -25.9836E+06    -4.44137E+06     12.0080E+06
               6               3    -108.104E-06     105.534E-06    -622.595E-06    -108.104E-06     105.534E-06    -622.595E-06    -4.70648E+06     4.44944E+06    -13.3413E+06
               6               4    -108.104E-06     99.2011E-06     558.790E-06    -108.104E-06     99.2011E-06     558.790E-06    -4.88742E+06     3.99710E+06     11.9741E+06
               7               1    -360.967E-06     94.6179E-06    -558.830E-06    -360.967E-06     94.6179E-06    -558.830E-06    -23.0800E+06    -3.55493E+06    -11.9749E+06
               7               2    -360.967E-06     88.4292E-06     498.155E-06    -360.967E-06     88.4292E-06     498.155E-06    -23.2568E+06    -3.99698E+06     10.6748E+06
               7               3    -96.7209E-06     94.6179E-06    -560.378E-06    -96.7209E-06     94.6179E-06    -560.378E-06    -4.20527E+06     3.99497E+06    -12.0081E+06
               7               4    -96.7209E-06     88.4292E-06     496.608E-06    -96.7209E-06     88.4292E-06     496.608E-06    -4.38209E+06     3.55292E+06     10.6416E+06
               8               1    -318.504E-06     83.8854E-06    -496.656E-06    -318.504E-06     83.8854E-06    -496.656E-06    -20.3536E+06    -3.10831E+06    -10.6426E+06
               8               2    -318.504E-06     77.6603E-06     435.990E-06    -318.504E-06     77.6603E-06     435.990E-06    -20.5314E+06    -3.55296E+06     9.34264E+06
               8               3    -85.3429E-06     83.8854E-06    -498.212E-06    -85.3429E-06     83.8854E-06    -498.212E-06    -3.69920E+06     3.55344E+06    -10.6760E+06
               8               4    -85.3429E-06     77.6603E-06     434.434E-06    -85.3429E-06     77.6603E-06     434.434E-06    -3.87706E+06     3.10879E+06     9.30929E+06
               9               1    -276.036E-06     73.1070E-06    -434.480E-06    -276.036E-06     73.1070E-06    -434.480E-06    -17.6281E+06    -2.66481E+06    -9.31027E+06
               9               2    -276.036E-06     66.8926E-06     373.809E-06    -276.036E-06     66.8926E-06     373.809E-06    -17.8056E+06    -3.10870E+06     8.01020E+06
               9               3    -73.9638E-06     73.1070E-06    -436.033E-06    -73.9638E-06     73.1070E-06    -436.033E-06    -3.19436E+06     3.10868E+06    -9.34357E+06
               9               4    -73.9638E-06     66.8926E-06     372.256E-06    -73.9638E-06     66.8926E-06     372.256E-06    -3.37192E+06     2.66479E+06     7.97691E+06
              10               1    -233.569E-06     62.3397E-06    -372.301E-06    -233.569E-06     62.3397E-06    -372.301E-06    -14.9024E+06    -2.22057E+06    -7.97788E+06
              10               2    -233.569E-06     56.1154E-06     311.641E-06    -233.569E-06     56.1154E-06     311.641E-06    -15.0802E+06    -2.66516E+06     6.67802E+06
              10               3    -62.5836E-06     62.3397E-06    -373.857E-06    -62.5836E-06     62.3397E-06    -373.857E-06    -2.68912E+06     2.66473E+06    -8.01122E+06
              10               4    -62.5836E-06     56.1154E-06     310.085E-06    -62.5836E-06     56.1154E-06     310.085E-06    -2.86696E+06     2.22014E+06     6.64468E+06
              11               1    -191.104E-06     51.5719E-06    -310.136E-06    -191.104E-06     51.5719E-06    -310.136E-06    -12.1768E+06    -1.77640E+06    -6.64576E+06
              11               2    -191.104E-06     45.3831E-06     249.436E-06    -191.104E-06     45.3831E-06     249.436E-06    -12.3536E+06    -2.21846E+06     5.34506E+06
              11               3    -51.2110E-06     51.5719E-06    -311.683E-06    -51.2110E-06     51.5719E-06    -311.683E-06    -2.18444E+06     2.22054E+06    -6.67892E+06
              11               4    -51.2110E-06     45.3831E-06     247.889E-06    -51.2110E-06     45.3831E-06     247.889E-06    -2.36127E+06     1.77848E+06     5.31190E+06
              12               1    -148.623E-06     40.7938E-06    -247.912E-06    -148.623E-06     40.7938E-06    -247.912E-06    -9.45038E+06    -1.33252E+06    -5.31240E+06
              12               2    -148.623E-06     34.4447E-06     187.367E-06    -148.623E-06     34.4447E-06     187.367E-06    -9.63179E+06    -1.78603E+06     4.01501E+06
              12               3    -39.8031E-06     40.7938E-06    -249.499E-06    -39.8031E-06     40.7938E-06    -249.499E-06    -1.67754E+06     1.77661E+06    -5.34641E+06
              12               4    -39.8031E-06     34.4447E-06     185.780E-06    -39.8031E-06     34.4447E-06     185.780E-06    -1.85894E+06     1.32310E+06     3.98099E+06
              13               1    -106.240E-06     30.0626E-06    -185.941E-06    -106.240E-06     30.0626E-06    -185.941E-06    -6.72966E+06    -888.106E+03    -3.98445E+06
              13               2    -106.240E-06     24.4397E-06     124.834E-06    -106.240E-06     24.4397E-06     124.834E-06    -6.89031E+06    -1.28974E+06     2.67501E+06
              13               3    -28.5466E-06     30.0626E-06    -187.347E-06    -28.5466E-06     30.0626E-06    -187.347E-06    -1.18011E+06     1.33171E+06    -4.01457E+06
              13               4    -28.5466E-06     24.4397E-06     123.428E-06    -28.5466E-06     24.4397E-06     123.428E-06    -1.34076E+06     930.080E+03     2.64488E+06
              14               1    -63.3036E-06     19.1409E-06    -122.893E-06    -63.3036E-06     19.1409E-06    -122.893E-06    -3.97480E+06    -441.468E+03    -2.63342E+06
              14               2    -63.3036E-06     10.2870E-06     63.6122E-06    -63.3036E-06     10.2870E-06     63.6122E-06    -4.22777E+06    -1.07389E+06     1.36312E+06
              14               3    -16.6773E-06     19.1409E-06    -125.107E-06    -16.6773E-06     19.1409E-06    -125.107E-06    -644.353E+03     890.713E+03    -2.68086E+06
              14               4    -16.6773E-06     10.2870E-06     61.3988E-06    -16.6773E-06     10.2870E-06     61.3988E-06    -897.320E+03     258.295E+03     1.31569E+06
              15               1    -23.2757E-06     8.94349E-06    -64.3311E-06    -23.2757E-06     8.94349E-06    -64.3311E-06    -1.40702E+06    -26.1994E+03    -1.37852E+06
              15               2    -23.2757E-06     14.1267E-06     305.816E-09    -23.2757E-06     14.1267E-06     305.816E-09    -1.25893E+06     344.029E+03     6.55319E+03
              15               3    -7.11648E-06     8.94349E-06    -63.0353E-06    -7.11648E-06     8.94349E-06    -63.0353E-06    -252.792E+03     435.493E+03    -1.35076E+06
              15               4    -7.11648E-06     14.1267E-06     1.60162E-06    -7.11648E-06     14.1267E-06     1.60162E-06    -104.700E+03     805.722E+03     34.3203E+03
              16               1     161.507E-06    -40.4139E-06    -899.801E-06     161.507E-06    -40.4139E-06    -899.801E-06     10.3815E+06     1.72778E+06    -19.2815E+06
              16               2     161.507E-06    -150.827E-06     865.182E-06     161.507E-06    -150.827E-06     865.182E-06     7.22689E+06    -6.15885E+06     18.5396E+06
              16               3     602.753E-06    -40.4139E-06    -927.404E-06     602.753E-06    -40.4139E-06    -927.404E-06     41.8991E+06     14.3348E+06    -19.8729E+06
              16               4     602.753E-06    -150.827E-06     837.579E-06     602.753E-06    -150.827E-06     837.579E-06     38.7444E+06     6.44817E+06     17.9481E+06
              17               1     154.491E-06    -178.270E-06    -879.695E-06     154.491E-06    -178.270E-06    -879.695E-06     5.94166E+06    -8.31951E+06    -18.8506E+06
              17               2     154.491E-06    -142.832E-06     808.614E-06     154.491E-06    -142.832E-06     808.614E-06     6.95417E+06    -5.78823E+06     17.3274E+06
              17               3     576.568E-06    -178.270E-06    -870.836E-06     576.568E-06    -178.270E-06    -870.836E-06     36.0900E+06     3.73984E+06    -18.6608E+06
              17               4     576.568E-06    -142.832E-06     817.473E-06     576.568E-06    -142.832E-06     817.473E-06     37.1025E+06     6.27112E+06     17.5173E+06
              18               1     142.019E-06    -130.264E-06    -806.979E-06     142.019E-06    -130.264E-06    -806.979E-06     6.42237E+06     -5.2469E+06    -17.2924E+06
              18               2     142.019E-06    -131.367E-06     745.033E-06     142.019E-06    -131.367E-06     745.033E-06     6.39085E+06    -5.32570E+06     15.9650E+06
              18               3     530.022E-06    -130.264E-06    -807.255E-06     530.022E-06    -130.264E-06    -807.255E-06     34.1369E+06     5.83890E+06    -17.2983E+06
              18               4     530.022E-06    -131.367E-06     744.757E-06     530.022E-06    -131.367E-06     744.757E-06     34.1053E+06     5.76010E+06     15.9591E+06
              19               1     130.914E-06    -128.824E-06    -747.444E-06     130.914E-06    -128.824E-06    -747.444E-06     5.67030E+06    -5.46132E+06    -16.0166E+06
              19               2     130.914E-06    -120.772E-06     683.208E-06     130.914E-06    -120.772E-06     683.208E-06     5.90035E+06    -4.88619E+06     14.6402E+06
              19               3     488.577E-06    -128.824E-06    -745.431E-06     488.577E-06    -128.824E-06    -745.431E-06     31.2177E+06     4.75762E+06    -15.9735E+06
              19               4     488.577E-06    -120.772E-06     685.221E-06     488.577E-06    -120.772E-06     685.221E-06     31.4477E+06     5.33275E+06     14.6833E+06
              20               1     119.466E-06    -115.717E-06    -684.606E-06     119.466E-06    -115.717E-06    -684.606E-06     5.22708E+06    -4.85222E+06    -14.6701E+06
              20               2     119.466E-06    -109.959E-06     620.944E-06     119.466E-06    -109.959E-06     620.944E-06     5.39159E+06    -4.44093E+06     13.3059E+06
              20               3     445.853E-06    -115.717E-06    -683.166E-06     445.853E-06    -115.717E-06    -683.166E-06     28.5405E+06     4.47314E+06    -14.6393E+06
              20               4     445.853E-06    -109.959E-06     622.383E-06     445.853E-06    -109.959E-06     622.383E-06     28.7050E+06     4.88443E+06     13.3368E+06
              21               1     108.104E-06    -105.534E-06    -622.595E-06     108.104E-06    -105.534E-06    -622.595E-06     4.70648E+06    -4.44944E+06    -13.3413E+06
              21               2     108.104E-06    -99.2011E-06     558.790E-06     108.104E-06    -99.2011E-06     558.790E-06     4.88742E+06    -3.99710E+06     11.9741E+06
              21               3     403.451E-06    -105.534E-06    -621.012E-06     403.451E-06    -105.534E-06    -621.012E-06     25.8027E+06     3.98903E+06    -13.3074E+06
              21               4     403.451E-06    -99.2011E-06     560.373E-06     403.451E-06    -99.2011E-06     560.373E-06     25.9836E+06     4.44137E+06     12.0080E+06
              22               1     96.7209E-06    -94.6179E-06    -560.378E-06     96.7209E-06    -94.6179E-06    -560.378E-06     4.20527E+06    -3.99497E+06    -12.0081E+06
              22               2     96.7209E-06    -88.4292E-06     496.608E-06     96.7209E-06    -88.4292E-06     496.608E-06     4.38209E+06    -3.55292E+06     10.6416E+06
              22               3     360.967E-06    -94.6179E-06    -558.830E-06     360.967E-06    -94.6179E-06    -558.830E-06     23.0800E+06     3.55493E+06    -11.9749E+06
              22               4     360.967E-06    -88.4292E-06     498.155E-06     360.967E-06    -88.4292E-06     498.155E-06     23.2568E+06     3.99698E+06     10.6748E+06
              23               1     85.3430E-06    -83.8854E-06    -498.212E-06     85.3430E-06    -83.8854E-06    -498.212E-06     3.69920E+06    -3.55344E+06    -10.6760E+06
              23               2     85.3430E-06    -77.6602E-06     434.433E-06     85.3430E-06    -77.6602E-06     434.433E-06     3.87707E+06    -3.10879E+06     9.30928E+06
              23               3     318.504E-06    -83.8854E-06    -496.656E-06     318.504E-06    -83.8854E-06    -496.656E-06     20.3536E+06     3.10831E+06    -10.6426E+06
              23               4     318.504E-06    -77.6602E-06     435.989E-06     318.504E-06    -77.6602E-06     435.989E-06     20.5314E+06     3.55296E+06     9.34263E+06
              24               1     73.9635E-06    -73.1069E-06    -436.033E-06     73.9635E-06    -73.1069E-06    -436.033E-06     3.19434E+06    -3.10868E+06    -9.34356E+06
              24               2     73.9635E-06    -66.8924E-06     372.259E-06     73.9635E-06    -66.8924E-06     372.259E-06     3.37189E+06    -2.66479E+06     7.97697E+06
              24               3     276.036E-06    -73.1069E-06    -434.479E-06     276.036E-06    -73.1069E-06    -434.479E-06     17.6281E+06     2.66483E+06    -9.31027E+06
              24               4     276.036E-06    -66.8924E-06     373.812E-06     276.036E-06    -66.8924E-06     373.812E-06     17.8057E+06     3.10872E+06     8.01026E+06
              25               1     62.5855E-06    -62.3402E-06    -373.858E-06     62.5855E-06    -62.3402E-06    -373.858E-06     2.68925E+06    -2.66471E+06    -8.01123E+06
              25               2     62.5855E-06    -56.1179E-06     310.074E-06     62.5855E-06    -56.1179E-06     310.074E-06     2.86703E+06    -2.22026E+06     6.64443E+06
              25               3     233.568E-06    -62.3402E-06    -372.302E-06     233.568E-06    -62.3402E-06    -372.302E-06     14.9023E+06     2.22051E+06    -7.97790E+06
              25               4     233.568E-06    -56.1179E-06     311.629E-06     233.568E-06    -56.1179E-06     311.629E-06     15.0801E+06     2.66496E+06     6.67777E+06
              26               1     51.2016E-06    -51.5694E-06    -311.681E-06     51.2016E-06    -51.5694E-06    -311.681E-06     2.18385E+06    -2.22062E+06    -6.67888E+06
              26               2     51.2016E-06    -45.3650E-06     247.932E-06     51.2016E-06    -45.3650E-06     247.932E-06     2.36111E+06    -1.77746E+06     5.31283E+06
              26               3     191.105E-06    -51.5694E-06    -310.130E-06     191.105E-06    -51.5694E-06    -310.130E-06     12.1769E+06     1.77662E+06    -6.64564E+06
              26               4     191.105E-06    -45.3650E-06     249.483E-06     191.105E-06    -45.3650E-06     249.483E-06     12.3542E+06     2.21978E+06     5.34607E+06
              27               1     39.8452E-06    -40.8053E-06    -249.504E-06     39.8452E-06    -40.8053E-06    -249.504E-06     1.68022E+06    -1.77623E+06    -5.34652E+06
              27               2     39.8452E-06    -34.5524E-06     185.629E-06     39.8452E-06    -34.5524E-06     185.629E-06     1.85887E+06    -1.32959E+06     3.97776E+06
              27               3     148.629E-06    -40.8053E-06    -247.941E-06     148.629E-06    -40.8053E-06    -247.941E-06     9.45045E+06     1.33186E+06    -5.31302E+06
              27               4     148.629E-06    -34.5524E-06     187.192E-06     148.629E-06    -34.5524E-06     187.192E-06     9.62911E+06     1.77850E+06     4.01126E+06
              28               1     28.3685E-06    -30.0138E-06    -187.337E-06     28.3685E-06    -30.0138E-06    -187.337E-06     1.16878E+06    -1.33332E+06    -4.01435E+06
              28               2     28.3685E-06    -23.8672E-06     123.869E-06     28.3685E-06    -23.8672E-06     123.869E-06     1.34440E+06    -894.272E+03     2.65433E+06
              28               3     106.170E-06    -30.0138E-06    -185.800E-06     106.170E-06    -30.0138E-06    -185.800E-06     6.72602E+06     889.578E+03    -3.98143E+06
              28               4     106.170E-06    -23.8672E-06     125.405E-06     106.170E-06    -23.8672E-06     125.405E-06     6.90164E+06     1.32862E+06     2.68725E+06
              29               1     17.3803E-06    -19.3339E-06    -125.096E-06     17.3803E-06    -19.3339E-06    -125.096E-06     689.053E+03    -884.412E+03    -2.68064E+06
              29               2     17.3803E-06    -13.0952E-06     60.5868E-06     17.3803E-06    -13.0952E-06     60.5868E-06     867.301E+03    -438.794E+03     1.29829E+06
              29               3     63.8011E-06    -19.3339E-06    -123.537E-06     63.8011E-06    -19.3339E-06    -123.537E-06     4.00482E+06     441.897E+03    -2.64722E+06
              29               4     63.8011E-06    -13.0952E-06     62.1464E-06     63.8011E-06    -13.0952E-06     62.1464E-06     4.18307E+06     887.515E+03     1.33171E+06
              30               1     4.57982E-06    -8.24507E-06    -63.3253E-06     4.57982E-06    -8.24507E-06    -63.3253E-06     91.5563E+03    -458.082E+03    -1.35697E+06
              30               2     4.57982E-06    -1.23284E-06    -142.687E-09     4.57982E-06    -1.23284E-06    -142.687E-09     291.906E+03     42.7917E+03    -3.05757E+03
              30               3     20.3755E-06    -8.24507E-06    -61.5722E-06     20.3755E-06    -8.24507E-06    -61.5722E-06     1.21982E+06    -6.77776E+03    -1.31941E+06
              30               4     20.3755E-06    -1.23284E-06     1.61037E-06     20.3755E-06    -1.23284E-06     1.61037E-06     1.42017E+06     494.096E+03     34.5079E+03


