%!PS-Adobe-3.0
%%Title: hw4.py, hw4.res
%%For: e-Dgar
%%Creator: a2ps version 4.14
%%CreationDate: Tue Feb  7 12:44:34 2017
%%BoundingBox: 24 24 588 768
%%DocumentData: Clean7Bit
%%Orientation: Landscape
%%Pages: 4
%%PageOrder: Ascend
%%DocumentMedia: Letter 612 792 0 () ()
%%DocumentNeededResources: font Courier
%%+ font Courier-Bold
%%+ font Helvetica
%%+ font Helvetica-Bold
%%+ font Symbol
%%+ font Times-Bold
%%+ font Times-Roman
%%DocumentProcessColors: Black Blue Green Red 
%%DocumentSuppliedResources: procset a2ps-color-prolog
%%+ encoding ISO-8859-1Encoding
%%EndComments
/a2psdict 200 dict def
a2psdict begin
%%BeginProlog
%%Copyright: (c) 1988, 89, 90, 91, 92, 93 Miguel Santana
%%Copyright: (c) 1995, 96, 97, 98 Akim Demaille, Miguel Santana
% Check PostScript language level.
/languagelevel where {
  pop /gs_languagelevel languagelevel def
} {
  /gs_languagelevel 1 def
} ifelse

% EPSF import as in the Red Book
/BeginInclude {
  /b4_Inc_state save def    		% Save state for cleanup
  /dict_count countdictstack def	% Count objects on dict stack
  /op_count count 1 sub def		% Count objects on operand stack 
  userdict begin
    0 setgray 0 setlinecap
    1 setlinewidth 0 setlinejoin
    10 setmiterlimit [ ] 0 setdash newpath
    gs_languagelevel 1 ne {
      false setstrokeadjust false setoverprint 
    } if
} bind def

/EndInclude {
  count op_count sub { pos } repeat	% Clean up stacks
  countdictstack dict_count sub { end } repeat
  b4_Inc_state restore
} bind def

/BeginEPSF {
  BeginInclude
  /showpage { } def
} bind def

/EndEPSF {
  EndInclude
} bind def

% Page prefeed
/page_prefeed {         % bool -> -
  statusdict /prefeed known {
    statusdict exch /prefeed exch put
  } {
    pop
  } ifelse
} bind def

/deffont {
  findfont exch scalefont def
} bind def

/reencode_font {
  findfont reencode 2 copy definefont pop def
} bind def

% Function c-show (str => -)
% centers text only according to x axis.
/c-show { 
  dup stringwidth pop
  2 div neg 0 rmoveto
  show
} bind def

% Function l-show (str => -)
% prints texts so that it ends at currentpoint
/l-show {
  dup stringwidth pop neg 
  0 
  rmoveto show
} bind def

% center-fit show (str w => -)
% show centered, and scale currentfont so that the width is less than w
/cfshow {
  exch dup stringwidth pop
  % If the title is too big, try to make it smaller
  3 2 roll 2 copy
  gt
  { % if, i.e. too big
    exch div
    currentfont exch scalefont setfont
  } { % ifelse
    pop pop 
  }
  ifelse
  c-show			% center title
} bind def

% Return the y size of the current font
% - => fontsize
/currentfontsize {
  currentfont /FontType get 0 eq {
    currentfont /FontMatrix get 3 get
  }{
    currentfont /FontMatrix get 3 get 1000 mul
  } ifelse
} bind def

% reencode the font
% <encoding-vector> <fontdict> -> <newfontdict>
/reencode { %def
  dup length 5 add dict begin
    { %forall
      % <vector> <key> <val>
      1 index /FID ne 
      { def }{ pop pop } ifelse
    } forall
    /Encoding exch def % -

    % Use the font's bounding box to determine the ascent, descent,
    % and overall height; don't forget that these values have to be
    % transformed using the font's matrix.
    % We use `load' because sometimes BBox is executable, sometimes not.
    % Since we need 4 numbers an not an array avoid BBox from being executed
    /FontBBox load aload pop
    FontMatrix transform /Ascent exch def pop
    FontMatrix transform /Descent exch def pop
    /FontHeight Ascent Descent sub def

    % Get the underline position and thickness if they're defined.
    % Use 1 if they are not defined.
    currentdict /FontInfo 2 copy known
    { get
      /UnderlinePosition 2 copy % <FontInfo> /UP <FontInfo> /UP
      2 copy known
      { get }{ pop pop 1 } ifelse
      0 exch FontMatrix transform exch pop
      def % <FontInfo>

      /UnderlineThickness 2 copy % <FontInfo> /UT <FontInfo> /UT
      2 copy known
      { get }{ pop pop 1 } ifelse
      0 exch FontMatrix transform exch pop
      def % <FontInfo>
      pop % -
    }{ pop pop
    } ifelse

    currentdict
  end 
} bind def

% composite fonts for ASCII-EUC mixed strings
% Version 1.2 1/31/1990
% Original Ken'ichi HANDA (handa@etl.go.jp)
% Modified Norio Katayama (katayama@rd.nacsis.ac.jp),1998
% Extend & Fix Koji Nakamaru (maru@on.cs.keio.ac.jp), 1999
% Anyone can freely copy, modify, distribute this program.

/copyfont {	% font-dic extra-entry-count  copyfont  font-dic
	1 index maxlength add dict begin
	{	1 index /FID ne 2 index /UniqueID ne and
		{def} {pop pop} ifelse
	} forall
	currentdict
	end
} bind def

/compositefont { % ASCIIFontName EUCFontName RomanScale RomanOffset Rot(T/F) compositefont font
    /RomanRotation exch def
    /RomanOffset exch def
    /RomanScale exch def
    userdict /fixeucfont_dict known not {
	userdict begin
	    /fixeucfont_dict 2 dict begin
		/UpperByteEncoding [
		    16#00 1 16#20 { pop 0 } for
		    16#21 1 16#28 { 16#20 sub } for
		    16#29 1 16#2F { pop 0 } for
		    16#30 1 16#74 { 16#27 sub } for
		    16#75 1 16#FF { pop 0 } for
		] def
	        /LowerByteEncoding [
		    16#00 1 16#A0 { pop /.notdef } for
		    16#A1 1 16#FE { 16#80 sub 16 2 string cvrs
				    (cXX) dup 1 4 -1 roll
				    putinterval cvn } for
		    /.notdef
		] def
		currentdict
	    end def
	end
    } if
    findfont dup /FontType get 0 eq {
	14 dict begin
	    %
	    % 7+8 bit EUC font
	    %
	    12 dict begin
		/EUCFont exch def
		/FontInfo (7+8 bit EUC font) readonly def
		/PaintType 0 def
		/FontType 0 def
		/FontMatrix matrix def
		% /FontName
		/Encoding fixeucfont_dict /UpperByteEncoding get def
		/FMapType 2 def
		EUCFont /WMode known
		{ EUCFont /WMode get /WMode exch def }
		{ /WMode 0 def } ifelse
		/FDepVector [
		    EUCFont /FDepVector get 0 get
		    [ 16#21 1 16#28 {} for 16#30 1 16#74 {} for ]
		    {
			13 dict begin
			    /EUCFont EUCFont def
			    /UpperByte exch 16#80 add def	
			    % /FontName
			    /FontInfo (EUC lower byte font) readonly def
			    /PaintType 0 def
			    /FontType 3 def
			    /FontMatrix matrix def
			    /FontBBox {0 0 0 0} def
			    /Encoding
				fixeucfont_dict /LowerByteEncoding get def
			    % /UniqueID
			    % /WMode
			    /BuildChar {
				gsave
				exch dup /EUCFont get setfont
				/UpperByte get
				2 string
				dup 0 4 -1 roll put
				dup 1 4 -1 roll put
				dup stringwidth setcharwidth
				0 0 moveto show
				grestore
			    } bind def
			    currentdict
			end
			/lowerbytefont exch definefont
		    } forall
		] def
		currentdict
	    end
	    /eucfont exch definefont
	    exch
	    findfont 1 copyfont dup begin
		RomanRotation {
			/FontMatrix FontMatrix
			[ 0 RomanScale neg RomanScale 0 RomanOffset neg 0 ]
			matrix concatmatrix def
		}{
			/FontMatrix FontMatrix
			[ RomanScale 0 0 RomanScale 0 RomanOffset ] matrix concatmatrix
			def
			/CDevProc
			    {pop pop pop pop 0 exch -1000 exch 2 div 880} def
		} ifelse
	    end
	    /asciifont exch definefont
	    exch
	    /FDepVector [ 4 2 roll ] def
	    /FontType 0 def
	    /WMode 0 def
	    /FMapType 4 def
	    /FontMatrix matrix def
	    /Encoding [0 1] def
	    /FontBBox {0 0 0 0} def
%	    /FontHeight 1.0 def % XXXX
	    /FontHeight RomanScale 1.0 ge { RomanScale }{ 1.0 } ifelse def
	    /Descent -0.3 def   % XXXX
	    currentdict
	end
	/tmpfont exch definefont
	pop
	/tmpfont findfont
    }{
	pop findfont 0 copyfont
    } ifelse
} def	

/slantfont {	% FontName slant-degree  slantfont  font'
    exch findfont 1 copyfont begin
    [ 1 0 4 -1 roll 1 0 0 ] FontMatrix exch matrix concatmatrix
    /FontMatrix exch def
    currentdict
    end
} def

% Function print line number (<string> # -)
/# {
  gsave
    sx cw mul neg 2 div 0 rmoveto
    f# setfont
    c-show
  grestore
} bind def

% -------- Some routines to enlight plain b/w printings ---------

% Underline
% width --
/dounderline {
  currentpoint
  gsave
    moveto
    0 currentfont /Descent get currentfontsize mul rmoveto
    0 rlineto
    stroke
  grestore
} bind def

% Underline a string
% string --
/dounderlinestring {
  stringwidth pop
  dounderline
} bind def

/UL {
  /ul exch store
} bind def

% Draw a box of WIDTH wrt current font
% width --
/dobox {
  currentpoint
  gsave
    newpath
    moveto
    0 currentfont /Descent get currentfontsize mul rmoveto
    dup 0 rlineto
    0 currentfont /FontHeight get currentfontsize mul rlineto
    neg 0 rlineto
    closepath
    stroke
  grestore
} bind def

/BX {
  /bx exch store
} bind def

% Box a string
% string --
/doboxstring {
  stringwidth pop
  dobox
} bind def

%
% ------------- Color routines ---------------
%
/FG /setrgbcolor load def

% Draw the background
% width --
/dobackground {
  currentpoint
  gsave
    newpath
    moveto
    0 currentfont /Descent get currentfontsize mul rmoveto
    dup 0 rlineto
    0 currentfont /FontHeight get currentfontsize mul rlineto
    neg 0 rlineto
    closepath
    bgcolor aload pop setrgbcolor
    fill
  grestore
} bind def

% Draw bg for a string
% string --
/dobackgroundstring {
  stringwidth pop
  dobackground
} bind def


/BG {
  dup /bg exch store
  { mark 4 1 roll ] /bgcolor exch store } if
} bind def


/Show {
  bg { dup dobackgroundstring } if
  ul { dup dounderlinestring } if
  bx { dup doboxstring } if
  show
} bind def

% Function T(ab), jumps to the n-th tabulation in the current line
/T {
  cw mul x0 add
  bg { dup currentpoint pop sub dobackground } if
  ul { dup currentpoint pop sub dounderline } if
  bx { dup currentpoint pop sub dobox } if
  y0 moveto
} bind def

% Function n: move to the next line
/n {
  /y0 y0 bfs sub store
  x0 y0 moveto
} bind def

% Function N: show and move to the next line
/N {
  Show
  /y0 y0 bfs sub store
  x0 y0 moveto
} bind def

/S {
  Show
} bind def

%%Copyright: (c) 1988, 89, 90, 91, 92, 93 Miguel Santana
%%Copyright: (c) 1995, 96, 97, 98 Akim Demaille, Miguel Santana
% Function title: prints page header.
% <ct> <rt> <lt> are passed as argument
/title { 
  % 1. Draw the background
  x v get y v get moveto
  0 setgray
  gsave
    0 th 2 div neg rmoveto 
    th setlinewidth
    0.5 0.5 1 setrgbcolor
    pw 0 rlineto stroke
  grestore
  % 2. Border it
  gsave
    0.7 setlinewidth
    pw 0 rlineto
    0 th neg rlineto
    pw neg 0 rlineto
    closepath stroke
  grestore
  % stk: ct rt lt
  x v get y v get th sub 1 add moveto
%%IncludeResource: font Helvetica
  fHelvetica fnfs 0.8 mul scalefont setfont
  % 3. The left title
  gsave
    dup stringwidth pop fnfs 0.8 mul add exch % leave space took on stack
    fnfs 0.8 mul hm rmoveto
    show			% left title
  grestore
  exch
  % stk: ct ltw rt
  % 4. the right title
  gsave
    dup stringwidth pop fnfs 0.8 mul add exch % leave space took on stack
    dup
    pw exch stringwidth pop fnfs 0.8 mul add sub
    hm
    rmoveto
    show			% right title
  grestore
  % stk: ct ltw rtw
  % 5. the center title
  gsave
    pw 3 1 roll
    % stk: ct pw ltw rtw
    3 copy 
    % Move to the center of the left room
    sub add 2 div hm rmoveto
    % What is the available space in here?
    add sub fnfs 0.8 mul sub fnfs 0.8 mul sub
    % stk: ct space_left
%%IncludeResource: font Helvetica-Bold
  fHelvetica-Bold fnfs scalefont setfont
    1 setgray
    cfshow
  grestore
} bind def

% Function border: prints virtual page border
/border { %def
  gsave				% print four sides
    0 setgray
    x v get y v get moveto
    0.7 setlinewidth		% of the square
    pw 0 rlineto
    0 ph neg rlineto
    pw neg 0 rlineto
    closepath stroke
  grestore
} bind def

% Function water: prints a water mark in background
/water { %def
  gsave
    scx scy moveto rotate
%%IncludeResource: font Times-Bold
  fTimes-Bold 100 scalefont setfont
    .97 setgray
    dup stringwidth pop 2 div neg -50 rmoveto
    show
  grestore
} bind def

% Function rhead: prints the right header
/rhead {  %def
  lx ly moveto
  fHelvetica fnfs 0.8 mul scalefont setfont
  l-show
} bind def

% Function footer (cf rf lf -> -)
/footer {
  fHelvetica fnfs 0.8 mul scalefont setfont
  dx dy moveto
  show

  snx sny moveto
  l-show
  
  fnx fny moveto
  c-show
} bind def

% Function print line number (<string> # -)
/# {
  gsave
    sx cw mul neg 2 div 0 rmoveto
    f# setfont
    c-show
  grestore
} bind def
%%BeginResource: procset a2ps-color-prolog 2.0 1

%% Definition of the color faces.
/p {
  0 0 0 FG
  false BG
  false UL
  false BX
  fCourier bfs scalefont setfont
  Show
} bind def

/sy {
  0 0 0 FG
  false BG
  fSymbol bfs scalefont setfont
  Show
} bind def

/k {
  false BG
  false UL
  false BX
  0 0 0.9 FG
  fCourier bfs scalefont setfont
  Show
} bind def

/K {
  false BG
  false UL
  false BX
  0 0 0.8 FG
  fCourier-Bold bfs scalefont setfont
  Show
} bind def

/c {
  false BG
  false UL
  false BX
  0.8 0 0 FG
  fCourier bfs scalefont setfont
  Show
} bind def

/C {
  false BG
  false UL
  false BX
  0.8 0 0 FG
  fCourier-Bold bfs scalefont setfont
  Show
} bind def

/l {
  0 0 0 FG
  0.8 0.8 0 true BG
  false UL
  false BX
  fCourier bfs scalefont setfont
  Show
} bind def

/L {
  0 0 0 FG
  1 1 0 true BG
  false UL
  false BX
  fCourier-Bold bfs scalefont setfont
  Show
} bind def

/str {
  false BG
  false UL
  false BX
  0 0.5 0 FG
  fTimes-Roman bfs scalefont setfont
  Show
} bind def

/e{
  1 0 0 true BG
  false UL
  true BX
  1 1 1 FG
  fHelvetica-Bold bfs scalefont setfont
  Show
} bind def

% Function print line number (<string> # -)
/# {
  gsave
    sx cw mul 2 div neg 0 rmoveto
    f# setfont
    0.8 0.1 0.1 FG
    c-show
  grestore
} bind def
%%EndResource
%%EndProlog
%%BeginSetup
%%IncludeResource: font Courier
%%IncludeResource: font Courier-Bold
%%IncludeResource: font Times-Roman
%%IncludeResource: font Symbol
%%BeginResource: encoding ISO-8859-1Encoding
/ISO-8859-1Encoding [
/.notdef /.notdef /.notdef /.notdef /.notdef /.notdef /.notdef /.notdef 
/.notdef /.notdef /.notdef /.notdef /.notdef /.notdef /.notdef /.notdef 
/.notdef /.notdef /.notdef /.notdef /.notdef /.notdef /.notdef /.notdef 
/.notdef /.notdef /.notdef /.notdef /.notdef /.notdef /.notdef /.notdef 
/space /exclam /quotedbl /numbersign /dollar /percent /ampersand /quoteright 
/parenleft /parenright /asterisk /plus /comma /minus /period /slash 
/zero /one /two /three /four /five /six /seven 
/eight /nine /colon /semicolon /less /equal /greater /question 
/at /A /B /C /D /E /F /G 
/H /I /J /K /L /M /N /O 
/P /Q /R /S /T /U /V /W 
/X /Y /Z /bracketleft /backslash /bracketright /asciicircum /underscore 
/quoteleft /a /b /c /d /e /f /g 
/h /i /j /k /l /m /n /o 
/p /q /r /s /t /u /v /w 
/x /y /z /braceleft /bar /braceright /asciitilde /.notdef 
/.notdef /.notdef /.notdef /.notdef /.notdef /.notdef /.notdef /.notdef 
/.notdef /.notdef /.notdef /.notdef /.notdef /.notdef /.notdef /.notdef 
/.notdef /.notdef /.notdef /.notdef /.notdef /.notdef /.notdef /.notdef 
/.notdef /.notdef /.notdef /.notdef /.notdef /.notdef /.notdef /.notdef 
/space /exclamdown /cent /sterling /currency /yen /brokenbar /section 
/dieresis /copyright /ordfeminine /guillemotleft /logicalnot /hyphen /registered /macron 
/degree /plusminus /twosuperior /threesuperior /acute /mu /paragraph /bullet 
/cedilla /onesuperior /ordmasculine /guillemotright /onequarter /onehalf /threequarters /questiondown 
/Agrave /Aacute /Acircumflex /Atilde /Adieresis /Aring /AE /Ccedilla 
/Egrave /Eacute /Ecircumflex /Edieresis /Igrave /Iacute /Icircumflex /Idieresis 
/Eth /Ntilde /Ograve /Oacute /Ocircumflex /Otilde /Odieresis /multiply 
/Oslash /Ugrave /Uacute /Ucircumflex /Udieresis /Yacute /Thorn /germandbls 
/agrave /aacute /acircumflex /atilde /adieresis /aring /ae /ccedilla 
/egrave /eacute /ecircumflex /edieresis /igrave /iacute /icircumflex /idieresis 
/eth /ntilde /ograve /oacute /ocircumflex /otilde /odieresis /divide 
/oslash /ugrave /uacute /ucircumflex /udieresis /yacute /thorn /ydieresis 
] def
%%EndResource
% Initialize page description variables.
/sh 612 def
/sw 792 def
/llx 24 def
/urx 768 def
/ury 588 def
/lly 24 def
/#copies 1 def
/th 0.000000 def
/fnfs 11 def
/bfs 8.000000 def
/cw 4.800000 def

% Dictionary for ISO-8859-1 support
/iso1dict 6 dict begin
  /fCourier ISO-8859-1Encoding /Courier reencode_font
  /fCourier-Bold ISO-8859-1Encoding /Courier-Bold reencode_font
  /fHelvetica ISO-8859-1Encoding /Helvetica reencode_font
  /fHelvetica-Bold ISO-8859-1Encoding /Helvetica-Bold reencode_font
  /fTimes-Bold ISO-8859-1Encoding /Times-Bold reencode_font
  /fTimes-Roman ISO-8859-1Encoding /Times-Roman reencode_font
currentdict end def
/bgcolor [ 0 0 0 ] def
/bg false def
/ul false def
/bx false def
% The font for line numbering
/f# /Helvetica findfont bfs .6 mul scalefont def
/fSymbol /Symbol findfont def
/hm fnfs 0.25 mul def
/pw
   cw 75.400000 mul
def
/ph
   557.600000 th add
def
/pmw urx llx sub pw 2 mul sub 1 div def
/pmh 0 def
/v 0 def
/x [
  0
  dup pmw add pw add
] def
/y [
  pmh ph add 0 mul ph add
  dup
] def
/scx sw 2 div def
/scy sh 2 div def
/snx urx def
/sny lly 2 add def
/dx llx def
/dy sny def
/fnx scx def
/fny dy def
/lx snx def
/ly ury fnfs 0.8 mul sub def
/sx 0 def
/tab 8 def
/x0 0 def
/y0 0 def
%%EndSetup

%%Page: (1-2) 1
%%BeginPageSetup
/pagesave save def
sh 0 translate 90 rotate
%%EndPageSetup
iso1dict begin
gsave
llx lly 0 add translate
/v 0 store
/x0 x v get 3.360000 add sx cw mul add store
/y0 y v get bfs  sub store
x0 y0 moveto
(# Libraries to make relative imports) c n
(# -*- coding: utf-8 -*-) N
() p n
(# To pretty print:) c n
(# a2ps hw4.py hw4.res --pro=color --columns=2 -B -E) N
(#   --font-size=8 -o hw4_code.ps && ps2pdf hw4_code.ps) N
(from) K
( sys ) p
(import) K
( path as syspath) p n
(from) K
( os ) p
(import) K
( path as ospath) p n
(from) K
( os ) p
(import) K
( getcwd) p n
(if) K
( ) p
(not) K
( getcwd\(\) + ") p
(/..) str
(" ) p
(in) K
( syspath:) p n
(    syspath.append\(ospath.join\(getcwd\(\), ") S
(..) str
("\)\)) p n
(#  and reload modules) c n
(from) K
( importlib ) p
(import) K
( reload) p n
(# Import routines from homework 3) c n
(from) K
( hw3.hw3 ) p
(import) K
( *) p n
(# Eigenvalues and eigenvectors of a Hermitian or symmetric) c n
(# matrix) N
(from) K
( numpy.linalg ) p
(import) K
( eigh, det) p n
() N
() N
(def) K
( multiTransf\(T, a, b, c, prFlag=None\):) p n
(    """) N
(    Calculates multiple transformations) str n
(    T -- Tensor to transform) N
(    a -- List of Euler angles alpha) N
(    b  -- List of Euler angles beta) N
(    g -- List of Euler angles gamma) N
(    ) S
(""") p n
(    ) S
(# Create a container for the results) c n
(    res = [T ) p
(for) K
( i ) p
(in) K
( a]) p n
(    ) S
(for) K
( I ) p
(in) K
( range\(len\(a\)\):) p n
(        alpha = a[I]) N
(        beta = b[I]) N
(        gamma = c[I]) N
(        Q = matQ\(alpha, beta, gamma\)) N
(        res[I] = Q*T*Q.transpose\(\)) N
() N
(        ) S
(if) K
( prFlag:) p n
(            msg = ") S
(\\nalpha = {0:0.3f}, beta = %{1:0.3f}, ) str
("\\) p n
(                 + ") S
(gamma = {2:0.3f}) str
(") p n
(            ) S
(print) K
(\(msg.format\(alpha, beta, gamma\)\)) p n
(            ) S
(print) K
(\(") p
([Q].[T].transpose\([Q]\) = ) str
("\)) p n
(            ) S
(print) K
(\(res[I]\)) p n
() N
(    ) S
(return) K
( res) p n
() N
() N
(def) K
( eigInvar\(eigval\):) p n
(    """) S
(Calculate the invariants of a matrix by means of) str n
(    eigenpairs \(numpy.linalg.eigh, numpy.linalg.eig\)) N
(    eigval -- list with the eigenvalues) N
(    ) S
(""") p n
(    I1 = eigval[0] + eigval[1] + eigval[2]) N
(    ) S
(# VoyiadjisKattani05 - Damage mechanics) c n
(    I2 = eigval[0]*eigval[1] + eigval[1]*eigval[2] +\\) p n
(        eigval[2]*eigval[0]) N
(    I3 = eigval[0] * eigval[1] * eigval[2]) N
(    ) S
(return) K
( I1, I2, I3) p n
() N
() N
(def) K
( testPosDef\(eigval\):) p n
(    """) S
(Tests if a matrix is positive definite, based on its) str n
(    eigenvalues.) N
(    eigval -- list with the eigenvalues) S
(""") p n
(    invar = eigInvar\(eigval\)) N
(    res = all\([i > 0 ) S
(for) K
( i ) p
(in) K
( list\(invar\) + eigval]\)) p n
(    ) S
(return) K
( res) p n
() N
() N
border
/v 1 store
/x0 x v get 3.360000 add sx cw mul add store
/y0 y v get bfs  sub store
x0 y0 moveto
(def) K
( main\(\):) p n
(    qb = """") N
(    b. Use your HW3 program to calculate the tensor) N
(    component after counterclockwise transformations about) N
(    e3, defined by \316\261. Sketch the column vectors on e1 ) S
(and) K n
(    e2 surfaces.""") p n
() str n
(    T = matrix\([[10, 0, 0], [0, 0, 0], [0, 0, 0]]\)) N
() N
(    print\(qb\)) N
(    # alpha = 0, alpha = 40\302\260, alpha = 60\302\260, alpha = 90\302\260,) N
(    # alpha = 150\302\260, alpha = 180\302\260) N
(    a = [0, 45, 60, 90, 150, 180]) N
(    for I in a:) N
(        alpha = I/180*pi) N
(        Q = matQ\(alpha\)) N
(        T_trans = Q*T*Q.transpose\(\)) N
(        print\() S
("\\nalpha = ") p
( + str\(I\)\)) str n
(        print\() S
("[T]^") p
( + str\(I\) + ) str
("\302\260 = ") p
(\)) str n
(        print\(T_trans\)) N
() N
(    qc = ) S
(""") p n
(    c. Mark locations ) S
(in) K
( your Mohr\342M-^@M-^Ys circle that) p n
(    represent the normal ) S
(and) K
( shear component of the surface) p n
(    normal to the e1 unit basis as T ) S
(is) K
( transformed ) p
(in) K
( part) p n
(    \(b\).""") N
(    print\(qc\)) str n
(    # Change last value of angles to 12) N
(    a[len\(a\)-1] = 12) N
(    alpha = [i/180*pi for i in a]) N
(    z = [0 for i in a]) N
(    T = matrix\([) N
(          [5, 2, 0],) N
(          [2, -4, 0],) N
(          [0, 0, 0]) N
(          ]\)) N
(    multiTransf\(T, alpha, z, z, prFlag=True\)) N
() N
(    q7a = ) S
(""") p n
(    7.a\) Include code to calculate the invariants, eigenvalues) N
(    ) S
(and) K
( eigenvectors of T. To calculate eigenvectors you can use) p n
(    the built-) S
(in) K
( function \342M-^@M-^Xeig\342M-^@M-^Y \(this will give eigenvecto) p n
(rs as) N
(    column vectors, see \342M-^@M-^\\help\342M-^@M-^] ) S
(in) K
( Matlab\). Include screen ) p n
(shots) N
(    of the \342M-^@M-^\\published\342M-^@M-^] code ) S
(and) K
( the \342M-^@M-^\\published\342) p n
(M-^@M-^] results.) N
(    """) N
(    print\(q7a\)) str n
() N
(    T = matrix\([) N
(          [1, 0, 0],) N
(          [0, 3, 1],) N
(          [0, 1, 3]) N
(          ]\)) N
() N
(    eigval, eigvec = eigh\(T\)) N
(    invarT = eigInvar\(eigval\)) N
(    print\() S
("[T]") p
(\)) str n
(    print\(T\)) N
(    print\() S
("The invariants of the matrix are:") p
(\)) str n
(    print\() S
("I1, I2, I3") p
(\)) str n
(    print\(invarT\)) N
(    print\() S
("The eigenvalues of the matrix are") p
(\)) str n
(    print\(eigval\)) N
(    print\() S
("The corresponding eigenvectors are") p
(\)) str n
(    print\(eigvec\)) N
() N
(    q7b = ) S
(""") p n
border
grestore
end % of iso1dict
pagesave restore
showpage
%%Page: (3) 2
%%BeginPageSetup
/pagesave save def
sh 0 translate 90 rotate
%%EndPageSetup
iso1dict begin
gsave
llx lly 0 add translate
/v 0 store
/x0 x v get 3.360000 add sx cw mul add store
/y0 y v get bfs  sub store
x0 y0 moveto
(    7.b\) Include code to calculate whether tensor T ) p
(is) K
( positive) p n
(    definite. Include screen shots of the results.) N
(    """) N
(    print\(q7b\)) str n
(    if testPosDef\(eigval\):) N
(        print\() S
("[T] ) p
(is) K
( positive definite") p
(\)) str n
() N
(    q7c = ) S
(""") p n
(    7.c\) If the coordinate system of T ) S
(is) K
( rotated by \316\261=30\302\260 ) p
(and) K n
(    \316\261=-45\302\260 \(\316\262 = 0, ) p
(and) K
( \316\263 = 0\), use your program to calculate the) p n
(    invariants, eigenvalues, ) S
(and) K
( eigenvectors of T ) p
(in) K
( these new) p n
(    coordinate systems?) N
(    """) N
(    print\(q7c\)) str n
(    alpha = [i/180*pi for i in [30, -45]]) N
(    z = [0 for i in a]) N
(    T_trans = multiTransf\(T, alpha, z, z, prFlag=True\)) N
() N
(    for Ti in T_trans:) N
(        eigval, eigvec = eigh\(Ti\)) N
(        invarT = eigInvar\(eigval\)) N
(        print\() S
("[T]") p
(\)) str n
(        print\(Ti\)) N
(        print\() S
("The invariants of the matrix are:") p
(\)) str n
(        print\() S
("I1, I2, I3") p
(\)) str n
(        print\(invarT\)) N
(        print\() S
("The eigenvalues of the matrix are") p
(\)) str n
(        print\(eigval\)) N
(        print\() S
("The corresponding eigenvectors are") p
(\)) str n
(        print\(eigvec\)) N
(        print\(\)) N
border
grestore
end % of iso1dict
pagesave restore
showpage
%%Page: (1-2) 3
%%BeginPageSetup
/pagesave save def
sh 0 translate 90 rotate
%%EndPageSetup
iso1dict begin
gsave
llx lly 0 add translate
/v 0 store
/x0 x v get 3.360000 add sx cw mul add store
/y0 y v get bfs  sub store
x0 y0 moveto
(Python 3.4.3 \(default, Nov 17 2016, 03:08:31\)) p n
([GCC 4.8.4] on linux) N
(Type "help", "copyright", "credits" or "license" for more information.) N
(>>> >>> >>> >>> >>>) N
(>>> from hw4 import main as hw4) N
(>>> hw4\(\)) N
(") N
(    b. Use your HW3 program to calculate the tensor) N
(    component after counterclockwise transformations about) N
(    e3, defined by \316\261. Sketch the column vectors on e1 and) N
(    e2 surfaces.) N
() N
(alpha = 0) N
([T]^0\302\260 =) N
([[ 10.   0.   0.]) N
( [  0.   0.   0.]) N
( [  0.   0.   0.]]) N
() N
(alpha = 45) N
([T]^45\302\260 =) N
([[ 5. -5.  0.]) N
( [-5.  5.  0.]) N
( [ 0.  0.  0.]]) N
() N
(alpha = 60) N
([T]^60\302\260 =) N
([[ 2.5        -4.33012702  0.        ]) N
( [-4.33012702  7.5         0.        ]) N
( [ 0.          0.          0.        ]]) N
() N
(alpha = 90) N
([T]^90\302\260 =) N
([[  3.74939946e-32  -6.12323400e-16   0.00000000e+00]) N
( [ -6.12323400e-16   1.00000000e+01   0.00000000e+00]) N
( [  0.00000000e+00   0.00000000e+00   0.00000000e+00]]) N
() N
(alpha = 150) N
([T]^150\302\260 =) N
([[ 7.5         4.33012702  0.        ]) N
( [ 4.33012702  2.5         0.        ]) N
( [ 0.          0.          0.        ]]) N
() N
(alpha = 180) N
([T]^180\302\260 =) N
([[  1.00000000e+01   1.22464680e-15   0.00000000e+00]) N
( [  1.22464680e-15   1.49975978e-31   0.00000000e+00]) N
( [  0.00000000e+00   0.00000000e+00   0.00000000e+00]]) N
() N
(    c. Mark locations in your Mohr\342M-^@M-^Ys circle that) N
(    represent the normal and shear component of the surface) N
(    normal to the e1 unit basis as T is transformed in part) N
(    \(b\).) N
() N
(alpha = 0.000, beta = %0.000, gamma = 0.000) N
([Q].[T].transpose\([Q]\) =) N
([[ 5.  2.  0.]) N
( [ 2. -4.  0.]) N
( [ 0.  0.  0.]]) N
() N
(alpha = 0.785, beta = %0.000, gamma = 0.000) N
([Q].[T].transpose\([Q]\) =) N
([[ 2.5 -4.5  0. ]) N
( [-4.5 -1.5  0. ]) N
( [ 0.   0.   0. ]]) N
() N
(alpha = 1.047, beta = %0.000, gamma = 0.000) N
([Q].[T].transpose\([Q]\) =) N
([[-0.01794919 -4.89711432  0.        ]) N
( [-4.89711432  1.01794919  0.        ]) N
border
/v 1 store
/x0 x v get 3.360000 add sx cw mul add store
/y0 y v get bfs  sub store
x0 y0 moveto
( [ 0.          0.          0.        ]]) p n
() N
(alpha = 1.571, beta = %0.000, gamma = 0.000) N
([Q].[T].transpose\([Q]\) =) N
([[-4. -2.  0.]) N
( [-2.  5.  0.]) N
( [ 0.  0.  0.]]) N
() N
(alpha = 2.618, beta = %0.000, gamma = 0.000) N
([Q].[T].transpose\([Q]\) =) N
([[ 1.01794919  4.89711432  0.        ]) N
( [ 4.89711432 -0.01794919  0.        ]) N
( [ 0.          0.          0.        ]]) N
() N
(alpha = 0.209, beta = %0.000, gamma = 0.000) N
([Q].[T].transpose\([Q]\) =) N
([[  5.42442785e+00  -3.22397856e-03   0.00000000e+00]) N
( [ -3.22397856e-03  -4.42442785e+00   0.00000000e+00]) N
( [  0.00000000e+00   0.00000000e+00   0.00000000e+00]]) N
() N
(    7.a\) Include code to calculate the invariants, eigenvalues) N
(    and eigenvectors of T. To calculate eigenvectors you can use) N
(    the built-in function \342M-^@M-^Xeig\342M-^@M-^Y \(this will give eigenvecto) N
(rs as) N
(    column vectors, see \342M-^@M-^\\help\342M-^@M-^] in Matlab\). Include screen ) N
(shots) N
(    of the \342M-^@M-^\\published\342M-^@M-^] code and the \342M-^@M-^\\published\342) N
(M-^@M-^] results.) N
() N
([T]) N
([[1 0 0]) N
( [0 3 1]) N
( [0 1 3]]) N
(The invariants of the matrix are:) N
(I1, I2, I3) N
(\(7.0, 14.0, 8.0\)) N
(The eigenvalues of the matrix are) N
([ 1.  2.  4.]) N
(The corresponding eigenvectors are) N
([[ 1.          0.          0.        ]) N
( [ 0.         -0.70710678  0.70710678]) N
( [ 0.          0.70710678  0.70710678]]) N
() N
(    7.b\) Include code to calculate whether tensor T is positive) N
(    definite. Include screen shots of the results.) N
() N
([T] is positive definite) N
() N
(    7.c\) If the coordinate system of T is rotated by \316\261=30\302\260 and) N
(    \316\261=-45\302\260 \(\316\262 = 0, and \316\263 = 0\), use your program to calculate the) N
(    invariants, eigenvalues, and eigenvectors of T in these new) N
(    coordinate systems?) N
() N
() N
(alpha = 0.524, beta = %0.000, gamma = 0.000) N
([Q].[T].transpose\([Q]\) =) N
([[ 1.5        0.8660254  0.5      ]) N
( [ 0.8660254  2.5        0.8660254]) N
( [ 0.5        0.8660254  3.       ]]) N
() N
(alpha = -0.785, beta = %0.000, gamma = 0.000) N
([Q].[T].transpose\([Q]\) =) N
([[ 2.         -1.         -0.70710678]) N
( [-1.          2.          0.70710678]) N
( [-0.70710678  0.70710678  3.        ]]) N
([T]) N
([[ 1.5        0.8660254  0.5      ]) N
( [ 0.8660254  2.5        0.8660254]) N
( [ 0.5        0.8660254  3.       ]]) N
border
grestore
end % of iso1dict
pagesave restore
showpage
%%Page: (3) 4
%%BeginPageSetup
/pagesave save def
sh 0 translate 90 rotate
%%EndPageSetup
iso1dict begin
gsave
llx lly 0 add translate
/v 0 store
/x0 x v get 3.360000 add sx cw mul add store
/y0 y v get bfs  sub store
x0 y0 moveto
(The invariants of the matrix are:) p n
(I1, I2, I3) N
(\(6.9999999999999982, 13.999999999999995, 7.9999999999999947\)) N
(The eigenvalues of the matrix are) N
([ 1.  2.  4.]) N
(The corresponding eigenvectors are) N
([[ 0.8660254   0.35355339  0.35355339]) N
( [-0.5         0.61237244  0.61237244]) N
( [ 0.         -0.70710678  0.70710678]]) N
() N
([T]) N
([[ 2.         -1.         -0.70710678]) N
( [-1.          2.          0.70710678]) N
( [-0.70710678  0.70710678  3.        ]]) N
(The invariants of the matrix are:) N
(I1, I2, I3) N
(\(7.0, 14.000000000000004, 8.0000000000000036\)) N
(The eigenvalues of the matrix are) N
([ 1.  2.  4.]) N
(The corresponding eigenvectors are) N
([[ -7.07106781e-01   5.00000000e-01  -5.00000000e-01]) N
( [ -7.07106781e-01  -5.00000000e-01   5.00000000e-01]) N
( [  1.66533454e-16   7.07106781e-01   7.07106781e-01]]) N
() N
(>>>) N
border
grestore
end % of iso1dict
pagesave restore
showpage

%%Trailer
end
%%EOF
