     node_number,    NFORCE_value  
        75   -4.0358 
        76   -1.2425 
        10   -1.7115 
        76   -0.0013 
        75   -1.7141 
        10   -1.7609 
         9   -3.4722 
        75   -0.0008 
        10    0.0002 
        65   -1.1529 
        86   -2.2013 
         5   -1.9089 
        65    0.0035 
         5   -1.5637 
        77   -1.1693 
        73   -1.6916 
        78   -0.6132 
        74    0.6128 
        73   -2.3053 
        77   -1.7827 
        73   -0.9126 
        74   -0.8698 
        73   -2.0126 
        78   -0.8898 
        74    0.7777 
        77   -1.4859 
        83   -1.8556 
        82   -1.6161 
        76   -1.5602 
        68   -1.8227 
        83   -1.6775 
        82   -3.3915 
        66   -2.9026 
        65   -3.5568 
        67   -3.4701 
        86   -1.3935 
        82   -3.5178 
        81    0.0003 
        70   -3.5051 
        81   -3.5031 
        80    0.0002 
        70   -1.8413 
        71   -1.6328 
        79   -3.4871 
        79   -1.5619 
        78   -1.9126 
        79   -3.5750 
        80   -1.6647 
        79   -1.8089 
        74   -2.8512 
        77   -2.8491 
        74   -0.0004 
        76    0.0001 
        75   -1.7138 
        10   -1.7609 
        80   -0.0000 
        71   -3.5576 
        74   -2.9063 
        67   -1.6716 
        66   -1.8010 
        68   -3.4792 
        81   -1.6601 
        82   -1.8130 
        80   -3.5593 
        75   -1.0931 
        76   -2.8813 
        67   -3.3925 
        75   -1.2587 
        74   -2.3424 
        75   -1.1324 
        73   -1.7585 
        78   -0.0006 
        72   -1.7382 
        73   -1.7360 
        77   -0.9142 
        78   -0.7784 
        72   -3.4878 
        79   -0.0004 
        10   -1.7114 
        76   -3.4745 
        74   -2.2174 
        75    2.2173 
        75   -1.6853 
        74   -0.0006 
        76   -1.2570 
        77   -2.2156 
        81    0.0004 
        69   -1.8744 
        70   -1.6006 
        83   -3.4410 
        68   -1.6705 
        67   -1.8026 
        85   -2.8639 
        66    0.0002 
        66   -2.8646 
        84   -3.4721 
        66   -1.7401 
        67    1.7401 
        66   -2.2419 
        65   -1.2313 
        85   -3.4727 
        65   -1.1321 
        66    1.1325 
        79   -1.7180 
        80    1.7169 
        71   -3.4707 
        78   -2.8125 
        67    0.0009 
        83   -1.6490 
        84   -1.8224 
        84   -3.3914 
        67    0.0003 
        74   -0.6192 
        78   -1.6737 
        80   -3.5565 
        81    1.6305 
        70   -3.4697 
        80   -1.6311 
        72   -1.7185 
        79   -0.0007 
        71   -1.7555 
        78   -1.7359 
        79    1.7353 
        72   -3.4721 
        80   -1.7221 
        81   -1.7509 
        81   -3.5358 
        65   -1.4204 
        82    1.5970 
        69   -3.4690 
        81   -1.5979 
        69   -1.6805 
        82    0.0008 
        68   -1.7947 
        82   -1.6767 
        83    1.6765 
        68   -3.4690 
        83   -3.4701 
        67   -1.8211 
        68    1.8194 
        69   -3.3927 
        82    0.0005 
        86   -1.1330 
        65    0.0009 
        85   -2.3391 
        86   -1.8090 
        86   -1.5611 
         5   -1.2671 
        65   -0.6408 
        86   -2.3232 
        65   -1.2869 
         5   -2.2040 
         6   -3.4722 
        86    0.0044 
         5   -0.0007 
        66    0.0009 
        84   -1.7308 
        85   -1.7409 
