<?xml version="1.0" encoding="UTF-8" standalone="no"?>
<!-- Created with Inkscape (http://www.inkscape.org/) -->

<svg
   xmlns:dc="http://purl.org/dc/elements/1.1/"
   xmlns:cc="http://creativecommons.org/ns#"
   xmlns:rdf="http://www.w3.org/1999/02/22-rdf-syntax-ns#"
   xmlns:svg="http://www.w3.org/2000/svg"
   xmlns="http://www.w3.org/2000/svg"
   xmlns:sodipodi="http://sodipodi.sourceforge.net/DTD/sodipodi-0.dtd"
   xmlns:inkscape="http://www.inkscape.org/namespaces/inkscape"
   width="69.629189mm"
   height="36.5159mm"
   viewBox="0 0 69.629189 36.5159"
   version="1.1"
   id="svg8"
   inkscape:version="0.92.1 unknown"
   sodipodi:docname="geometry.svg">
  <defs
     id="defs2">
    <marker
       id="marker8315"
       inkscape:isstock="true"
       inkscape:stockid="Arrow2Send"
       orient="auto"
       refX="0"
       refY="0"
       style="overflow:visible">
      <path
         d="M 8.72,4.03 -2.21,0.02 8.72,-4 c -1.75,2.37 -1.74,5.62 0,8.03 z"
         id="path8313"
         style="fill:#000000;fill-opacity:1;stroke:#000000;stroke-opacity:1"
         transform="matrix(-0.3,0,0,-0.3,0.69,0)"
         inkscape:connector-curvature="0" />
    </marker>
    <marker
       id="marker8221"
       inkscape:isstock="true"
       inkscape:stockid="Arrow2Sstart"
       orient="auto"
       refX="0"
       refY="0"
       style="overflow:visible">
      <path
         d="M 8.72,4.03 -2.21,0.02 8.72,-4 c -1.75,2.37 -1.74,5.62 0,8.03 z"
         id="path8219"
         style="fill:#000000;fill-opacity:1;stroke:#000000;stroke-opacity:1"
         transform="matrix(0.3,0,0,0.3,-0.69,0)"
         inkscape:connector-curvature="0" />
    </marker>
    <marker
       style="overflow:visible"
       refY="0"
       refX="0"
       orient="auto"
       inkscape:stockid="Arrow2Send"
       inkscape:isstock="true"
       id="marker8097">
      <path
         inkscape:connector-curvature="0"
         transform="matrix(-0.3,0,0,-0.3,0.69,0)"
         style="fill:#000000;fill-opacity:1;stroke:#000000;stroke-opacity:1"
         id="path8095"
         d="M 8.72,4.03 -2.21,0.02 8.72,-4 c -1.75,2.37 -1.74,5.62 0,8.03 z" />
    </marker>
    <marker
       style="overflow:visible"
       refY="0"
       refX="0"
       orient="auto"
       inkscape:stockid="Arrow2Sstart"
       inkscape:isstock="true"
       id="marker8015">
      <path
         inkscape:connector-curvature="0"
         transform="matrix(0.3,0,0,0.3,-0.69,0)"
         style="fill:#000000;fill-opacity:1;stroke:#000000;stroke-opacity:1"
         id="path8013"
         d="M 8.72,4.03 -2.21,0.02 8.72,-4 c -1.75,2.37 -1.74,5.62 0,8.03 z" />
    </marker>
    <marker
       style="overflow:visible"
       refY="0"
       refX="0"
       orient="auto"
       inkscape:stockid="Arrow2Send"
       inkscape:isstock="true"
       id="marker7927">
      <path
         inkscape:connector-curvature="0"
         transform="matrix(-0.3,0,0,-0.3,0.69,0)"
         style="fill:#000000;fill-opacity:1;stroke:#000000;stroke-opacity:1"
         id="path7925"
         d="M 8.72,4.03 -2.21,0.02 8.72,-4 c -1.75,2.37 -1.74,5.62 0,8.03 z" />
    </marker>
    <marker
       style="overflow:visible"
       refY="0"
       refX="0"
       orient="auto"
       inkscape:stockid="Arrow2Sstart"
       inkscape:isstock="true"
       id="marker7857">
      <path
         inkscape:connector-curvature="0"
         transform="matrix(0.3,0,0,0.3,-0.69,0)"
         style="fill:#000000;fill-opacity:1;stroke:#000000;stroke-opacity:1"
         id="path7855"
         d="M 8.72,4.03 -2.21,0.02 8.72,-4 c -1.75,2.37 -1.74,5.62 0,8.03 z" />
    </marker>
    <marker
       inkscape:stockid="Arrow1Lend"
       orient="auto"
       refY="0"
       refX="0"
       id="Arrow1Lend"
       style="overflow:visible"
       inkscape:isstock="true">
      <path
         id="path7188"
         d="M 0,0 5,-5 -12.5,0 5,5 Z"
         style="fill:#000000;fill-opacity:1;fill-rule:evenodd;stroke:#000000;stroke-width:1.00000003pt;stroke-opacity:1"
         transform="matrix(-0.8,0,0,-0.8,-10,0)"
         inkscape:connector-curvature="0" />
    </marker>
    <marker
       style="overflow:visible"
       refY="0"
       refX="0"
       orient="auto"
       inkscape:stockid="Arrow2Send"
       inkscape:isstock="true"
       id="marker6119">
      <path
         inkscape:connector-curvature="0"
         transform="matrix(-0.3,0,0,-0.3,0.69,0)"
         style="fill:#000000;fill-opacity:1;stroke:#000000;stroke-opacity:1"
         id="path6117"
         d="M 8.72,4.03 -2.21,0.02 8.72,-4 c -1.75,2.37 -1.74,5.62 0,8.03 z" />
    </marker>
    <marker
       style="overflow:visible"
       refY="0"
       refX="0"
       orient="auto"
       inkscape:stockid="Arrow2Sstart"
       inkscape:isstock="true"
       id="marker6067">
      <path
         inkscape:connector-curvature="0"
         transform="matrix(0.3,0,0,0.3,-0.69,0)"
         style="fill:#000000;fill-opacity:1;stroke:#000000;stroke-opacity:1"
         id="path6065"
         d="M 8.72,4.03 -2.21,0.02 8.72,-4 c -1.75,2.37 -1.74,5.62 0,8.03 z" />
    </marker>
    <marker
       id="marker5107"
       inkscape:isstock="true"
       inkscape:stockid="Arrow2Send"
       orient="auto"
       refX="0"
       refY="0"
       style="overflow:visible"
       inkscape:collect="always">
      <path
         d="M 8.72,4.03 -2.21,0.02 8.72,-4 c -1.75,2.37 -1.74,5.62 0,8.03 z"
         id="path5105"
         style="fill:#000000;fill-opacity:1;stroke:#000000;stroke-opacity:1"
         transform="matrix(-0.3,0,0,-0.3,0.69,0)"
         inkscape:connector-curvature="0" />
    </marker>
    <marker
       id="marker5067"
       inkscape:isstock="true"
       inkscape:stockid="Arrow2Sstart"
       orient="auto"
       refX="0"
       refY="0"
       style="overflow:visible"
       inkscape:collect="always">
      <path
         d="M 8.72,4.03 -2.21,0.02 8.72,-4 c -1.75,2.37 -1.74,5.62 0,8.03 z"
         id="path5065"
         style="fill:#000000;fill-opacity:1;stroke:#000000;stroke-opacity:1"
         transform="matrix(0.3,0,0,0.3,-0.69,0)"
         inkscape:connector-curvature="0" />
    </marker>
    <marker
       style="overflow:visible"
       refY="0"
       refX="0"
       orient="auto"
       inkscape:stockid="Arrow2Send"
       inkscape:isstock="true"
       id="marker4607"
       inkscape:collect="always">
      <path
         inkscape:connector-curvature="0"
         transform="matrix(-0.3,0,0,-0.3,0.69,0)"
         style="fill:#000000;fill-opacity:1;stroke:#000000;stroke-opacity:1"
         id="path4605"
         d="M 8.72,4.03 -2.21,0.02 8.72,-4 c -1.75,2.37 -1.74,5.62 0,8.03 z" />
    </marker>
    <marker
       style="overflow:visible"
       refY="0"
       refX="0"
       orient="auto"
       inkscape:stockid="Arrow2Sstart"
       inkscape:isstock="true"
       id="marker4579"
       inkscape:collect="always">
      <path
         inkscape:connector-curvature="0"
         transform="matrix(0.3,0,0,0.3,-0.69,0)"
         style="fill:#000000;fill-opacity:1;stroke:#000000;stroke-opacity:1"
         id="path4577"
         d="M 8.72,4.03 -2.21,0.02 8.72,-4 c -1.75,2.37 -1.74,5.62 0,8.03 z" />
    </marker>
    <marker
       id="Arrow2Sstart"
       inkscape:isstock="true"
       inkscape:stockid="Arrow2Sstart"
       orient="auto"
       refX="0"
       refY="0"
       style="overflow:visible"
       inkscape:collect="always">
      <path
         d="M 8.72,4.03 -2.21,0.02 8.72,-4 c -1.75,2.37 -1.74,5.62 0,8.03 z"
         id="Arrow2SstartPath"
         style="fill:#000000;fill-opacity:1;stroke:#000000;stroke-opacity:1"
         transform="matrix(0.3,0,0,0.3,-0.69,0)"
         inkscape:connector-curvature="0" />
    </marker>
    <marker
       id="Arrow2Send"
       inkscape:isstock="true"
       inkscape:stockid="Arrow2Send"
       orient="auto"
       refX="0"
       refY="0"
       style="overflow:visible"
       inkscape:collect="always">
      <path
         d="M 8.72,4.03 -2.21,0.02 8.72,-4 c -1.75,2.37 -1.74,5.62 0,8.03 z"
         id="Arrow2SendPath"
         style="fill:#000000;fill-opacity:1;stroke:#000000;stroke-opacity:1"
         transform="matrix(-0.3,0,0,-0.3,0.69,0)"
         inkscape:connector-curvature="0" />
    </marker>
    <marker
       inkscape:stockid="Arrow1Lend"
       orient="auto"
       refY="0"
       refX="0"
       id="Arrow1Lend-0"
       style="overflow:visible"
       inkscape:isstock="true">
      <path
         id="path7188-7"
         d="M 0,0 5,-5 -12.5,0 5,5 Z"
         style="fill:#000000;fill-opacity:1;fill-rule:evenodd;stroke:#000000;stroke-width:1.00000003pt;stroke-opacity:1"
         transform="matrix(-0.8,0,0,-0.8,-10,0)"
         inkscape:connector-curvature="0" />
    </marker>
    <marker
       style="overflow:visible"
       refY="0"
       refX="0"
       orient="auto"
       inkscape:stockid="Arrow2Sstart"
       inkscape:isstock="true"
       id="marker6067-6">
      <path
         inkscape:connector-curvature="0"
         transform="matrix(0.3,0,0,0.3,-0.69,0)"
         style="fill:#000000;fill-opacity:1;stroke:#000000;stroke-opacity:1"
         id="path6065-3"
         d="M 8.72,4.03 -2.21,0.02 8.72,-4 c -1.75,2.37 -1.74,5.62 0,8.03 z" />
    </marker>
    <marker
       style="overflow:visible"
       refY="0"
       refX="0"
       orient="auto"
       inkscape:stockid="Arrow2Send"
       inkscape:isstock="true"
       id="marker6119-7">
      <path
         inkscape:connector-curvature="0"
         transform="matrix(-0.3,0,0,-0.3,0.69,0)"
         style="fill:#000000;fill-opacity:1;stroke:#000000;stroke-opacity:1"
         id="path6117-6"
         d="M 8.72,4.03 -2.21,0.02 8.72,-4 c -1.75,2.37 -1.74,5.62 0,8.03 z" />
    </marker>
  </defs>
  <sodipodi:namedview
     id="base"
     pagecolor="#ffffff"
     bordercolor="#666666"
     borderopacity="1.0"
     inkscape:pageopacity="0.0"
     inkscape:pageshadow="2"
     inkscape:zoom="1.4142136"
     inkscape:cx="107.19926"
     inkscape:cy="-85.799465"
     inkscape:document-units="mm"
     inkscape:current-layer="layer1"
     showgrid="false"
     inkscape:measure-start="-15.1087,916.013"
     inkscape:measure-end="213.838,916.013"
     fit-margin-top="0"
     fit-margin-left="0"
     fit-margin-right="0"
     fit-margin-bottom="0"
     inkscape:window-width="1280"
     inkscape:window-height="775"
     inkscape:window-x="0"
     inkscape:window-y="2"
     inkscape:window-maximized="1" />
  <metadata
     id="metadata5">
    <rdf:RDF>
      <cc:Work
         rdf:about="">
        <dc:format>image/svg+xml</dc:format>
        <dc:type
           rdf:resource="http://purl.org/dc/dcmitype/StillImage" />
        <dc:title />
      </cc:Work>
    </rdf:RDF>
  </metadata>
  <g
     inkscape:label="Capa 1"
     inkscape:groupmode="layer"
     id="layer1"
     transform="translate(-41.876142,-19.640275)">
    <path
       id="path4542"
       style="fill:none;fill-rule:evenodd;stroke:#000000;stroke-width:0.09550851px;stroke-linecap:butt;stroke-linejoin:miter;stroke-opacity:1"
       d="M 59.625878,23.043832 H 92.733472 M 43.332775,46.60942 59.625879,23.043832 76.44036,46.60942 Z m 33.107585,0 16.293112,-23.565588 16.814478,23.565588 z"
       inkscape:connector-curvature="0"
       inkscape:export-xdpi="120.05188"
       inkscape:export-ydpi="120.05188" />
    <path
       style="fill:none;stroke:#000000;stroke-width:0.14460832;stroke-linecap:square;stroke-linejoin:miter;stroke-miterlimit:4;stroke-dasharray:none;stroke-opacity:1;marker-start:url(#Arrow2Sstart);marker-end:url(#Arrow2Send)"
       d="m 44.055818,47.332463 h 31.6615"
       id="path4501"
       inkscape:connector-curvature="0"
       inkscape:export-xdpi="120.05188"
       inkscape:export-ydpi="120.05188" />
    <text
       id="text4557"
       y="50.033035"
       x="59.794662"
       style="font-style:normal;font-variant:normal;font-weight:normal;font-stretch:normal;font-size:3.03677845px;line-height:125%;font-family:'DejaVu Sans';-inkscape-font-specification:'DejaVu Sans';letter-spacing:0px;word-spacing:0px;fill:#000000;fill-opacity:1;stroke:none;stroke-width:0.21691275px;stroke-linecap:butt;stroke-linejoin:miter;stroke-opacity:1"
       xml:space="preserve"
       inkscape:export-xdpi="120.05188"
       inkscape:export-ydpi="120.05188"><tspan
         y="50.033035"
         x="59.794662"
         id="tspan4555"
         style="font-style:normal;font-weight:normal;font-size:2.89216995px;line-height:125%;text-align:center;letter-spacing:0;word-spacing:0;text-anchor:middle;fill:#000000;fill-opacity:1;stroke:none;stroke-width:0.21691275px"
         sodipodi:role="line">1m</tspan></text>
    <path
       inkscape:connector-curvature="0"
       id="path4571"
       d="M 77.212482,47.332463 H 108.87398"
       style="fill:none;stroke:#000000;stroke-width:0.14460832;stroke-linecap:square;stroke-linejoin:miter;stroke-miterlimit:4;stroke-dasharray:none;stroke-opacity:1;marker-start:url(#marker4579);marker-end:url(#marker4607)"
       inkscape:export-xdpi="120.05188"
       inkscape:export-ydpi="120.05188" />
    <text
       xml:space="preserve"
       style="font-style:normal;font-variant:normal;font-weight:normal;font-stretch:normal;font-size:3.03677845px;line-height:125%;font-family:'DejaVu Sans';-inkscape-font-specification:'DejaVu Sans';letter-spacing:0px;word-spacing:0px;fill:#000000;fill-opacity:1;stroke:none;stroke-width:0.21691275px;stroke-linecap:butt;stroke-linejoin:miter;stroke-opacity:1"
       x="93.04583"
       y="49.844048"
       id="text4575"
       inkscape:export-xdpi="120.05188"
       inkscape:export-ydpi="120.05188"><tspan
         sodipodi:role="line"
         style="font-style:normal;font-weight:normal;font-size:2.89216995px;line-height:125%;text-align:center;letter-spacing:0;word-spacing:0;text-anchor:middle;fill:#000000;fill-opacity:1;stroke:none;stroke-width:0.21691275px"
         id="tspan4573"
         x="93.04583"
         y="49.844048">1m</tspan></text>
    <path
       style="fill:none;stroke:#000000;stroke-width:0.14460832;stroke-linecap:square;stroke-linejoin:miter;stroke-miterlimit:4;stroke-dasharray:none;stroke-opacity:1;marker-start:url(#marker5067);marker-end:url(#marker5107)"
       d="M 60.582504,22.232558 H 92.244002"
       id="path5059"
       inkscape:connector-curvature="0"
       inkscape:export-xdpi="120.05188"
       inkscape:export-ydpi="120.05188" />
    <text
       id="text5063"
       y="21.748678"
       x="76.415848"
       style="font-style:normal;font-variant:normal;font-weight:normal;font-stretch:normal;font-size:3.03677845px;line-height:125%;font-family:'DejaVu Sans';-inkscape-font-specification:'DejaVu Sans';letter-spacing:0px;word-spacing:0px;fill:#000000;fill-opacity:1;stroke:none;stroke-width:0.21691275px;stroke-linecap:butt;stroke-linejoin:miter;stroke-opacity:1"
       xml:space="preserve"
       inkscape:export-xdpi="120.05188"
       inkscape:export-ydpi="120.05188"><tspan
         y="21.748678"
         x="76.415848"
         id="tspan5061"
         style="font-style:normal;font-weight:normal;font-size:2.89216995px;line-height:125%;text-align:center;letter-spacing:0;word-spacing:0;text-anchor:middle;fill:#000000;fill-opacity:1;stroke:none;stroke-width:0.21691275px"
         sodipodi:role="line">1m</tspan></text>
    <path
       inkscape:connector-curvature="0"
       id="path6063"
       d="M 42.669818,45.150836 57.683694,23.174684"
       style="fill:none;stroke:#000000;stroke-width:0.12156013;stroke-linecap:square;stroke-linejoin:miter;stroke-miterlimit:4;stroke-dasharray:none;stroke-opacity:1;marker-start:url(#marker6067);marker-end:url(#marker6119)"
       inkscape:export-xdpi="120.05188"
       inkscape:export-ydpi="120.05188" />
    <text
       xml:space="preserve"
       style="font-style:normal;font-variant:normal;font-weight:normal;font-stretch:normal;font-size:3.03677845px;line-height:125%;font-family:'DejaVu Sans';-inkscape-font-specification:'DejaVu Sans';letter-spacing:0px;word-spacing:0px;fill:#000000;fill-opacity:1;stroke:none;stroke-width:0.21691275px;stroke-linecap:butt;stroke-linejoin:miter;stroke-opacity:1"
       x="48.733643"
       y="32.594318"
       id="text7173"
       inkscape:export-xdpi="120.05188"
       inkscape:export-ydpi="120.05188"><tspan
         sodipodi:role="line"
         style="font-style:normal;font-weight:normal;font-size:2.89216995px;line-height:125%;text-align:center;letter-spacing:0;word-spacing:0;text-anchor:middle;fill:#000000;fill-opacity:1;stroke:none;stroke-width:0.21691275px"
         id="tspan7171"
         x="48.733643"
         y="32.594318">1m</tspan></text>
    <path
       style="fill:#999999;fill-rule:evenodd;stroke:none;stroke-width:0.1446085px;stroke-linecap:butt;stroke-linejoin:miter;stroke-opacity:1"
       d="m 43.332775,46.60942 -1.456633,2.522961 h 3.228311 z"
       id="path7175"
       inkscape:connector-curvature="0"
       inkscape:export-xdpi="120.05188"
       inkscape:export-ydpi="120.05188" />
    <circle
       style="color:#000000;display:inline;overflow:visible;visibility:visible;opacity:1;vector-effect:none;fill:#b3b3b3;fill-opacity:1;fill-rule:nonzero;stroke:none;stroke-width:0.0931199;stroke-linecap:butt;stroke-linejoin:miter;stroke-miterlimit:4;stroke-dasharray:none;stroke-dashoffset:0;stroke-opacity:1;marker:none;enable-background:accumulate"
       id="path7179"
       cx="109.54794"
       cy="46.609421"
       r="1.0693569"
       inkscape:export-xdpi="120.05188"
       inkscape:export-ydpi="120.05188" />
    <path
       style="fill:none;fill-rule:evenodd;stroke:#999999;stroke-width:1.09310365;stroke-linecap:butt;stroke-linejoin:miter;stroke-miterlimit:4;stroke-dasharray:none;stroke-opacity:1"
       d="m 111.50533,48.272034 h -3.7185"
       id="path7181"
       inkscape:connector-curvature="0"
       inkscape:export-xdpi="120.05188"
       inkscape:export-ydpi="120.05188" />
    <path
       style="fill:none;fill-rule:evenodd;stroke:#000000;stroke-width:0.1446085px;stroke-linecap:butt;stroke-linejoin:miter;stroke-opacity:1;marker-end:url(#Arrow1Lend)"
       d="m 76.44036,46.60942 v 7.893319"
       id="path7183"
       inkscape:connector-curvature="0"
       inkscape:export-xdpi="120.05188"
       inkscape:export-ydpi="120.05188" />
    <text
       xml:space="preserve"
       style="font-style:normal;font-variant:normal;font-weight:normal;font-stretch:normal;font-size:3.03677845px;line-height:125%;font-family:'DejaVu Sans';-inkscape-font-specification:'DejaVu Sans';letter-spacing:0px;word-spacing:0px;fill:#000000;fill-opacity:1;stroke:none;stroke-width:0.21691275px;stroke-linecap:butt;stroke-linejoin:miter;stroke-opacity:1"
       x="78.09063"
       y="56.113174"
       id="text7517"
       inkscape:export-xdpi="120.05188"
       inkscape:export-ydpi="120.05188"><tspan
         sodipodi:role="line"
         id="tspan7515"
         x="78.09063"
         y="56.113174"
         style="stroke-width:0.21691275px">1000 kN</tspan></text>
    <path
       inkscape:connector-curvature="0"
       d="M 59.625878,68.31929 H 92.733472 M 43.332775,91.884878 59.625879,68.31929 76.44036,91.884878 Z m 33.107585,0 16.293112,-23.565588 16.814478,23.565588 z"
       style="fill:none;fill-rule:evenodd;stroke:#000000;stroke-width:0.09550851px;stroke-linecap:butt;stroke-linejoin:miter;stroke-opacity:1"
       id="path7721"
       inkscape:export-xdpi="120.05188"
       inkscape:export-ydpi="120.05188" />
    <g
       id="g7765"
       transform="translate(12.534941,40.598242)"
       inkscape:export-xdpi="120.05188"
       inkscape:export-ydpi="120.05188">
      <circle
         style="color:#000000;display:inline;overflow:visible;visibility:visible;opacity:1;vector-effect:none;fill:none;fill-opacity:1;fill-rule:nonzero;stroke:#000000;stroke-width:0.5;stroke-linecap:butt;stroke-linejoin:miter;stroke-miterlimit:4;stroke-dasharray:none;stroke-dashoffset:0;stroke-opacity:1;marker:none;enable-background:accumulate"
         id="circle7759"
         cx="37.696629"
         cy="47.949509"
         r="2.5513394" />
      <text
         xml:space="preserve"
         style="font-style:normal;font-variant:normal;font-weight:normal;font-stretch:normal;font-size:3.70416665px;line-height:125%;font-family:'DejaVu Sans';-inkscape-font-specification:'DejaVu Sans';letter-spacing:0px;word-spacing:0px;fill:#000000;fill-opacity:1;stroke:none;stroke-width:0.26458332px;stroke-linecap:butt;stroke-linejoin:miter;stroke-opacity:1"
         x="36.485722"
         y="49.299686"
         id="text7763"><tspan
           sodipodi:role="line"
           id="tspan7761"
           x="36.485722"
           y="49.299686">0</tspan></text>
    </g>
    <g
       transform="translate(0.56126601,47.146345)"
       id="g7773"
       inkscape:export-xdpi="120.05188"
       inkscape:export-ydpi="120.05188">
      <circle
         r="2.5513394"
         cy="41.401405"
         cx="76.423981"
         id="circle7767"
         style="color:#000000;display:inline;overflow:visible;visibility:visible;opacity:1;vector-effect:none;fill:none;fill-opacity:1;fill-rule:nonzero;stroke:#000000;stroke-width:0.5;stroke-linecap:butt;stroke-linejoin:miter;stroke-miterlimit:4;stroke-dasharray:none;stroke-dashoffset:0;stroke-opacity:1;marker:none;enable-background:accumulate" />
      <text
         id="text7771"
         y="42.751583"
         x="75.213074"
         style="font-style:normal;font-variant:normal;font-weight:normal;font-stretch:normal;font-size:3.70416665px;line-height:125%;font-family:'DejaVu Sans';-inkscape-font-specification:'DejaVu Sans';letter-spacing:0px;word-spacing:0px;fill:#000000;fill-opacity:1;stroke:none;stroke-width:0.26458332px;stroke-linecap:butt;stroke-linejoin:miter;stroke-opacity:1"
         xml:space="preserve"><tspan
           y="42.751583"
           x="75.213074"
           id="tspan7769"
           sodipodi:role="line">1</tspan></text>
    </g>
    <g
       transform="translate(26.379502,47.146345)"
       id="g7781"
       inkscape:export-xdpi="120.05188"
       inkscape:export-ydpi="120.05188">
      <circle
         style="color:#000000;display:inline;overflow:visible;visibility:visible;opacity:1;vector-effect:none;fill:none;fill-opacity:1;fill-rule:nonzero;stroke:#000000;stroke-width:0.5;stroke-linecap:butt;stroke-linejoin:miter;stroke-miterlimit:4;stroke-dasharray:none;stroke-dashoffset:0;stroke-opacity:1;marker:none;enable-background:accumulate"
         id="circle7775"
         cx="76.423981"
         cy="41.401405"
         r="2.5513394" />
      <text
         xml:space="preserve"
         style="font-style:normal;font-variant:normal;font-weight:normal;font-stretch:normal;font-size:3.70416665px;line-height:125%;font-family:'DejaVu Sans';-inkscape-font-specification:'DejaVu Sans';letter-spacing:0px;word-spacing:0px;fill:#000000;fill-opacity:1;stroke:none;stroke-width:0.26458332px;stroke-linecap:butt;stroke-linejoin:miter;stroke-opacity:1"
         x="75.213074"
         y="42.751583"
         id="text7779"><tspan
           sodipodi:role="line"
           id="tspan7777"
           x="75.213074"
           y="42.751583">2</tspan></text>
    </g>
    <g
       transform="translate(-10.196333,30.027731)"
       id="g7789"
       inkscape:export-xdpi="120.05188"
       inkscape:export-ydpi="120.05188">
      <circle
         style="color:#000000;display:inline;overflow:visible;visibility:visible;opacity:1;vector-effect:none;fill:none;fill-opacity:1;fill-rule:nonzero;stroke:#000000;stroke-width:0.5;stroke-linecap:butt;stroke-linejoin:miter;stroke-miterlimit:4;stroke-dasharray:none;stroke-dashoffset:0;stroke-opacity:1;marker:none;enable-background:accumulate"
         id="circle7783"
         cx="76.423981"
         cy="41.401405"
         r="2.5513394" />
      <text
         xml:space="preserve"
         style="font-style:normal;font-variant:normal;font-weight:normal;font-stretch:normal;font-size:3.70416665px;line-height:125%;font-family:'DejaVu Sans';-inkscape-font-specification:'DejaVu Sans';letter-spacing:0px;word-spacing:0px;fill:#000000;fill-opacity:1;stroke:none;stroke-width:0.26458332px;stroke-linecap:butt;stroke-linejoin:miter;stroke-opacity:1"
         x="75.213074"
         y="42.751583"
         id="text7787"><tspan
           sodipodi:role="line"
           id="tspan7785"
           x="75.213074"
           y="42.751583">3</tspan></text>
    </g>
    <g
       id="g7797"
       transform="translate(9.8221552,30.495453)"
       inkscape:export-xdpi="120.05188"
       inkscape:export-ydpi="120.05188">
      <circle
         r="2.5513394"
         cy="41.401405"
         cx="76.423981"
         id="circle7791"
         style="color:#000000;display:inline;overflow:visible;visibility:visible;opacity:1;vector-effect:none;fill:none;fill-opacity:1;fill-rule:nonzero;stroke:#000000;stroke-width:0.5;stroke-linecap:butt;stroke-linejoin:miter;stroke-miterlimit:4;stroke-dasharray:none;stroke-dashoffset:0;stroke-opacity:1;marker:none;enable-background:accumulate" />
      <text
         id="text7795"
         y="42.751583"
         x="75.213074"
         style="font-style:normal;font-variant:normal;font-weight:normal;font-stretch:normal;font-size:3.70416665px;line-height:125%;font-family:'DejaVu Sans';-inkscape-font-specification:'DejaVu Sans';letter-spacing:0px;word-spacing:0px;fill:#000000;fill-opacity:1;stroke:none;stroke-width:0.26458332px;stroke-linecap:butt;stroke-linejoin:miter;stroke-opacity:1"
         xml:space="preserve"><tspan
           y="42.751583"
           x="75.213074"
           id="tspan7793"
           sodipodi:role="line">4</tspan></text>
    </g>
    <path
       id="path4542-1"
       style="fill:none;fill-rule:evenodd;stroke:#000000;stroke-width:0.09550851px;stroke-linecap:butt;stroke-linejoin:miter;stroke-opacity:1"
       d="m 58.847544,112.69096 h 33.107592 m -49.400695,23.56559 16.293104,-23.56559 16.814481,23.56559 z m 33.107585,0 16.29311,-23.56559 16.814484,23.56559 z"
       inkscape:connector-curvature="0"
       inkscape:export-xdpi="120.05188"
       inkscape:export-ydpi="120.05188" />
    <g
       id="g7671-2"
       transform="translate(2.3086282,91.705107)"
       inkscape:export-xdpi="120.05188"
       inkscape:export-ydpi="120.05188">
      <rect
         y="40.160095"
         x="53.849815"
         height="5.1449385"
         width="5.6126599"
         id="rect7658-2"
         style="color:#000000;display:inline;overflow:visible;visibility:visible;opacity:1;vector-effect:none;fill:none;fill-opacity:1;fill-rule:nonzero;stroke:#000000;stroke-width:0.5;stroke-linecap:butt;stroke-linejoin:miter;stroke-miterlimit:4;stroke-dasharray:none;stroke-dashoffset:0;stroke-opacity:1;marker:none;enable-background:accumulate" />
      <text
         id="text7666-4"
         y="44.082741"
         x="55.445236"
         style="font-style:normal;font-variant:normal;font-weight:normal;font-stretch:normal;font-size:3.70416665px;line-height:125%;font-family:'DejaVu Sans';-inkscape-font-specification:'DejaVu Sans';letter-spacing:0px;word-spacing:0px;fill:#000000;fill-opacity:1;stroke:none;stroke-width:0.26458332px;stroke-linecap:butt;stroke-linejoin:miter;stroke-opacity:1"
         xml:space="preserve"><tspan
           style="stroke-width:0.26458332px"
           y="44.082741"
           x="55.445236"
           id="tspan7664-5"
           sodipodi:role="line">0</tspan></text>
    </g>
    <g
       id="g7679-1"
       transform="translate(36.171678,91.798651)"
       inkscape:export-xdpi="120.05188"
       inkscape:export-ydpi="120.05188">
      <rect
         style="color:#000000;display:inline;overflow:visible;visibility:visible;opacity:1;vector-effect:none;fill:none;fill-opacity:1;fill-rule:nonzero;stroke:#000000;stroke-width:0.5;stroke-linecap:butt;stroke-linejoin:miter;stroke-miterlimit:4;stroke-dasharray:none;stroke-dashoffset:0;stroke-opacity:1;marker:none;enable-background:accumulate"
         id="rect7673-7"
         width="5.6126599"
         height="5.1449385"
         x="53.849815"
         y="40.160095" />
      <text
         xml:space="preserve"
         style="font-style:normal;font-variant:normal;font-weight:normal;font-stretch:normal;font-size:3.70416665px;line-height:125%;font-family:'DejaVu Sans';-inkscape-font-specification:'DejaVu Sans';letter-spacing:0px;word-spacing:0px;fill:#000000;fill-opacity:1;stroke:none;stroke-width:0.26458332px;stroke-linecap:butt;stroke-linejoin:miter;stroke-opacity:1"
         x="55.445236"
         y="44.082741"
         id="text7677-5"><tspan
           sodipodi:role="line"
           id="tspan7675-7"
           x="55.445236"
           y="44.082741"
           style="stroke-width:0.26458332px">1</tspan></text>
    </g>
    <g
       transform="translate(-2.2750453,81.321688)"
       id="g7687-1"
       inkscape:export-xdpi="120.05188"
       inkscape:export-ydpi="120.05188">
      <rect
         y="40.160095"
         x="53.849815"
         height="5.1449385"
         width="5.6126599"
         id="rect7681-6"
         style="color:#000000;display:inline;overflow:visible;visibility:visible;opacity:1;vector-effect:none;fill:none;fill-opacity:1;fill-rule:nonzero;stroke:#000000;stroke-width:0.5;stroke-linecap:butt;stroke-linejoin:miter;stroke-miterlimit:4;stroke-dasharray:none;stroke-dashoffset:0;stroke-opacity:1;marker:none;enable-background:accumulate" />
      <text
         id="text7685-9"
         y="44.082741"
         x="55.445236"
         style="font-style:normal;font-variant:normal;font-weight:normal;font-stretch:normal;font-size:3.70416665px;line-height:125%;font-family:'DejaVu Sans';-inkscape-font-specification:'DejaVu Sans';letter-spacing:0px;word-spacing:0px;fill:#000000;fill-opacity:1;stroke:none;stroke-width:0.26458332px;stroke-linecap:butt;stroke-linejoin:miter;stroke-opacity:1"
         xml:space="preserve"><tspan
           style="stroke-width:0.26458332px"
           y="44.082741"
           x="55.445236"
           id="tspan7683-8"
           sodipodi:role="line">2</tspan></text>
    </g>
    <g
       id="g7695-1"
       transform="translate(13.440403,81.321688)"
       inkscape:export-xdpi="120.05188"
       inkscape:export-ydpi="120.05188">
      <rect
         style="color:#000000;display:inline;overflow:visible;visibility:visible;opacity:1;vector-effect:none;fill:none;fill-opacity:1;fill-rule:nonzero;stroke:#000000;stroke-width:0.5;stroke-linecap:butt;stroke-linejoin:miter;stroke-miterlimit:4;stroke-dasharray:none;stroke-dashoffset:0;stroke-opacity:1;marker:none;enable-background:accumulate"
         id="rect7689-3"
         width="5.6126599"
         height="5.1449385"
         x="53.849815"
         y="40.160095" />
      <text
         xml:space="preserve"
         style="font-style:normal;font-variant:normal;font-weight:normal;font-stretch:normal;font-size:3.70416665px;line-height:125%;font-family:'DejaVu Sans';-inkscape-font-specification:'DejaVu Sans';letter-spacing:0px;word-spacing:0px;fill:#000000;fill-opacity:1;stroke:none;stroke-width:0.26458332px;stroke-linecap:butt;stroke-linejoin:miter;stroke-opacity:1"
         x="55.445236"
         y="44.082741"
         id="text7693-3"><tspan
           sodipodi:role="line"
           id="tspan7691-3"
           x="55.445236"
           y="44.082741"
           style="stroke-width:0.26458332px">3</tspan></text>
    </g>
    <g
       transform="translate(24.665725,81.321688)"
       id="g7703-7"
       inkscape:export-xdpi="120.05188"
       inkscape:export-ydpi="120.05188">
      <rect
         y="40.160095"
         x="53.849815"
         height="5.1449385"
         width="5.6126599"
         id="rect7697-9"
         style="color:#000000;display:inline;overflow:visible;visibility:visible;opacity:1;vector-effect:none;fill:none;fill-opacity:1;fill-rule:nonzero;stroke:#000000;stroke-width:0.5;stroke-linecap:butt;stroke-linejoin:miter;stroke-miterlimit:4;stroke-dasharray:none;stroke-dashoffset:0;stroke-opacity:1;marker:none;enable-background:accumulate" />
      <text
         id="text7701-8"
         y="44.082741"
         x="55.445236"
         style="font-style:normal;font-variant:normal;font-weight:normal;font-stretch:normal;font-size:3.70416665px;line-height:125%;font-family:'DejaVu Sans';-inkscape-font-specification:'DejaVu Sans';letter-spacing:0px;word-spacing:0px;fill:#000000;fill-opacity:1;stroke:none;stroke-width:0.26458332px;stroke-linecap:butt;stroke-linejoin:miter;stroke-opacity:1"
         xml:space="preserve"><tspan
           style="stroke-width:0.26458332px"
           y="44.082741"
           x="55.445236"
           id="tspan7699-6"
           sodipodi:role="line">4</tspan></text>
    </g>
    <g
       id="g7711-7"
       transform="translate(39.913452,81.321688)"
       inkscape:export-xdpi="120.05188"
       inkscape:export-ydpi="120.05188">
      <rect
         style="color:#000000;display:inline;overflow:visible;visibility:visible;opacity:1;vector-effect:none;fill:none;fill-opacity:1;fill-rule:nonzero;stroke:#000000;stroke-width:0.5;stroke-linecap:butt;stroke-linejoin:miter;stroke-miterlimit:4;stroke-dasharray:none;stroke-dashoffset:0;stroke-opacity:1;marker:none;enable-background:accumulate"
         id="rect7705-0"
         width="5.6126599"
         height="5.1449385"
         x="53.849815"
         y="40.160095" />
      <text
         xml:space="preserve"
         style="font-style:normal;font-variant:normal;font-weight:normal;font-stretch:normal;font-size:3.70416665px;line-height:125%;font-family:'DejaVu Sans';-inkscape-font-specification:'DejaVu Sans';letter-spacing:0px;word-spacing:0px;fill:#000000;fill-opacity:1;stroke:none;stroke-width:0.26458332px;stroke-linecap:butt;stroke-linejoin:miter;stroke-opacity:1"
         x="55.445236"
         y="44.082741"
         id="text7709-4"><tspan
           sodipodi:role="line"
           id="tspan7707-8"
           x="55.445236"
           y="44.082741"
           style="stroke-width:0.26458332px">5</tspan></text>
    </g>
    <g
       transform="translate(20.020608,71.782918)"
       id="g7719-4"
       inkscape:export-xdpi="120.05188"
       inkscape:export-ydpi="120.05188">
      <rect
         y="40.160095"
         x="53.849815"
         height="5.1449385"
         width="5.6126599"
         id="rect7713-8"
         style="color:#000000;display:inline;overflow:visible;visibility:visible;opacity:1;vector-effect:none;fill:none;fill-opacity:1;fill-rule:nonzero;stroke:#000000;stroke-width:0.5;stroke-linecap:butt;stroke-linejoin:miter;stroke-miterlimit:4;stroke-dasharray:none;stroke-dashoffset:0;stroke-opacity:1;marker:none;enable-background:accumulate" />
      <text
         id="text7717-1"
         y="44.082741"
         x="55.445236"
         style="font-style:normal;font-variant:normal;font-weight:normal;font-stretch:normal;font-size:3.70416665px;line-height:125%;font-family:'DejaVu Sans';-inkscape-font-specification:'DejaVu Sans';letter-spacing:0px;word-spacing:0px;fill:#000000;fill-opacity:1;stroke:none;stroke-width:0.26458332px;stroke-linecap:butt;stroke-linejoin:miter;stroke-opacity:1"
         xml:space="preserve"><tspan
           style="stroke-width:0.26458332px"
           y="44.082741"
           x="55.445236"
           id="tspan7715-6"
           sodipodi:role="line">6</tspan></text>
    </g>
  </g>
</svg>
