node_number,NFORCE_value
       86,-9.452e-04,-6.213e-03,-1.180e-02
        9,-1.074e-15, 1.178e-03, 4.904e-03
      401,-5.375e-04, 5.605e-03,-1.229e-02
      175, 4.911e-04,-8.535e-04, 4.523e-03
      401,-9.084e-04,-6.656e-03,-1.271e-02
      175,-4.911e-04, 8.535e-04, 5.191e-03
      167, 3.239e-05, 5.187e-03,-1.469e-02
       19, 2.229e-16, 8.120e-15, 4.108e-03
       87,-7.818e-03,-4.578e-03,-5.829e-02
       86, 9.452e-04, 3.864e-03,-8.568e-03
      402,-8.535e-03, 4.790e-03,-5.864e-02
      401, 7.849e-04,-3.986e-03,-8.802e-03
      402,-7.005e-03,-3.565e-03,-6.093e-02
      401, 6.610e-04, 5.037e-03,-9.023e-03
      168,-8.470e-03, 4.108e-03,-6.201e-02
      167,-3.239e-05,-5.187e-03,-9.532e-03
       88,-1.418e-02,-1.864e-03,-8.898e-02
       87, 7.818e-03, 4.426e-03,-3.721e-02
      403,-1.496e-02, 2.086e-03,-8.935e-02
      402, 7.479e-03,-4.727e-03,-3.767e-02
      403,-1.428e-02,-2.318e-03,-8.967e-02
      402, 8.061e-03, 3.502e-03,-3.704e-02
      169,-1.596e-02, 2.259e-03,-9.105e-02
      168, 8.470e-03,-4.108e-03,-3.895e-02
       10,-1.744e-02,-3.163e-04,-8.918e-02
       88, 1.418e-02, 1.891e-03,-6.814e-02
      176,-1.779e-02, 2.077e-04,-8.964e-02
      403, 1.475e-02,-1.912e-03,-6.870e-02
      176,-1.777e-02,-2.077e-04,-8.974e-02
      403, 1.449e-02, 2.145e-03,-6.837e-02
       20,-1.898e-02,-3.231e-16,-9.117e-02
      169, 1.596e-02,-2.259e-03,-6.996e-02
