strain,stress
0.006599999999999939,0.447
0.00934999999999997,0.605
0.015220000000000011,0.711
0.01924999999999999,1.0
0.023460000000000036,1.368
0.02639999999999998,1.342
0.033360000000000056,2.0
0.03757999999999995,2.263
0.042159999999999975,2.763
0.04583000000000004,2.789
0.049490000000000034,3.105
0.052240000000000064,3.579
0.057190000000000074,3.763
0.06085000000000007,4.447
0.06763000000000008,5.026
0.07221000000000011,5.421
0.07916999999999996,6.316
0.08393000000000006,6.868
0.08888000000000007,7.447
0.09145000000000003,7.553
0.0980399999999999,8.289
0.1020700000000001,8.842
0.10756999999999994,9.289
0.11288000000000009,9.816
0.1160000000000001,10.368
0.12075999999999998,10.842
0.12589000000000006,11.368
0.13413000000000008,12.421
0.13962999999999992,12.763
0.1476900000000001,13.816
0.1526400000000001,14.289
0.15739999999999998,14.868
0.16198,15.184
0.16582999999999992,15.421
0.16637999999999997,15.974
0.1702300000000001,16.053
0.1748099999999999,16.447
0.18012000000000006,17.237
0.18232000000000004,17.132
0.18653000000000008,17.921
0.19185000000000008,17.895
0.19385999999999992,18.684
0.19588000000000005,18.816
0.1982600000000001,19.0
0.20412000000000008,19.579
0.2068700000000001,20.079
0.21199999999999997,20.553
0.2154799999999999,20.579
0.2222599999999999,21.395
0.22592999999999996,21.816
0.2349000000000001,22.763
0.24002999999999997,23.368
0.2488300000000001,24.237
0.25395999999999996,24.526
0.2583599999999999,24.842
0.26221000000000005,24.921
0.26770000000000005,26.184
0.2713699999999999,26.053
0.27869999999999995,26.605
0.28052999999999995,26.947
0.29061000000000003,27.789
0.29574999999999996,27.5
0.30033,28.342
0.30491,28.368
0.3149900000000001,29.158
0.3225100000000001,29.711
0.32508000000000004,29.553
0.33094,30.105
0.33589,30.105
0.3419399999999999,30.579
0.34524,30.868
0.35477000000000003,31.395
0.36356999999999995,31.763
0.36779000000000006,31.868
0.37860000000000005,32.868
0.38283,31.921
0.39073,30.553
0.39574,25.079
0.397,9.263
0.40093,2.447
