x,Curve1
0.1955,64.57
0.4111,114.53
0.5549,164.49
0.7706,214.46
1.0581,262.42
1.2737,312.38
1.5613,362.35
1.9207,410.31
2.352,458.28
3.0708,504.24
4.2928,542.21
5.8742,564.2
7.5994,578.19
9.3246,588.18
11.0497,594.18
12.7749,600.17
14.572,602.17
16.369,604.17
18.0942,606.17
19.8913,608.16
21.6883,608.16
23.4854,606.17
25.2824,602.17
27.0076,598.17
28.6609,584.18
29.8829,554.2
30.2717,518.71
30.3395,503.55
