# dP/dx = 0.00000
# nu = 1.00000, H = 1.00000, Re = 1.00000 → U_p = 1.00000
y 	"Exact (Re=1, $\frac{dP}{dx}=0$)" 	"Numer (Re=1, $\frac{dP}{dx}=0$)"
0.00000	0.00000	0.00000
0.05000	0.05000	0.04999
0.10000	0.10000	0.09999
0.15000	0.15000	0.14999
0.20000	0.20000	0.19998
0.25000	0.25000	0.24998
0.30000	0.30000	0.29998
0.35000	0.35000	0.34997
0.40000	0.40000	0.39997
0.45000	0.45000	0.44997
0.50000	0.50000	0.49997
0.55000	0.55000	0.54997
0.60000	0.60000	0.59997
0.65000	0.65000	0.64997
0.70000	0.70000	0.69998
0.75000	0.75000	0.74998
0.80000	0.80000	0.79998
0.85000	0.85000	0.84998
0.90000	0.90000	0.89999
0.95000	0.95000	0.94999
1.00000	1.00000	1.00000
