Re=10, $\frac{dP}{dx}=-2$)
"y"	"Exact"	"Numer" 
0.00000	0.00000	0.00000
0.05000	0.52500	0.52498
0.10000	1.00000	0.99995
0.15000	1.42500	1.42493
0.20000	1.80000	1.79991
0.25000	2.12500	2.12489
0.30000	2.40000	2.39987
0.35000	2.62500	2.62486
0.40000	2.80000	2.79985
0.45000	2.92500	2.92484
0.50000	3.00000	2.99984
0.55000	3.02500	3.02484
0.60000	3.00000	2.99985
0.65000	2.92500	2.92486
0.70000	2.80000	2.79987
0.75000	2.62500	2.62489
0.80000	2.40000	2.39991
0.85000	2.12500	2.12493
0.90000	1.80000	1.79995
0.95000	1.42500	1.42498
1.00000	1.00000	1.00000
