*Heading
 Concentrated force analysis
** Job name: concentratedForce Model name: Model-1
** Generated by: Abaqus/CAE 2016
*Preprint, echo=NO, model=NO, history=NO, contact=NO
**
** PARTS
**
*Part, name=Part-1
*Node
      1,           0., -0.00249999994
      2, 0.0149999997, -0.00249999994
      3, 0.0299999993, -0.00249999994
      4, 0.0450000018, -0.00249999994
      5, 0.0599999987, -0.00249999994
      6,  0.075000003, -0.00249999994
      7, 0.0900000036, -0.00249999994
      8,  0.104999997, -0.00249999994
      9,  0.119999997, -0.00249999994
     10,  0.135000005, -0.00249999994
     11,  0.150000006, -0.00249999994
     12,           0., 0.00249999994
     13, 0.0149999997, 0.00249999994
     14, 0.0299999993, 0.00249999994
     15, 0.0450000018, 0.00249999994
     16, 0.0599999987, 0.00249999994
     17,  0.075000003, 0.00249999994
     18, 0.0900000036, 0.00249999994
     19,  0.104999997, 0.00249999994
     20,  0.119999997, 0.00249999994
     21,  0.135000005, 0.00249999994
     22,  0.150000006, 0.00249999994
*Element, type=CPS3
 1,  1,  2, 13
 2, 13, 12,  1
 3,  2,  3, 14
 4, 14, 13,  2
 5,  3,  4, 15
 6, 15, 14,  3
 7,  4,  5, 16
 8, 16, 15,  4
 9,  5,  6, 17
10, 17, 16,  5
11,  6,  7, 18
12, 18, 17,  6
13,  7,  8, 19
14, 19, 18,  7
15,  8,  9, 20
16, 20, 19,  8
17,  9, 10, 21
18, 21, 20,  9
19, 10, 11, 22
20, 22, 21, 10
*Nset, nset=Set-1, generate
  1,  22,   1
*Elset, elset=Set-1, generate
  1,  20,   1
*Nset, nset="Edge Seeds-1", generate
  1,  22,   1
*Elset, elset="Edge Seeds-1", generate
  1,  20,   1
** Section: Section-1
*Solid Section, elset=Set-1, material=Material-1
1.,
*End Part
**  
**
** ASSEMBLY
**
*Assembly, name=Assembly
**  
*Instance, name=Part-1-1, part=Part-1
*End Instance
**  
*Nset, nset=Set-1, instance=Part-1-1
  1, 12
*Elset, elset=Set-1, instance=Part-1-1
 2,
*Nset, nset=Set-2, instance=Part-1-1
 11,
*End Assembly
** 
** MATERIALS
** 
*Material, name=Material-1
*Elastic
 6e+10, 0.4
** 
** BOUNDARY CONDITIONS
** 
** Name: BC-1 Type: Symmetry/Antisymmetry/Encastre
*Boundary
Set-1, ENCASTRE
** ----------------------------------------------------------------
** 
** STEP: Step-1
** 
*Step, name=Step-1, nlgeom=NO
*Static
1., 1., 1e-05, 1.
** 
** LOADS
** 
** Name: Load-1   Type: Concentrated force
*Cload
Set-2, 2, -10.
** 
** OUTPUT REQUESTS
** 
*Restart, write, frequency=0
** 
** FIELD OUTPUT: F-Output-1
** 
*Output, field
*Node Output
CF, RF, U
*Element Output, directions=YES
BF, E, ER, LE, PE, S, PEEQ
** 
** HISTORY OUTPUT: H-Output-1
** 
*Output, history, variable=PRESELECT
*End Step
