********************************************************************************
Field Output Report, written Wed Sep 20 14:32:58 2017

Source 1
---------

   ODB: E:/Class/FEA/Hw/Hw2/cantilever200QElements.odb
   Step: Step-1
   Frame: Increment      1: Step Time =    1.000

Loc 1 : Nodal values from source 1

Output sorted by column "Node Label".

Field Output reported at nodes for part: PART-1-1
   Computation algorithm: EXTRAPOLATE_COMPUTE_AVERAGE
   Averaged at nodes
   Averaging regions: ODB_REGIONS

      Node Label            U.U1            U.U2           E.E11           E.E22           E.E12           S.S11           S.S22           S.S12
                          @Loc 1          @Loc 1          @Loc 1          @Loc 1          @Loc 1          @Loc 1          @Loc 1          @Loc 1
-------------------------------------------------------------------------------------------------------------------------------------------------
               1   -1.99537E-034   -5.05855E-035   -1.94840E-003    5.32520E-004   -2.81399E-004   -1.23956E+008   -1.76313E+007   -6.02999E+006
               2   -5.72111E-006   -4.01101E-006   -2.02068E-003    8.36591E-004    7.98961E-005   -1.20431E+008    2.02291E+006    1.71206E+006
               3   -1.13661E-005   -1.42256E-005   -1.99594E-003    8.08456E-004    1.96643E-006   -1.19468E+008    7.20040E+005    4.21378E+004
               4   -1.68971E-005   -3.11652E-005   -1.95323E-003    7.91546E-004    3.40931E-006   -1.16901E+008    7.32470E+005    7.30565E+004
               5   -2.23109E-005   -5.46731E-005   -1.91158E-003    7.74665E-004    3.26268E-006   -1.14408E+008    7.16754E+005    6.99145E+004
               6   -2.76083E-005   -8.46098E-005   -1.86996E-003    7.57796E-004    3.04363E-006   -1.11917E+008    7.00802E+005    6.52206E+004
               7   -3.27892E-005   -1.20836E-004   -1.82834E-003    7.40924E-004    2.83968E-006   -1.09426E+008    6.85010E+005    6.08503E+004
               8   -3.78536E-005   -1.63211E-004   -1.78671E-003    7.24053E-004    2.63767E-006   -1.06935E+008    6.69229E+005    5.65214E+004
               9   -4.28016E-005   -2.11596E-004   -1.74508E-003    7.07182E-004    2.43475E-006   -1.04444E+008    6.53432E+005    5.21731E+004
              10   -4.76331E-005   -2.65851E-004   -1.70346E-003    6.90310E-004    2.23266E-006   -1.01952E+008    6.37649E+005    4.78427E+004
              11   -5.23481E-005   -3.25836E-004   -1.66183E-003    6.73439E-004    2.03009E-006   -9.94612E+007    6.21860E+005    4.35019E+004
              12   -5.69466E-005   -3.91412E-004   -1.62021E-003    6.56567E-004    1.82742E-006   -9.69699E+007    6.06067E+005    3.91591E+004
              13   -6.14287E-005   -4.62438E-004   -1.57858E-003    6.39696E-004    1.62516E-006   -9.44787E+007    5.90282E+005    3.48248E+004
              14   -6.57944E-005   -5.38775E-004   -1.53695E-003    6.22824E-004    1.42225E-006   -9.19874E+007    5.74485E+005    3.04769E+004
              15   -7.00435E-005   -6.20284E-004   -1.49533E-003    6.05953E-004    1.21987E-006   -8.94962E+007    5.58697E+005    2.61401E+004
              16   -7.41762E-005   -7.06823E-004   -1.45370E-003    5.89081E-004    1.01779E-006   -8.70049E+007    5.42914E+005    2.18097E+004
              17   -7.81924E-005   -7.98255E-004   -1.41208E-003    5.72210E-004    8.15124E-007   -8.45137E+007    5.27122E+005    1.74670E+004
              18   -8.20922E-005   -8.94438E-004   -1.37045E-003    5.55339E-004    6.12685E-007   -8.20224E+007    5.11335E+005    1.31289E+004
              19   -8.58755E-005   -9.95233E-004   -1.32882E-003    5.38467E-004    4.09847E-007   -7.95312E+007    4.95540E+005    8.78250E+003
              20   -8.95423E-005   -1.10050E-003   -1.28720E-003    5.21596E-004    2.07582E-007   -7.70400E+007    4.79753E+005    4.44817E+003
              21   -9.30927E-005   -1.21010E-003   -1.24557E-003    5.04724E-004    5.01920E-009   -7.45487E+007    4.63963E+005    1.07521E+002
              22   -9.65266E-005   -1.32389E-003   -1.20395E-003    4.87853E-004   -1.97014E-007   -7.20575E+007    4.48182E+005   -4.22180E+003
              23   -9.98440E-005   -1.44174E-003   -1.16232E-003    4.70981E-004   -4.00425E-007   -6.95663E+007    4.32376E+005   -8.58055E+003
              24   -1.03045E-004   -1.56350E-003   -1.12069E-003    4.54110E-004   -6.01776E-007   -6.70750E+007    4.16606E+005   -1.28952E+004
              25   -1.06129E-004   -1.68903E-003   -1.07907E-003    4.37238E-004   -8.05288E-007   -6.45838E+007    4.00801E+005   -1.72562E+004
              26   -1.09097E-004   -1.81820E-003   -1.03744E-003    4.20367E-004   -1.00753E-006   -6.20925E+007    3.85014E+005   -2.15900E+004
              27   -1.11949E-004   -1.95086E-003   -9.95816E-004    4.03496E-004   -1.20936E-006   -5.96013E+007    3.69236E+005   -2.59148E+004
              28   -1.14684E-004   -2.08687E-003   -9.54190E-004    3.86624E-004   -1.41278E-006   -5.71100E+007    3.53431E+005   -3.02738E+004
              29   -1.17303E-004   -2.22610E-003   -9.12564E-004    3.69753E-004   -1.61434E-006   -5.46188E+007    3.37657E+005   -3.45930E+004
              30   -1.19805E-004   -2.36841E-003   -8.70938E-004    3.52881E-004   -1.81766E-006   -5.21276E+007    3.21856E+005   -3.89499E+004
              31   -1.22191E-004   -2.51365E-003   -8.29312E-004    3.36010E-004   -2.01995E-006   -4.96363E+007    3.06068E+005   -4.32846E+004
              32   -1.24460E-004   -2.66168E-003   -7.87686E-004    3.19138E-004   -2.22191E-006   -4.71450E+007    2.90288E+005   -4.76123E+004
              33   -1.26613E-004   -2.81237E-003   -7.46060E-004    3.02267E-004   -2.42513E-006   -4.46538E+007    2.74486E+005   -5.19671E+004
              34   -1.28649E-004   -2.96557E-003   -7.04434E-004    2.85396E-004   -2.62692E-006   -4.21626E+007    2.58709E+005   -5.62912E+004
              35   -1.30569E-004   -3.12116E-003   -6.62809E-004    2.68524E-004   -2.83011E-006   -3.96713E+007    2.42908E+005   -6.06453E+004
              36   -1.32372E-004   -3.27897E-003   -6.21182E-004    2.51653E-004   -3.03207E-006   -3.71801E+007    2.27127E+005   -6.49728E+004
              37   -1.34059E-004   -3.43889E-003   -5.79556E-004    2.34781E-004   -3.23466E-006   -3.46888E+007    2.11337E+005   -6.93141E+004
              38   -1.35629E-004   -3.60076E-003   -5.37931E-004    2.17910E-004   -3.43750E-006   -3.21976E+007    1.95541E+005   -7.36606E+004
              39   -1.37083E-004   -3.76445E-003   -4.96304E-004    2.01038E-004   -3.63951E-006   -2.97064E+007    1.79760E+005   -7.79895E+004
              40   -1.38421E-004   -3.92981E-003   -4.54679E-004    1.84167E-004   -3.84244E-006   -2.72151E+007    1.63963E+005   -8.23380E+004
              41   -1.39642E-004   -4.09671E-003   -4.13053E-004    1.67296E-004   -4.04456E-006   -2.47239E+007    1.48180E+005   -8.66692E+004
              42   -1.40746E-004   -4.26501E-003   -3.71426E-004    1.50424E-004   -4.24715E-006   -2.22326E+007    1.32389E+005   -9.10103E+004
              43   -1.41734E-004   -4.43457E-003   -3.29801E-004    1.33553E-004   -4.44979E-006   -1.97414E+007    1.16597E+005   -9.53527E+004
              44   -1.42606E-004   -4.60524E-003   -2.88175E-004    1.16681E-004   -4.65227E-006   -1.72502E+007    1.00808E+005   -9.96914E+004
              45   -1.43361E-004   -4.77690E-003   -2.46549E-004    9.98098E-005   -4.85430E-006   -1.47589E+007    8.50241E+004   -1.04021E+005
              46   -1.44000E-004   -4.94939E-003   -2.04922E-004    8.29375E-005   -5.05633E-006   -1.22677E+007    6.91883E+004   -1.08350E+005
              47   -1.44522E-004   -5.12258E-003   -1.63284E-004    6.60601E-005   -5.26975E-006   -9.77575E+006    5.33054E+004   -1.12923E+005
              48   -1.44928E-004   -5.29633E-003   -1.21674E-004    4.92523E-005   -5.58896E-006   -7.28380E+006    4.16157E+004   -1.19763E+005
              49   -1.45217E-004   -5.47050E-003   -8.15438E-005    3.35031E-005   -4.76953E-006   -4.86733E+006    6.32535E+004   -1.02204E+005
              50   -1.45401E-004   -5.64494E-003   -3.21343E-005   -9.38274E-006    9.76724E-006   -2.56339E+006   -1.58832E+006    2.09298E+005
              51   -1.45505E-004   -5.81970E-003   -5.55794E-005    1.05148E-004   -4.67625E-005   -9.65717E+005    5.92262E+006   -1.00205E+006
              52   -1.65577E-035    7.99541E-035   -5.77583E-005    1.14195E-004    1.23777E-004   -8.62882E+005    6.50652E+006    2.65235E+006
              53   -9.95106E-008   -3.01784E-006   -4.16843E-005    6.52437E-005   -1.13294E-004   -1.11334E+006    3.46929E+006   -2.42773E+006
              54   -9.64384E-008   -1.32944E-005    7.22871E-006   -4.85251E-006   -5.84494E-005    3.77690E+005   -1.40073E+005   -1.25249E+006
              55   -9.26000E-008   -3.02540E-005    4.68281E-006   -2.17884E-006   -5.59560E-005    2.72234E+005   -2.18355E+004   -1.19906E+006
              56   -9.06521E-008   -5.37812E-005    4.47288E-006   -1.92135E-006   -5.59091E-005    2.64595E+005   -9.44141E+003   -1.19805E+006
              57   -8.87823E-008   -8.37373E-005    4.48521E-006   -1.92983E-006   -5.59164E-005    2.65233E+005   -9.69698E+003   -1.19821E+006
              58   -8.69006E-008   -1.19983E-004    4.48739E-006   -1.93219E-006   -5.59163E-005    2.65320E+005   -9.80391E+003   -1.19821E+006
              59   -8.50184E-008   -1.62377E-004    4.48729E-006   -1.93220E-006   -5.59162E-005    2.65319E+005   -9.80466E+003   -1.19820E+006
              60   -8.31359E-008   -2.10782E-004    4.48731E-006   -1.93218E-006   -5.59162E-005    2.65318E+005   -9.80359E+003   -1.19820E+006
              61   -8.12538E-008   -2.65056E-004    4.48729E-006   -1.93217E-006   -5.59162E-005    2.65319E+005   -9.80290E+003   -1.19820E+006
              62   -7.93715E-008   -3.25061E-004    4.48731E-006   -1.93218E-006   -5.59162E-005    2.65318E+005   -9.80394E+003   -1.19820E+006
              63   -7.74892E-008   -3.90656E-004    4.48729E-006   -1.93218E-006   -5.59161E-005    2.65314E+005   -9.80403E+003   -1.19820E+006
              64   -7.56071E-008   -4.61702E-004    4.48732E-006   -1.93217E-006   -5.59162E-005    2.65315E+005   -9.80438E+003   -1.19820E+006
              65   -7.37246E-008   -5.38058E-004    4.48732E-006   -1.93218E-006   -5.59161E-005    2.65316E+005   -9.80449E+003   -1.19820E+006
              66   -7.18424E-008   -6.19586E-004    4.48732E-006   -1.93217E-006   -5.59162E-005    2.65318E+005   -9.80271E+003   -1.19821E+006
              67   -6.99603E-008   -7.06145E-004    4.48729E-006   -1.93216E-006   -5.59162E-005    2.65316E+005   -9.80259E+003   -1.19820E+006
              68   -6.80780E-008   -7.97596E-004    4.48729E-006   -1.93217E-006   -5.59162E-005    2.65316E+005   -9.80351E+003   -1.19820E+006
              69   -6.61958E-008   -8.93798E-004    4.48729E-006   -1.93219E-006   -5.59162E-005    2.65317E+005   -9.80440E+003   -1.19820E+006
              70   -6.43134E-008   -9.94613E-004    4.48729E-006   -1.93218E-006   -5.59161E-005    2.65316E+005   -9.80432E+003   -1.19820E+006
              71   -6.24311E-008   -1.09990E-003    4.48729E-006   -1.93217E-006   -5.59162E-005    2.65316E+005   -9.80346E+003   -1.19820E+006
              72   -6.05489E-008   -1.20952E-003    4.48730E-006   -1.93216E-006   -5.59162E-005    2.65317E+005   -9.80284E+003   -1.19820E+006
              73   -5.86669E-008   -1.32333E-003    4.48729E-006   -1.93217E-006   -5.59161E-005    2.65317E+005   -9.80410E+003   -1.19820E+006
              74   -5.67841E-008   -1.44120E-003    4.48730E-006   -1.93218E-006   -5.59162E-005    2.65317E+005   -9.80359E+003   -1.19820E+006
              75   -5.49024E-008   -1.56298E-003    4.48727E-006   -1.93216E-006   -5.59162E-005    2.65316E+005   -9.80345E+003   -1.19820E+006
              76   -5.30198E-008   -1.68853E-003    4.48734E-006   -1.93221E-006   -5.59162E-005    2.65319E+005   -9.80500E+003   -1.19820E+006
              77   -5.11375E-008   -1.81771E-003    4.48728E-006   -1.93215E-006   -5.59162E-005    2.65317E+005   -9.80232E+003   -1.19820E+006
              78   -4.92556E-008   -1.95039E-003    4.48729E-006   -1.93217E-006   -5.59162E-005    2.65318E+005   -9.80328E+003   -1.19820E+006
              79   -4.73729E-008   -2.08643E-003    4.48732E-006   -1.93217E-006   -5.59162E-005    2.65318E+005   -9.80367E+003   -1.19820E+006
              80   -4.54911E-008   -2.22568E-003    4.48728E-006   -1.93217E-006   -5.59162E-005    2.65316E+005   -9.80344E+003   -1.19820E+006
              81   -4.36085E-008   -2.36800E-003    4.48733E-006   -1.93220E-006   -5.59162E-005    2.65318E+005   -9.80476E+003   -1.19820E+006
              82   -4.17263E-008   -2.51326E-003    4.48728E-006   -1.93215E-006   -5.59162E-005    2.65316E+005   -9.80258E+003   -1.19820E+006
              83   -3.98442E-008   -2.66131E-003    4.48730E-006   -1.93217E-006   -5.59162E-005    2.65317E+005   -9.80330E+003   -1.19820E+006
              84   -3.79616E-008   -2.81202E-003    4.48733E-006   -1.93218E-006   -5.59162E-005    2.65318E+005   -9.80369E+003   -1.19820E+006
              85   -3.60797E-008   -2.96525E-003    4.48729E-006   -1.93217E-006   -5.59162E-005    2.65317E+005   -9.80350E+003   -1.19820E+006
              86   -3.41971E-008   -3.12085E-003    4.48731E-006   -1.93218E-006   -5.59162E-005    2.65317E+005   -9.80392E+003   -1.19820E+006
              87   -3.23151E-008   -3.27868E-003    4.48731E-006   -1.93216E-006   -5.59162E-005    2.65317E+005   -9.80284E+003   -1.19820E+006
              88   -3.04329E-008   -3.43862E-003    4.48731E-006   -1.93218E-006   -5.59161E-005    2.65316E+005   -9.80417E+003   -1.19820E+006
              89   -2.85504E-008   -3.60051E-003    4.48731E-006   -1.93217E-006   -5.59162E-005    2.65317E+005   -9.80372E+003   -1.19820E+006
              90   -2.66683E-008   -3.76421E-003    4.48730E-006   -1.93217E-006   -5.59162E-005    2.65316E+005   -9.80341E+003   -1.19820E+006
              91   -2.47859E-008   -3.92960E-003    4.48732E-006   -1.93218E-006   -5.59162E-005    2.65317E+005   -9.80365E+003   -1.19820E+006
              92   -2.29038E-008   -4.09652E-003    4.48731E-006   -1.93217E-006   -5.59162E-005    2.65317E+005   -9.80301E+003   -1.19820E+006
              93   -2.10215E-008   -4.26484E-003    4.48730E-006   -1.93217E-006   -5.59162E-005    2.65317E+005   -9.80385E+003   -1.19820E+006
              94   -1.91391E-008   -4.43441E-003    4.48730E-006   -1.93217E-006   -5.59162E-005    2.65316E+005   -9.80392E+003   -1.19820E+006
              95   -1.72569E-008   -4.60511E-003    4.48731E-006   -1.93217E-006   -5.59162E-005    2.65318E+005   -9.80337E+003   -1.19820E+006
              96   -1.53748E-008   -4.77678E-003    4.48740E-006   -1.93226E-006   -5.59162E-005    2.65321E+005   -9.80743E+003   -1.19820E+006
              97   -1.34919E-008   -4.94929E-003    4.48741E-006   -1.93212E-006   -5.59166E-005    2.65326E+005   -9.79679E+003   -1.19821E+006
              98   -1.16141E-008   -5.12250E-003    4.47787E-006   -1.92220E-006   -5.59156E-005    2.64928E+005   -9.36100E+003   -1.19819E+006
              99   -9.78443E-009   -5.29627E-003    4.44113E-006   -1.90198E-006   -5.58748E-005    2.62881E+005   -8.96610E+003   -1.19732E+006
             100   -7.65177E-009   -5.47046E-003    5.27551E-006   -2.85018E-006   -5.59050E-005    2.95389E+005   -5.28554E+004   -1.19797E+006
             101    4.21727E-010   -5.64493E-003    1.03259E-005   -5.99328E-006   -6.17814E-005    5.66331E+005   -1.33065E+005   -1.32389E+006
             102    4.79447E-009   -5.81953E-003   -1.16571E-006    2.96283E-005   -5.14010E-005    7.63258E+005    2.08300E+006   -1.10145E+006
             103    1.88334E-034   -4.38639E-035    1.78800E-003   -3.53251E-004   -1.67819E-004    1.17621E+008    2.58535E+007   -3.59612E+006
             104    5.57130E-006   -4.01879E-006    2.11536E-003   -9.80159E-004    5.36991E-005    1.23093E+008   -9.57247E+006    1.15070E+006
             105    1.11812E-005   -1.42295E-005    1.99449E-003   -8.05041E-004   -5.95825E-006    1.19462E+008   -5.17545E+005   -1.27677E+005
             106    1.67119E-005   -3.11675E-005    1.95920E-003   -7.94050E-004   -1.53838E-005    1.17256E+008   -7.40662E+005   -3.29653E+005
             107    2.21296E-005   -5.46751E-005    1.91801E-003   -7.77495E-004   -1.54235E-005    1.14786E+008   -7.35192E+005   -3.30504E+005
             108    2.74307E-005   -8.46118E-005    1.87638E-003   -7.60636E-004   -1.51843E-005    1.12295E+008   -7.20297E+005   -3.25378E+005
             109    3.26154E-005   -1.20838E-004    1.83475E-003   -7.43762E-004   -1.49788E-005    1.09803E+008   -7.04454E+005   -3.20974E+005
             110    3.76836E-005   -1.63213E-004    1.79312E-003   -7.26891E-004   -1.47769E-005    1.07312E+008   -6.88661E+005   -3.16648E+005
             111    4.26353E-005   -2.11598E-004    1.75150E-003   -7.10019E-004   -1.45740E-005    1.04821E+008   -6.72864E+005   -3.12300E+005
             112    4.74705E-005   -2.65853E-004    1.70987E-003   -6.93148E-004   -1.43718E-005    1.02329E+008   -6.57080E+005   -3.07967E+005
             113    5.21893E-005   -3.25838E-004    1.66825E-003   -6.76277E-004   -1.41694E-005    9.98383E+007   -6.41292E+005   -3.03630E+005
             114    5.67917E-005   -3.91414E-004    1.62662E-003   -6.59405E-004   -1.39667E-005    9.73470E+007   -6.25498E+005   -2.99286E+005
             115    6.12775E-005   -4.62440E-004    1.58499E-003   -6.42534E-004   -1.37645E-005    9.48558E+007   -6.09714E+005   -2.94953E+005
             116    6.56469E-005   -5.38777E-004    1.54337E-003   -6.25662E-004   -1.35616E-005    9.23645E+007   -5.93918E+005   -2.90605E+005
             117    6.98998E-005   -6.20286E-004    1.50174E-003   -6.08791E-004   -1.33590E-005    8.98733E+007   -5.78128E+005   -2.86264E+005
             118    7.40363E-005   -7.06825E-004    1.46012E-003   -5.91919E-004   -1.31569E-005    8.73820E+007   -5.62346E+005   -2.81934E+005
             119    7.80563E-005   -7.98257E-004    1.41849E-003   -5.75048E-004   -1.29544E-005    8.48908E+007   -5.46554E+005   -2.77593E+005
             120    8.19598E-005   -8.94440E-004    1.37686E-003   -5.58176E-004   -1.27520E-005    8.23996E+007   -5.30767E+005   -2.73258E+005
             121    8.57469E-005   -9.95235E-004    1.33524E-003   -5.41305E-004   -1.25492E-005    7.99083E+007   -5.14972E+005   -2.68910E+005
             122    8.94175E-005   -1.10050E-003    1.29361E-003   -5.24434E-004   -1.23468E-005    7.74171E+007   -4.99185E+005   -2.64574E+005
             123    9.29716E-005   -1.21010E-003    1.25199E-003   -5.07562E-004   -1.21441E-005    7.49258E+007   -4.83393E+005   -2.60232E+005
             124    9.64092E-005   -1.32390E-003    1.21036E-003   -4.90691E-004   -1.19423E-005    7.24346E+007   -4.67615E+005   -2.55907E+005
             125    9.97304E-005   -1.44174E-003    1.16873E-003   -4.73819E-004   -1.17388E-005    6.99434E+007   -4.51807E+005   -2.51545E+005
             126    1.02935E-004   -1.56350E-003    1.12711E-003   -4.56948E-004   -1.15374E-005    6.74521E+007   -4.36037E+005   -2.47230E+005
             127    1.06023E-004   -1.68903E-003    1.08548E-003   -4.40076E-004   -1.13342E-005    6.49609E+007   -4.20234E+005   -2.42875E+005
             128    1.08995E-004   -1.81820E-003    1.04386E-003   -4.23205E-004   -1.11315E-005    6.24696E+007   -4.04444E+005   -2.38532E+005
             129    1.11851E-004   -1.95086E-003    1.00223E-003   -4.06334E-004   -1.09299E-005    5.99784E+007   -3.88669E+005   -2.34212E+005
             130    1.14589E-004   -2.08688E-003    9.60605E-004   -3.89462E-004   -1.07265E-005    5.74871E+007   -3.72863E+005   -2.29853E+005
             131    1.17212E-004   -2.22610E-003    9.18979E-004   -3.72591E-004   -1.05249E-005    5.49959E+007   -3.57089E+005   -2.25533E+005
             132    1.19718E-004   -2.36841E-003    8.77353E-004   -3.55719E-004   -1.03218E-005    5.25047E+007   -3.41289E+005   -2.21181E+005
             133    1.22107E-004   -2.51365E-003    8.35727E-004   -3.38848E-004   -1.01191E-005    5.00134E+007   -3.25498E+005   -2.16838E+005
             134    1.24380E-004   -2.66168E-003    7.94101E-004   -3.21976E-004   -9.91735E-006    4.75221E+007   -3.09720E+005   -2.12515E+005
             135    1.26537E-004   -2.81237E-003    7.52475E-004   -3.05105E-004   -9.71410E-006    4.50309E+007   -2.93918E+005   -2.08159E+005
             136    1.28577E-004   -2.96558E-003    7.10849E-004   -2.88233E-004   -9.51232E-006    4.25397E+007   -2.78141E+005   -2.03835E+005
             137    1.30500E-004   -3.12116E-003    6.69223E-004   -2.71362E-004   -9.30915E-006    4.00484E+007   -2.62340E+005   -1.99482E+005
             138    1.32307E-004   -3.27898E-003    6.27597E-004   -2.54491E-004   -9.10706E-006    3.75572E+007   -2.46558E+005   -1.95151E+005
             139    1.33998E-004   -3.43889E-003    5.85971E-004   -2.37619E-004   -8.90468E-006    3.50659E+007   -2.30770E+005   -1.90815E+005
             140    1.35572E-004   -3.60076E-003    5.44345E-004   -2.20748E-004   -8.70173E-006    3.25747E+007   -2.14972E+005   -1.86466E+005
             141    1.37030E-004   -3.76445E-003    5.02719E-004   -2.03876E-004   -8.49971E-006    3.00835E+007   -1.99192E+005   -1.82137E+005
             142    1.38371E-004   -3.92981E-003    4.61093E-004   -1.87005E-004   -8.29679E-006    2.75922E+007   -1.83395E+005   -1.77788E+005
             143    1.39596E-004   -4.09671E-003    4.19467E-004   -1.70133E-004   -8.09460E-006    2.51010E+007   -1.67611E+005   -1.73456E+005
             144    1.40704E-004   -4.26501E-003    3.77841E-004   -1.53262E-004   -7.89214E-006    2.26097E+007   -1.51822E+005   -1.69117E+005
             145    1.41696E-004   -4.43457E-003    3.36215E-004   -1.36390E-004   -7.68949E-006    2.01185E+007   -1.36029E+005   -1.64775E+005
             146    1.42572E-004   -4.60525E-003    2.94589E-004   -1.19519E-004   -7.48688E-006    1.76273E+007   -1.20238E+005   -1.60433E+005
             147    1.43330E-004   -4.77690E-003    2.52963E-004   -1.02648E-004   -7.28487E-006    1.51360E+007   -1.04457E+005   -1.56104E+005
             148    1.43973E-004   -4.94939E-003    2.11337E-004   -8.57761E-005   -7.08237E-006    1.26447E+007   -8.86687E+004   -1.51765E+005
             149    1.44499E-004   -5.12258E-003    1.69715E-004   -6.89059E-005   -6.87392E-006    1.01537E+007   -7.28583E+004   -1.47298E+005
             150    1.44908E-004   -5.29633E-003    1.28128E-004   -5.20383E-005   -6.61409E-006    7.66516E+006   -5.62328E+004   -1.41731E+005
             151    1.45202E-004   -5.47050E-003    8.62805E-005   -3.50603E-005   -6.76429E-006    5.16117E+006   -3.91532E+004   -1.44949E+005
             152    1.45373E-004   -5.64495E-003    4.03307E-005   -1.69414E-005   -1.14296E-005    2.39673E+006   -5.77926E+004   -2.44920E+005
             153    1.45412E-004   -5.81950E-003   -1.09378E-006    1.57224E-006    8.41942E-006   -3.32061E+004    8.10519E+004    1.80416E+005
             154   -2.75788E-006   -1.44079E-006   -2.02630E-003    7.97780E-004   -4.75210E-005   -1.21942E+008   -9.10157E+005   -1.01831E+006
             155   -2.67851E-006   -3.46964E-006   -9.54743E-004    4.00597E-004    2.92182E-005   -5.67503E+007    1.33571E+006    6.26105E+005
             156   -1.60699E-006   -6.58838E-007   -9.66929E-004    3.26051E-004   -1.88184E-004   -5.97506E+007   -4.33718E+006   -4.03252E+006
             157    1.37821E-007   -4.37893E-007   -4.62909E-005    4.06025E-005    4.63351E-005   -2.14642E+006    1.57758E+006    9.92895E+005
             158   -1.98249E-034    1.26420E-035   -7.82642E-004   -1.76756E-005    7.43574E-005   -5.64080E+007   -2.36238E+007    1.59337E+006
             159   -8.35572E-006   -8.27296E-006   -2.00253E-003    8.09288E-004    3.14749E-005   -1.19915E+008    5.91247E+005    6.74462E+005
             160   -5.52193E-006   -1.36993E-005   -9.30019E-004    3.72072E-004   -3.66035E-005   -5.57993E+007    4.58363E+003   -7.84360E+005
             161   -4.51265E-006   -7.45966E-006   -9.45454E-004    3.77889E-004   -2.44071E-005   -5.67356E+007   -2.09062E+004   -5.23008E+005
             162    1.02779E-007   -7.33173E-006    2.19356E-006    1.50993E-006   -6.88727E-005    1.99827E+005    1.70526E+005   -1.47584E+006
             163   -1.39520E-005   -2.18751E-005   -1.96228E-003    7.92418E-004    2.63032E-005   -1.17523E+008    5.36016E+005    5.63640E+005
             164   -8.29096E-006   -3.06502E-005   -9.09480E-004    3.64058E-004   -3.37142E-005   -5.45612E+007    1.90040E+004   -7.22448E+005
             165   -7.30428E-006   -2.10796E-005   -9.25630E-004    3.70365E-004   -3.18278E-005   -5.55346E+007    8.08325E+003   -6.82025E+005
             166    1.02451E-007   -2.09519E-005    2.11588E-006   -1.60524E-006   -5.30469E-005    1.05270E+005   -5.42062E+004   -1.13672E+006
             167   -1.94284E-005   -4.21162E-005   -1.92067E-003    7.75590E-004    2.58237E-005   -1.15031E+008    5.22978E+005    5.53366E+005
             168   -1.10009E-005   -5.41691E-005   -8.90128E-004    3.56376E-004   -3.35358E-005   -5.33984E+007    2.31856E+004   -7.18625E+005
             169   -1.00352E-005   -4.13376E-005   -9.05994E-004    3.62578E-004   -3.15787E-005   -5.43545E+007    1.28893E+004   -6.76686E+005
             170    1.00572E-007   -4.12121E-005    1.39659E-006   -9.91990E-007   -5.21865E-005    7.14120E+004   -3.09540E+004   -1.11828E+006
             171   -2.47880E-005   -6.88557E-005   -1.87937E-003    7.58905E-004    2.52050E-005   -1.12558E+008    5.11180E+005    5.40106E+005
             172   -1.36527E-005   -8.41167E-005   -8.70718E-004    3.48612E-004   -3.35493E-005   -5.22338E+007    2.31997E+004   -7.18914E+005
             173   -1.27078E-005   -6.80938E-005   -8.86569E-004    3.54808E-004   -3.15534E-005   -5.31890E+007    1.28448E+004   -6.76144E+005
             174    9.83104E-008   -6.79710E-005    1.36785E-006   -9.42120E-007   -5.21720E-005    7.07860E+004   -2.82123E+004   -1.11797E+006
             175   -3.00313E-005   -1.01954E-004   -1.83807E-003    7.42217E-004    2.45685E-005   -1.10084E+008    4.99231E+005    5.26467E+005
             176   -1.62462E-005   -1.20354E-004   -8.51306E-004    3.40847E-004   -3.35507E-005   -5.10691E+007    2.31639E+004   -7.18944E+005
             177   -1.53223E-005   -1.01209E-004   -8.67159E-004    3.47042E-004   -3.15581E-005   -5.20244E+007    1.27708E+004   -6.76246E+005
             178    9.60561E-008   -1.01089E-004    1.37204E-006   -9.45416E-007   -5.21726E-005    7.09920E+004   -2.83292E+004   -1.11798E+006
             179   -3.51581E-005   -1.41272E-004   -1.79676E-003    7.25526E-004    2.39346E-005   -1.07611E+008    4.87275E+005    5.12885E+005
             180   -1.87814E-005   -1.62740E-004   -8.31895E-004    3.33082E-004   -3.35508E-005   -4.99044E+007    2.31638E+004   -7.18946E+005
             181   -1.78785E-005   -1.40544E-004   -8.47748E-004    3.39278E-004   -3.15591E-005   -5.08598E+007    1.27620E+004   -6.76266E+005
             182    9.38059E-008   -1.40426E-004    1.37246E-006   -9.46049E-007   -5.21726E-005    7.10060E+004   -2.83600E+004   -1.11799E+006
             183   -4.01684E-005   -1.86670E-004   -1.75545E-003    7.08836E-004    2.33014E-005   -1.05137E+008    4.75328E+005    4.99316E+005
             184   -2.12585E-005   -2.11136E-004   -8.12484E-004    3.25318E-004   -3.35506E-005   -4.87397E+007    2.31623E+004   -7.18943E+005
             185   -2.03765E-005   -1.85958E-004   -8.28337E-004    3.31513E-004   -3.15586E-005   -4.96951E+007    1.27681E+004   -6.76257E+005
             186    9.15556E-008   -1.85843E-004    1.37219E-006   -9.45925E-007   -5.21723E-005    7.09890E+004   -2.83598E+004   -1.11798E+006
             187   -4.50623E-005   -2.38007E-004   -1.71414E-003    6.92145E-004    2.26678E-005   -1.02663E+008    4.63377E+005    4.85739E+005
             188   -2.36773E-005   -2.65402E-004   -7.93072E-004    3.17553E-004   -3.35506E-005   -4.75751E+007    2.31648E+004   -7.18941E+005
             189   -2.28162E-005   -2.37312E-004   -8.08926E-004    3.23749E-004   -3.15590E-005   -4.85304E+007    1.27612E+004   -6.76265E+005
             190    8.93054E-008   -2.37200E-004    1.37246E-006   -9.45998E-007   -5.21726E-005    7.10040E+004   -2.83583E+004   -1.11799E+006
             191   -4.98397E-005   -2.95145E-004   -1.67284E-003    6.75455E-004    2.20348E-005   -1.00190E+008    4.51422E+005    4.72175E+005
             192   -2.60378E-005   -3.25398E-004   -7.73661E-004    3.09789E-004   -3.35509E-005   -4.64104E+007    2.31626E+004   -7.18948E+005
             193   -2.51977E-005   -2.94466E-004   -7.89515E-004    3.15985E-004   -3.15589E-005   -4.73658E+007    1.27658E+004   -6.76261E+005
             194    8.70550E-008   -2.94357E-004    1.37233E-006   -9.45962E-007   -5.21725E-005    7.09960E+004   -2.83598E+004   -1.11798E+006
             195   -5.45006E-005   -3.57942E-004   -1.63153E-003    6.58764E-004    2.14014E-005   -9.77159E+007    4.39475E+005    4.58602E+005
             196   -2.83402E-005   -3.90985E-004   -7.54250E-004    3.02024E-004   -3.35508E-005   -4.52457E+007    2.31616E+004   -7.18947E+005
             197   -2.75210E-005   -3.57281E-004   -7.70103E-004    3.08220E-004   -3.15587E-005   -4.62011E+007    1.27697E+004   -6.76258E+005
             198    8.48048E-008   -3.57174E-004    1.37216E-006   -9.45947E-007   -5.21722E-005    7.09870E+004   -2.83620E+004   -1.11798E+006
             199   -5.90451E-005   -4.26261E-004   -1.59022E-003    6.42073E-004    2.07682E-005   -9.52422E+007    4.27519E+005    4.45033E+005
             200   -3.05843E-005   -4.62022E-004   -7.34839E-004    2.94260E-004   -3.35511E-005   -4.40811E+007    2.31619E+004   -7.18952E+005
             201   -2.97860E-005   -4.25616E-004   -7.50692E-004    3.00456E-004   -3.15590E-005   -4.50364E+007    1.27680E+004   -6.76263E+005
             202    8.25545E-008   -4.25512E-004    1.37227E-006   -9.46013E-007   -5.21723E-005    7.09910E+004   -2.83639E+004   -1.11798E+006
             203   -6.34731E-005   -4.99960E-004   -1.54891E-003    6.25383E-004    2.01348E-005   -9.27685E+007    4.15576E+005    4.31460E+005
             204   -3.27701E-005   -5.38370E-004   -7.15428E-004    2.86495E-004   -3.35509E-005   -4.29164E+007    2.31601E+004   -7.18948E+005
             205   -3.19928E-005   -4.99331E-004   -7.31281E-004    2.92691E-004   -3.15586E-005   -4.38717E+007    1.27732E+004   -6.76255E+005
             206    8.03043E-008   -4.99230E-004    1.37209E-006   -9.45911E-007   -5.21720E-005    7.09780E+004   -2.83638E+004   -1.11797E+006
             207   -6.77846E-005   -5.78900E-004   -1.50760E-003    6.08692E-004    1.95011E-005   -9.02948E+007    4.03628E+005    4.17880E+005
             208   -3.48977E-005   -6.19889E-004   -6.96017E-004    2.78731E-004   -3.35504E-005   -4.17517E+007    2.31645E+004   -7.18937E+005
             209   -3.41414E-005   -5.78288E-004   -7.11870E-004    2.84927E-004   -3.15589E-005   -4.27071E+007    1.27644E+004   -6.76262E+005
             210    7.80539E-008   -5.78190E-004    1.37233E-006   -9.45976E-007   -5.21724E-005    7.09940E+004   -2.83599E+004   -1.11798E+006
             211   -7.19796E-005   -6.62941E-004   -1.46629E-003    5.92001E-004    1.88675E-005   -8.78210E+007    3.91677E+005    4.04304E+005
             212   -3.69671E-005   -7.06440E-004   -6.76606E-004    2.70967E-004   -3.35504E-005   -4.05871E+007    2.31660E+004   -7.18938E+005
             213   -3.62318E-005   -6.62346E-004   -6.92459E-004    2.77162E-004   -3.15591E-005   -4.15424E+007    1.27580E+004   -6.76267E+005
             214    7.58037E-008   -6.62250E-004    1.37255E-006   -9.46013E-007   -5.21728E-005    7.10120E+004   -2.83559E+004   -1.11799E+006
             215   -7.60582E-005   -7.51944E-004   -1.42499E-003    5.75311E-004    1.82346E-005   -8.53473E+007    3.79724E+005    3.90741E+005
             216   -3.89783E-005   -7.97882E-004   -6.57194E-004    2.63202E-004   -3.35507E-005   -3.94224E+007    2.31633E+004   -7.18944E+005
             217   -3.82639E-005   -7.51366E-004   -6.73048E-004    2.69398E-004   -3.15588E-005   -4.03777E+007    1.27635E+004   -6.76260E+005
             218    7.35533E-008   -7.51273E-004    1.37238E-006   -9.45947E-007   -5.21725E-005    7.09990E+004   -2.83567E+004   -1.11798E+006
             219   -8.00204E-005   -8.45768E-004   -1.38368E-003    5.58620E-004    1.76014E-005   -8.28736E+007    3.67768E+005    3.77173E+005
             220   -4.09312E-005   -8.94076E-004   -6.37783E-004    2.55438E-004   -3.35511E-005   -3.82577E+007    2.31620E+004   -7.18951E+005
             221   -4.02377E-005   -8.45207E-004   -6.53636E-004    2.61633E-004   -3.15589E-005   -3.92131E+007    1.27678E+004   -6.76262E+005
             222    7.13031E-008   -8.45117E-004    1.37229E-006   -9.45984E-007   -5.21724E-005    7.09930E+004   -2.83627E+004   -1.11798E+006
             223   -8.38660E-005   -9.44275E-004   -1.34237E-003    5.41930E-004    1.69680E-005   -8.03999E+007    3.55824E+005    3.63600E+005
             224   -4.28259E-005   -9.94883E-004   -6.18372E-004    2.47673E-004   -3.35509E-005   -3.70931E+007    2.31605E+004   -7.18948E+005
             225   -4.21534E-005   -9.43730E-004   -6.34225E-004    2.53869E-004   -3.15586E-005   -3.80484E+007    1.27724E+004   -6.76256E+005
             226    6.90529E-008   -9.43643E-004    1.37211E-006   -9.45929E-007   -5.21721E-005    7.09800E+004   -2.83634E+004   -1.11797E+006
             227   -8.75952E-005   -1.04732E-003   -1.30106E-003    5.25239E-004    1.63344E-005   -7.79262E+007    3.43873E+005    3.50023E+005
             228   -4.46624E-005   -1.10016E-003   -5.98961E-004    2.39909E-004   -3.35507E-005   -3.59284E+007    2.31633E+004   -7.18943E+005
             229   -4.40108E-005   -1.04680E-003   -6.14814E-004    2.46104E-004   -3.15589E-005   -3.68837E+007    1.27655E+004   -6.76262E+005
             230    6.68025E-008   -1.04671E-003    1.37230E-006   -9.45984E-007   -5.21724E-005    7.09940E+004   -2.83610E+004   -1.11798E+006
             231   -9.12079E-005   -1.15477E-003   -1.25975E-003    5.08548E-004    1.57010E-005   -7.54524E+007    3.31925E+005    3.36450E+005
             232   -4.64406E-005   -1.20977E-003   -5.79550E-004    2.32144E-004   -3.35505E-005   -3.47637E+007    2.31643E+004   -7.18939E+005
             233   -4.58100E-005   -1.15426E-003   -5.95403E-004    2.38340E-004   -3.15589E-005   -3.57191E+007    1.27643E+004   -6.76261E+005
             234    6.45522E-008   -1.15418E-003    1.37233E-006   -9.45955E-007   -5.21725E-005    7.09960E+004   -2.83588E+004   -1.11798E+006
             235   -9.47042E-005   -1.26649E-003   -1.21845E-003    4.91858E-004    1.50677E-005   -7.29787E+007    3.19968E+005    3.22880E+005
             236   -4.81606E-005   -1.32358E-003   -5.60138E-004    2.24380E-004   -3.35510E-005   -3.35990E+007    2.31634E+004   -7.18951E+005
             237   -4.75509E-005   -1.26599E-003   -5.75992E-004    2.30575E-004   -3.15591E-005   -3.45544E+007    1.27623E+004   -6.76267E+005
             238    6.23021E-008   -1.26591E-003    1.37246E-006   -9.46024E-007   -5.21727E-005    7.10045E+004   -2.83601E+004   -1.11799E+006
             239   -9.80840E-005   -1.38233E-003   -1.17714E-003    4.75167E-004    1.44346E-005   -7.05050E+007    3.08028E+005    3.09313E+005
             240   -4.98224E-005   -1.44143E-003   -5.40728E-004    2.16615E-004   -3.35506E-005   -3.24344E+007    2.31607E+004   -7.18941E+005
             241   -4.92336E-005   -1.38185E-003   -5.56581E-004    2.22811E-004   -3.15583E-005   -3.33897E+007    1.27731E+004   -6.76249E+005
             242    6.00517E-008   -1.38177E-003    1.37200E-006   -9.45845E-007   -5.21720E-005    7.09755E+004   -2.83601E+004   -1.11797E+006
             243   -1.01347E-004   -1.50214E-003   -1.13583E-003    4.58476E-004    1.38009E-005   -6.80313E+007    2.96067E+005    2.95733E+005
             244   -5.14259E-005   -1.56320E-003   -5.21316E-004    2.08851E-004   -3.35509E-005   -3.12697E+007    2.31656E+004   -7.18947E+005
             245   -5.08581E-005   -1.50168E-003   -5.37170E-004    2.15046E-004   -3.15594E-005   -3.22251E+007    1.27582E+004   -6.76274E+005
             246    5.78014E-008   -1.50161E-003    1.37259E-006   -9.46093E-007   -5.21729E-005    7.10130E+004   -2.83607E+004   -1.11799E+006
             247   -1.04494E-004   -1.62581E-003   -1.09452E-003    4.41786E-004    1.31682E-005   -6.55576E+007    2.84118E+005    2.82175E+005
             248   -5.29712E-005   -1.68875E-003   -5.01905E-004    2.01086E-004   -3.35511E-005   -3.01050E+007    2.31592E+004   -7.18952E+005
             249   -5.24243E-005   -1.62536E-003   -5.17758E-004    2.07282E-004   -3.15584E-005   -3.10604E+007    1.27758E+004   -6.76251E+005
             250    5.55511E-008   -1.62529E-003    1.37200E-006   -9.45882E-007   -5.21719E-005    7.09740E+004   -2.83635E+004   -1.11797E+006
             251   -1.07525E-004   -1.75318E-003   -1.05321E-003    4.25095E-004    1.25339E-005   -6.30839E+007    2.72180E+005    2.68584E+005
             252   -5.44583E-005   -1.81792E-003   -4.82494E-004    1.93322E-004   -3.35502E-005   -2.89404E+007    2.31647E+004   -7.18933E+005
             253   -5.39323E-005   -1.75275E-003   -4.98347E-004    1.99518E-004   -3.15589E-005   -2.98957E+007    1.27644E+004   -6.76261E+005
             254    5.33010E-008   -1.75268E-003    1.37232E-006   -9.45973E-007   -5.21724E-005    7.09970E+004   -2.83599E+004   -1.11798E+006
             255   -1.10438E-004   -1.88411E-003   -1.01190E-003    4.08405E-004    1.19008E-005   -6.06101E+007    2.60217E+005    2.55018E+005
             256   -5.58871E-005   -1.95060E-003   -4.63083E-004    1.85557E-004   -3.35508E-005   -2.77757E+007    2.31655E+004   -7.18946E+005
             257   -5.53821E-005   -1.88369E-003   -4.78936E-004    1.91753E-004   -3.15593E-005   -2.87311E+007    1.27564E+004   -6.76270E+005
             258    5.10506E-008   -1.88363E-003    1.37264E-006   -9.46042E-007   -5.21729E-005    7.10160E+004   -2.83562E+004   -1.11799E+006
             259   -1.13236E-004   -2.01846E-003   -9.70596E-004    3.91714E-004    1.12678E-005   -5.81365E+007    2.48276E+005    2.41452E+005
             260   -5.72577E-005   -2.08662E-003   -4.43672E-004    1.77793E-004   -3.35506E-005   -2.66110E+007    2.31612E+004   -7.18942E+005
             261   -5.67736E-005   -2.01807E-003   -4.59525E-004    1.83989E-004   -3.15584E-005   -2.75664E+007    1.27715E+004   -6.76251E+005
             262    4.88003E-008   -2.01800E-003    1.37210E-006   -9.45860E-007   -5.21721E-005    7.09820E+004   -2.83590E+004   -1.11797E+006
             263   -1.15917E-004   -2.15610E-003   -9.29287E-004    3.75023E-004    1.06341E-005   -5.56627E+007    2.36317E+005    2.27874E+005
             264   -5.85701E-005   -2.22586E-003   -4.24260E-004    1.70028E-004   -3.35508E-005   -2.54464E+007    2.31652E+004   -7.18946E+005
             265   -5.81069E-005   -2.15572E-003   -4.40114E-004    1.76224E-004   -3.15593E-005   -2.64017E+007    1.27595E+004   -6.76271E+005
             266    4.65500E-008   -2.15566E-003    1.37255E-006   -9.46067E-007   -5.21728E-005    7.10090E+004   -2.83604E+004   -1.11799E+006
             267   -1.18481E-004   -2.29688E-003   -8.87980E-004    3.58333E-004    1.00013E-005   -5.31890E+007    2.24368E+005    2.14314E+005
             268   -5.98242E-005   -2.36818E-003   -4.04849E-004    1.62264E-004   -3.35510E-005   -2.42817E+007    2.31600E+004   -7.18950E+005
             269   -5.93820E-005   -2.29652E-003   -4.20702E-004    1.68460E-004   -3.15585E-005   -2.52370E+007    1.27738E+004   -6.76253E+005
             270    4.42998E-008   -2.29647E-003    1.37204E-006   -9.45904E-007   -5.21720E-005    7.09795E+004   -2.83628E+004   -1.11797E+006
             271   -1.20930E-004   -2.44067E-003   -8.46671E-004    3.41642E-004    9.36723E-006   -5.07153E+007    2.12427E+005    2.00726E+005
             272   -6.10201E-005   -2.51343E-003   -3.85438E-004    1.54500E-004   -3.35503E-005   -2.31170E+007    2.31644E+004   -7.18935E+005
             273   -6.05988E-005   -2.44033E-003   -4.01291E-004    1.60695E-004   -3.15589E-005   -2.40724E+007    1.27647E+004   -6.76261E+005
             274    4.20496E-008   -2.44027E-003    1.37230E-006   -9.45969E-007   -5.21724E-005    7.09960E+004   -2.83599E+004   -1.11798E+006
             275   -1.23261E-004   -2.58733E-003   -8.05363E-004    3.24952E-004    8.73406E-006   -4.82416E+007    2.00467E+005    1.87158E+005
             276   -6.21577E-005   -2.66147E-003   -3.66027E-004    1.46735E-004   -3.35508E-005   -2.19524E+007    2.31651E+004   -7.18946E+005
             277   -6.17575E-005   -2.58700E-003   -3.81880E-004    1.52931E-004   -3.15592E-005   -2.29077E+007    1.27582E+004   -6.76268E+005
             278    3.97992E-008   -2.58695E-003    1.37257E-006   -9.46027E-007   -5.21728E-005    7.10110E+004   -2.83569E+004   -1.11799E+006
             279   -1.25476E-004   -2.73671E-003   -7.64055E-004    3.08261E-004    8.10097E-006   -4.57679E+007    1.88523E+005    1.73592E+005
             280   -6.32372E-005   -2.81217E-003   -3.46616E-004    1.38971E-004   -3.35506E-005   -2.07877E+007    2.31616E+004   -7.18942E+005
             281   -6.28578E-005   -2.73640E-003   -3.62469E-004    1.45166E-004   -3.15585E-005   -2.17430E+007    1.27702E+004   -6.76253E+005
             282    3.75489E-008   -2.73635E-003    1.37213E-006   -9.45885E-007   -5.21722E-005    7.09845E+004   -2.83592E+004   -1.11798E+006
             283   -1.27575E-004   -2.88867E-003   -7.22746E-004    2.91570E-004    7.46735E-006   -4.32941E+007    1.76566E+005    1.60015E+005
             284   -6.42584E-005   -2.96539E-003   -3.27205E-004    1.31206E-004   -3.35508E-005   -1.96230E+007    2.31645E+004   -7.18946E+005
             285   -6.39000E-005   -2.88838E-003   -3.43058E-004    1.37402E-004   -3.15592E-005   -2.05784E+007    1.27611E+004   -6.76269E+005
             286    3.52987E-008   -2.88833E-003    1.37249E-006   -9.46045E-007   -5.21727E-005    7.10055E+004   -2.83605E+004   -1.11799E+006
             287   -1.29557E-004   -3.04308E-003   -6.81438E-004    2.74880E-004    6.83429E-006   -4.08204E+007    1.64622E+005    1.46449E+005
             288   -6.52213E-005   -3.12098E-003   -3.07794E-004    1.23442E-004   -3.35507E-005   -1.84584E+007    2.31614E+004   -7.18943E+005
             289   -6.48839E-005   -3.04280E-003   -3.23647E-004    1.29637E-004   -3.15585E-005   -1.94137E+007    1.27707E+004   -6.76253E+005
             290    3.30484E-008   -3.04276E-003    1.37213E-006   -9.45887E-007   -5.21722E-005    7.09830E+004   -2.83600E+004   -1.11797E+006
             291   -1.31423E-004   -3.19980E-003   -6.40130E-004    2.58189E-004    6.20056E-006   -3.83467E+007    1.52669E+005    1.32869E+005
             292   -6.61260E-005   -3.27881E-003   -2.88382E-004    1.15677E-004   -3.35505E-005   -1.72937E+007    2.31654E+004   -7.18940E+005
             293   -6.58095E-005   -3.19954E-003   -3.04236E-004    1.21873E-004   -3.15591E-005   -1.82490E+007    1.27611E+004   -6.76268E+005
             294    3.07981E-008   -3.19950E-003    1.37248E-006   -9.46025E-007   -5.21727E-005    7.10045E+004   -2.83598E+004   -1.11799E+006
             295   -1.33172E-004   -3.35868E-003   -5.98821E-004    2.41499E-004    5.56750E-006   -3.58730E+007    1.40717E+005    1.19304E+005
             296   -6.69725E-005   -3.43873E-003   -2.68971E-004    1.07913E-004   -3.35510E-005   -1.61290E+007    2.31622E+004   -7.18949E+005
             297   -6.66770E-005   -3.35844E-003   -2.84825E-004    1.14109E-004   -3.15588E-005   -1.70844E+007    1.27661E+004   -6.76261E+005
             298    2.85479E-008   -3.35840E-003    1.37233E-006   -9.45967E-007   -5.21724E-005    7.09953E+004   -2.83598E+004   -1.11798E+006
             299   -1.34805E-004   -3.51959E-003   -5.57513E-004    2.24808E-004    4.93417E-006   -3.33993E+007    1.28771E+005    1.05732E+005
             300   -6.77608E-005   -3.60062E-003   -2.49560E-004    1.00148E-004   -3.35507E-005   -1.49643E+007    2.31618E+004   -7.18943E+005
             301   -6.74862E-005   -3.51936E-003   -2.65413E-004    1.06344E-004   -3.15586E-005   -1.59197E+007    1.27695E+004   -6.76256E+005
             302    2.62976E-008   -3.51933E-003    1.37216E-006   -9.45913E-007   -5.21722E-005    7.09853E+004   -2.83608E+004   -1.11798E+006
             303   -1.36321E-004   -3.68239E-003   -5.16205E-004    2.08117E-004    4.30058E-006   -3.09256E+007    1.16817E+005    9.21554E+004
             304   -6.84908E-005   -3.76431E-003   -2.30149E-004    9.23839E-005   -3.35508E-005   -1.37997E+007    2.31642E+004   -7.18945E+005
             305   -6.82372E-005   -3.68218E-003   -2.46002E-004    9.85796E-005   -3.15591E-005   -1.47550E+007    1.27625E+004   -6.76267E+005
             306    2.40473E-008   -3.68214E-003    1.37244E-006   -9.46022E-007   -5.21726E-005    7.10020E+004   -2.83604E+004   -1.11798E+006
             307   -1.37721E-004   -3.84693E-003   -4.74897E-004    1.91427E-004    3.66740E-006   -2.84519E+007    1.04871E+005    7.85871E+004
             308   -6.91626E-005   -3.92969E-003   -2.10738E-004    8.46194E-005   -3.35506E-005   -1.26350E+007    2.31623E+004   -7.18942E+005
             309   -6.89299E-005   -3.84674E-003   -2.26591E-004    9.08152E-005   -3.15586E-005   -1.35904E+007    1.27680E+004   -6.76256E+005
             310    2.17970E-008   -3.84671E-003    1.37222E-006   -9.45916E-007   -5.21723E-005    7.09893E+004   -2.83592E+004   -1.11798E+006
             311   -1.39004E-004   -4.01308E-003   -4.33588E-004    1.74736E-004    3.03383E-006   -2.59781E+007    9.29179E+004    6.50106E+004
             312   -6.97762E-005   -4.09660E-003   -1.91327E-004    7.68550E-005   -3.35506E-005   -1.14703E+007    2.31649E+004   -7.18941E+005
             313   -6.95644E-005   -4.01290E-003   -2.07180E-004    8.30507E-005   -3.15591E-005   -1.24257E+007    1.27618E+004   -6.76266E+005
             314    1.95468E-008   -4.01288E-003    1.37245E-006   -9.46009E-007   -5.21726E-005    7.10035E+004   -2.83592E+004   -1.11799E+006
             315   -1.40171E-004   -4.18070E-003   -3.92280E-004    1.58046E-004    2.40069E-006   -2.35044E+007    8.09668E+004    5.14433E+004
             316   -7.03315E-005   -4.26491E-003   -1.71915E-004    6.90905E-005   -3.35509E-005   -1.03057E+007    2.31626E+004   -7.18947E+005
             317   -7.01407E-005   -4.18054E-003   -1.87769E-004    7.52862E-005   -3.15588E-005   -1.12610E+007    1.27657E+004   -6.76261E+005
             318    1.72965E-008   -4.18051E-003    1.37234E-006   -9.45965E-007   -5.21725E-005    7.09963E+004   -2.83596E+004   -1.11798E+006
             319   -1.41222E-004   -4.34965E-003   -3.50972E-004    1.41355E-004    1.76736E-006   -2.10307E+007    6.90177E+004    3.78721E+004
             320   -7.08286E-005   -4.43448E-003   -1.52504E-004    6.13260E-005   -3.35508E-005   -9.14100E+006    2.31619E+004   -7.18946E+005
             321   -7.06587E-005   -4.34950E-003   -1.68358E-004    6.75218E-005   -3.15587E-005   -1.00963E+007    1.27680E+004   -6.76258E+005
             322    1.50462E-008   -4.34948E-003    1.37223E-006   -9.45942E-007   -5.21723E-005    7.09898E+004   -2.83606E+004   -1.11798E+006
             323   -1.42156E-004   -4.51978E-003   -3.09664E-004    1.24664E-004    1.13384E-006   -1.85570E+007    5.70691E+004    2.42967E+004
             324   -7.12675E-005   -4.60517E-003   -1.33093E-004    5.35616E-005   -3.35505E-005   -7.97633E+006    2.31639E+004   -7.18940E+005
             325   -7.11185E-005   -4.51965E-003   -1.48946E-004    5.97573E-005   -3.15589E-005   -8.93168E+006    1.27651E+004   -6.76261E+005
             326    1.27959E-008   -4.51963E-003    1.37231E-006   -9.45962E-007   -5.21724E-005    7.09946E+004   -2.83599E+004   -1.11798E+006
             327   -1.42973E-004   -4.69096E-003   -2.68355E-004    1.07974E-004    5.00497E-007   -1.60833E+007    4.51155E+004    1.07249E+004
             328   -7.16481E-005   -4.77683E-003   -1.13682E-004    4.57971E-005   -3.35507E-005   -6.81166E+006    2.31627E+004   -7.18944E+005
             329   -7.15201E-005   -4.69085E-003   -1.29535E-004    5.19928E-005   -3.15591E-005   -7.76702E+006    1.27615E+004   -6.76266E+005
             330    1.05457E-008   -4.69083E-003    1.37248E-006   -9.46041E-007   -5.21726E-005    7.10046E+004   -2.83607E+004   -1.11799E+006
             331   -1.43674E-004   -4.86305E-003   -2.27047E-004    9.12832E-005   -1.32321E-007   -1.36096E+007    3.31636E+004   -2.83547E+003
             332   -7.19705E-005   -4.94934E-003   -9.42705E-005    3.80324E-005   -3.35508E-005   -5.64697E+006    2.31595E+004   -7.18947E+005
             333   -7.18634E-005   -4.86296E-003   -1.10124E-004    4.42284E-005   -3.15586E-005   -6.60233E+006    1.27701E+004   -6.76256E+005
             334    8.29559E-009   -4.86294E-003    1.37234E-006   -9.45958E-007   -5.21724E-005    7.09964E+004   -2.83590E+004   -1.11798E+006
             335   -1.44259E-004   -5.03591E-003   -1.85737E-004    7.45913E-005   -7.67417E-007   -1.11358E+007    2.11677E+004   -1.64447E+004
             336   -7.22346E-005   -5.12254E-003   -7.48584E-005    3.02698E-005   -3.35594E-005   -4.48218E+006    2.33152E+004   -7.19130E+005
             337   -7.21485E-005   -5.03583E-003   -9.07142E-005    3.64657E-005   -3.15604E-005   -5.43771E+006    1.28570E+004   -6.76295E+005
             338    6.04478E-009   -5.03582E-003    1.37074E-006   -9.43628E-007   -5.21729E-005    7.09489E+004   -2.82382E+004   -1.11799E+006
             339   -1.44727E-004   -5.20940E-003   -1.44398E-004    5.78916E-005   -1.43329E-006   -8.66010E+006    9.45512E+003   -3.07134E+004
             340   -7.24406E-005   -5.29630E-003   -5.54758E-005    2.25254E-005   -3.35759E-005   -3.31898E+006    2.39365E+004   -7.19483E+005
             341   -7.23754E-005   -5.20934E-003   -7.13156E-005    2.87079E-005   -3.15666E-005   -4.27375E+006    1.29772E+004   -6.76426E+005
             342    3.77806E-009   -5.20933E-003    1.35273E-006   -9.33450E-007   -5.21653E-005    6.99535E+004   -2.80256E+004   -1.11783E+006
             343   -1.45079E-004   -5.38337E-003   -1.03175E-004    4.13149E-005   -1.96002E-006   -6.18922E+006    3.20275E+003   -4.20005E+004
             344   -7.25881E-005   -5.47048E-003   -3.62159E-005    1.46255E-005   -3.26084E-005   -2.16898E+006    9.93885E+003   -6.98751E+005
             345   -7.25441E-005   -5.38333E-003   -5.17912E-005    2.07644E-005   -3.14628E-005   -3.10610E+006    3.42156E+003   -6.74202E+005
             346    1.51109E-009   -5.38332E-003    1.46031E-006   -1.14178E-006   -5.21365E-005    7.16857E+004   -3.98327E+004   -1.11721E+006
             347   -1.45313E-004   -5.55770E-003   -6.60778E-005    2.59691E-005    2.81167E-006   -3.97787E+006   -3.29990E+004    6.02500E+004
             348   -7.26717E-005   -5.64494E-003   -1.36548E-005    3.34204E-006   -3.10021E-005   -8.79858E+005   -1.51421E+005   -6.64332E+005
             349   -7.26540E-005   -5.55767E-003   -3.03303E-005    1.15123E-005   -3.10658E-005   -1.83753E+006   -4.42712E+004   -6.65695E+005
             350    8.53086E-010   -5.55767E-003    3.67313E-006   -3.00405E-006   -5.32827E-005    1.76536E+005   -1.09629E+005   -1.14177E+006
             351   -1.45458E-004   -5.73223E-003   -3.68018E-005    2.51503E-005   -8.77241E-006   -1.91012E+006    7.44967E+005   -1.87980E+005
             352   -7.27161E-005   -5.81957E-003   -2.69289E-005    7.73862E-005   -5.89311E-005    2.87541E+005    4.75819E+006   -1.26281E+006
             353   -7.26962E-005   -5.73224E-003   -9.90800E-006    4.18617E-006   -2.34440E-005   -5.88110E+005    1.59265E+004   -5.02372E+005
             354    6.41944E-009   -5.73223E-003    2.32771E-006    6.96939E-006   -5.23449E-005    3.65390E+005    5.64319E+005   -1.12168E+006
             355    2.85683E-006   -3.43527E-006    9.81637E-004   -4.04762E-004   -8.37002E-005    5.85523E+007   -8.64802E+005   -1.79358E+006
             356    9.55722E-007   -5.28058E-007    9.85491E-004   -3.68796E-004    2.58941E-005    5.98552E+007    1.81429E+006    5.54873E+005
             357    2.89952E-006   -1.44502E-006    1.97909E-003   -8.00163E-004    2.31779E-006    1.18502E+008   -6.08911E+005    4.96669E+004
             358    2.26010E-034   -8.14665E-036    7.85591E-004    7.33573E-005   -1.88677E-004    5.82096E+007    2.76853E+007   -4.04308E+006
             359    5.71501E-006   -1.37013E-005    9.35604E-004   -3.74448E-004   -2.76295E-005    5.61303E+007   -1.47679E+004   -5.92060E+005
             360    3.91288E-006   -7.46643E-006    9.45250E-004   -3.77327E-004   -4.68236E-005    5.67371E+007    5.52425E+004   -1.00336E+006
             361    8.56739E-006   -8.26769E-006    1.98655E-003   -8.08570E-004    1.00330E-006    1.18794E+008   -9.96569E+005    2.14994E+004
             362    8.48102E-006   -3.06506E-005    9.15019E-004   -3.65725E-004   -3.31974E-005    5.49092E+007    2.01669E+004   -7.11373E+005
             363    6.71993E-006   -2.10830E-005    9.19452E-004   -3.68072E-004   -3.15489E-005    5.51588E+007   -2.08248E+004   -6.76048E+005
             364    1.41576E-005   -2.18733E-005    1.96096E-003   -7.92572E-004   -3.20438E-005    1.17423E+008   -5.84965E+005   -6.86652E+005
             365    1.11868E-005   -5.41691E-005    8.95688E-004   -3.57948E-004   -3.35572E-005    5.37506E+007    2.33946E+004   -7.19082E+005
             366    9.46306E-006   -4.13395E-005    8.99276E-004   -3.59568E-004   -3.15306E-005    5.39606E+007    1.01630E+004   -6.75655E+005
             367    1.96294E-005   -4.21133E-005    1.92099E-003   -7.76599E-004   -3.30884E-005    1.15025E+008   -5.85933E+005   -7.09038E+005
             368    1.38343E-005   -8.41168E-005    8.76287E-004   -3.50190E-004   -3.35527E-005    5.25865E+007    2.31954E+004   -7.18987E+005
             369    1.21478E-005   -6.80957E-005    8.79840E-004   -3.51756E-004   -3.15601E-005    5.27956E+007    1.28518E+004   -6.76288E+005
             370    2.49846E-005   -6.88528E-005    1.87968E-003   -7.59941E-004   -3.24462E-005    1.12551E+008   -5.76229E+005   -6.95275E+005
             371    1.64236E-005   -1.20354E-004    8.56876E-004   -3.42426E-004   -3.35506E-005    5.14218E+007    2.31631E+004   -7.18942E+005
             372    1.47744E-005   -1.01211E-004    8.60433E-004   -3.43994E-004   -3.15590E-005    5.16311E+007    1.27893E+004   -6.76263E+005
             373    3.02234E-005   -1.01951E-004    1.83837E-003   -7.43248E-004   -3.18010E-005    1.10076E+008   -5.64355E+005   -6.81450E+005
             374    1.89546E-005   -1.62740E-004    8.37464E-004   -3.34662E-004   -3.35506E-005    5.02571E+007    2.31619E+004   -7.18942E+005
             375    1.73428E-005   -1.40546E-004    8.41022E-004   -3.36230E-004   -3.15591E-005    5.04664E+007    1.27620E+004   -6.76266E+005
             376    3.53457E-005   -1.41269E-004    1.79706E-003   -7.26557E-004   -3.11673E-005    1.07603E+008   -5.52397E+005   -6.67871E+005
             377    2.14274E-005   -2.11136E-004    8.18053E-004   -3.26897E-004   -3.35508E-005    4.90925E+007    2.31641E+004   -7.18945E+005
             378    1.98529E-005   -1.85960E-004    8.21611E-004   -3.28466E-004   -3.15586E-005    4.93018E+007    1.27680E+004   -6.76256E+005
             379    4.03515E-005   -1.86667E-004    1.75575E-003   -7.09866E-004   -3.05338E-005    1.05129E+008   -5.40443E+005   -6.54296E+005
             380    2.38420E-005   -2.65402E-004    7.98642E-004   -3.19133E-004   -3.35505E-005    4.79278E+007    2.31639E+004   -7.18939E+005
             381    2.23047E-005   -2.37314E-004    8.02200E-004   -3.20701E-004   -3.15590E-005    4.81371E+007    1.27615E+004   -6.76265E+005
             382    4.52409E-005   -2.38004E-004    1.71444E-003   -6.93176E-004   -2.99006E-005    1.02655E+008   -5.28497E+005   -6.40727E+005
             383    2.61984E-005   -3.25398E-004    7.79231E-004   -3.11368E-004   -3.35508E-005    4.67631E+007    2.31615E+004   -7.18947E+005
             384    2.46984E-005   -2.94468E-004    7.82789E-004   -3.12937E-004   -3.15589E-005    4.69724E+007    1.27649E+004   -6.76261E+005
             385    5.00138E-005   -2.95142E-004    1.67313E-003   -6.76485E-004   -2.92673E-005    1.00181E+008   -5.16541E+005   -6.27157E+005
             386    2.84965E-005   -3.90985E-004    7.59820E-004   -3.03604E-004   -3.35509E-005    4.55985E+007    2.31624E+004   -7.18948E+005
             387    2.70338E-005   -3.57283E-004    7.63378E-004   -3.05172E-004   -3.15587E-005    4.58078E+007    1.27695E+004   -6.76258E+005
             388    5.46702E-005   -3.57939E-004    1.63183E-003   -6.59794E-004   -2.86337E-005    9.77077E+007   -5.04596E+005   -6.13578E+005
             389    3.07363E-005   -4.62022E-004    7.40409E-004   -2.95839E-004   -3.35510E-005    4.44338E+007    2.31602E+004   -7.18950E+005
             390    2.93109E-005   -4.25617E-004    7.43967E-004   -2.97408E-004   -3.15589E-005    4.46431E+007    1.27678E+004   -6.76263E+005
             391    5.92102E-005   -4.26258E-004    1.59052E-003   -6.43104E-004   -2.80004E-005    9.52340E+007   -4.92646E+005   -6.00009E+005
             392    3.29180E-005   -5.38370E-004    7.20998E-004   -2.88075E-004   -3.35511E-005    4.32691E+007    2.31618E+004   -7.18951E+005
             393    3.15299E-005   -4.99333E-004    7.24556E-004   -2.89643E-004   -3.15586E-005    4.34784E+007    1.27731E+004   -6.76255E+005
             394    6.36337E-005   -4.99957E-004    1.54921E-003   -6.26413E-004   -2.73668E-005    9.27602E+007   -4.80697E+005   -5.86431E+005
             395    3.50414E-005   -6.19889E-004    7.01586E-004   -2.80310E-004   -3.35505E-005    4.21045E+007    2.31662E+004   -7.18939E+005
             396    3.36906E-005   -5.78290E-004    7.05144E-004   -2.81879E-004   -3.15588E-005    4.23138E+007    1.27664E+004   -6.76261E+005
             397    6.79407E-005   -5.78897E-004    1.50790E-003   -6.09723E-004   -2.67336E-005    9.02865E+007   -4.68747E+005   -5.72863E+005
             398    3.71066E-005   -7.06440E-004    6.82175E-004   -2.72546E-004   -3.35503E-005    4.09398E+007    2.31647E+004   -7.18936E+005
             399    3.57930E-005   -6.62348E-004    6.85733E-004   -2.74115E-004   -3.15592E-005    4.11491E+007    1.27577E+004   -6.76268E+005
             400    7.21313E-005   -6.62938E-004    1.46659E-003   -5.93032E-004   -2.61006E-005    8.78128E+007   -4.56794E+005   -5.59298E+005
             401    3.91135E-005   -7.97882E-004    6.62764E-004   -2.64781E-004   -3.35507E-005    3.97751E+007    2.31630E+004   -7.18943E+005
             402    3.78373E-005   -7.51367E-004    6.66322E-004   -2.66350E-004   -3.15588E-005    3.99844E+007    1.27627E+004   -6.76260E+005
             403    7.62054E-005   -7.51941E-004    1.42528E-003   -5.76341E-004   -2.54673E-005    8.53391E+007   -4.44837E+005   -5.45728E+005
             404    4.10622E-005   -8.94076E-004    6.43353E-004   -2.57017E-004   -3.35510E-005    3.86104E+007    2.31604E+004   -7.18949E+005
             405    3.98233E-005   -8.45209E-004    6.46911E-004   -2.58586E-004   -3.15589E-005    3.88198E+007    1.27672E+004   -6.76262E+005
             406    8.01630E-005   -8.45765E-004    1.38398E-003   -5.59651E-004   -2.48337E-005    8.28654E+007   -4.32893E+005   -5.32152E+005
             407    4.29527E-005   -9.94883E-004    6.23942E-004   -2.49252E-004   -3.35510E-005    3.74458E+007    2.31620E+004   -7.18951E+005
             408    4.17511E-005   -9.43732E-004    6.27500E-004   -2.50821E-004   -3.15586E-005    3.76551E+007    1.27724E+004   -6.76256E+005
             409    8.40041E-005   -9.44272E-004    1.34267E-003   -5.42960E-004   -2.42000E-005    8.03916E+007   -4.20945E+005   -5.18572E+005
             410    4.47850E-005   -1.10016E-003    6.04531E-004   -2.41488E-004   -3.35507E-005    3.62811E+007    2.31632E+004   -7.18944E+005
             411    4.36206E-005   -1.04680E-003    6.08089E-004   -2.43057E-004   -3.15589E-005    3.64904E+007    1.27664E+004   -6.76262E+005
             412    8.77288E-005   -1.04732E-003    1.30136E-003   -5.26270E-004   -2.35669E-005    7.79180E+007   -4.08995E+005   -5.05004E+005
             413    4.65590E-005   -1.20977E-003    5.85119E-004   -2.33723E-004   -3.35505E-005    3.51164E+007    2.31655E+004   -7.18940E+005
             414    4.54319E-005   -1.15426E-003    5.88677E-004   -2.35292E-004   -3.15588E-005    3.53258E+007    1.27651E+004   -6.76261E+005
             415    9.13370E-005   -1.15477E-003    1.26005E-003   -5.09579E-004   -2.29336E-005    7.54442E+007   -3.97042E+005   -4.91434E+005
             416    4.82748E-005   -1.32358E-003    5.65708E-004   -2.25959E-004   -3.35508E-005    3.39518E+007    2.31597E+004   -7.18946E+005
             417    4.71850E-005   -1.26600E-003    5.69266E-004   -2.27528E-004   -3.15592E-005    3.41611E+007    1.27608E+004   -6.76268E+005
             418    9.48288E-005   -1.26649E-003    1.21874E-003   -4.92888E-004   -2.23005E-005    7.29705E+007   -3.85092E+005   -4.77867E+005
             419    4.99323E-005   -1.44143E-003    5.46297E-004   -2.18195E-004   -3.35509E-005    3.27871E+007    2.31654E+004   -7.18948E+005
             420    4.88798E-005   -1.38185E-003    5.49855E-004   -2.19763E-004   -3.15583E-005    3.29964E+007    1.27740E+004   -6.76249E+005
             421    9.82041E-005   -1.38232E-003    1.17743E-003   -4.76198E-004   -2.16667E-005    7.04968E+007   -3.73138E+005   -4.64286E+005
             422    5.15316E-005   -1.56320E-003    5.26886E-004   -2.10430E-004   -3.35506E-005    3.16224E+007    2.31608E+004   -7.18940E+005
             423    5.05164E-005   -1.50169E-003    5.30444E-004   -2.11999E-004   -3.15594E-005    3.18317E+007    1.27581E+004   -6.76274E+005
             424    1.01463E-004   -1.50214E-003    1.13613E-003   -4.59507E-004   -2.10337E-005    6.80231E+007   -3.61197E+005   -4.50722E+005
             425    5.30727E-005   -1.68875E-003    5.07475E-004   -2.02666E-004   -3.35512E-005    3.04578E+007    2.31613E+004   -7.18955E+005
             426    5.20948E-005   -1.62537E-003    5.11033E-004   -2.04234E-004   -3.15584E-005    3.06671E+007    1.27751E+004   -6.76251E+005
             427    1.04605E-004   -1.62581E-003    1.09482E-003   -4.42816E-004   -2.04001E-005    6.55494E+007   -3.49236E+005   -4.37145E+005
             428    5.45555E-005   -1.81792E-003    4.88064E-004   -1.94901E-004   -3.35504E-005    2.92931E+007    2.31674E+004   -7.18937E+005
             429    5.36149E-005   -1.75275E-003    4.91622E-004   -1.96470E-004   -3.15589E-005    2.95024E+007    1.27665E+004   -6.76261E+005
             430    1.07631E-004   -1.75317E-003    1.05351E-003   -4.26126E-004   -1.97665E-005    6.30756E+007   -3.37300E+005   -4.23567E+005
             431    5.59802E-005   -1.95060E-003    4.68652E-004   -1.87137E-004   -3.35505E-005    2.81284E+007    2.31613E+004   -7.18940E+005
             432    5.50768E-005   -1.88370E-003    4.72210E-004   -1.88706E-004   -3.15593E-005    2.83377E+007    1.27553E+004   -6.76271E+005
             433    1.10541E-004   -1.88410E-003    1.01220E-003   -4.09435E-004   -1.91339E-005    6.06020E+007   -3.25337E+005   -4.10013E+005
             434    5.73465E-005   -2.08662E-003    4.49241E-004   -1.79372E-004   -3.35508E-005    2.69638E+007    2.31650E+004   -7.18947E+005
             435    5.64805E-005   -2.01807E-003    4.52799E-004   -1.80941E-004   -3.15584E-005    2.71731E+007    1.27714E+004   -6.76251E+005
             436    1.13334E-004   -2.01846E-003    9.70893E-004   -3.92745E-004   -1.85000E-005    5.81282E+007   -3.13385E+005   -3.96429E+005
             437    5.86547E-005   -2.22586E-003    4.29830E-004   -1.71608E-004   -3.35506E-005    2.57991E+007    2.31612E+004   -7.18941E+005
             438    5.78259E-005   -2.15572E-003    4.33388E-004   -1.73177E-004   -3.15593E-005    2.60084E+007    1.27594E+004   -6.76271E+005
             439    1.16010E-004   -2.15610E-003    9.29585E-004   -3.76054E-004   -1.78669E-005    5.56545E+007   -3.01445E+005   -3.82863E+005
             440    5.99046E-005   -2.36818E-003    4.10419E-004   -1.63843E-004   -3.35511E-005    2.46344E+007    2.31616E+004   -7.18953E+005
             441    5.91131E-005   -2.29653E-003    4.13977E-004   -1.65412E-004   -3.15585E-005    2.48437E+007    1.27732E+004   -6.76253E+005
             442    1.18570E-004   -2.29688E-003    8.88276E-004   -3.59363E-004   -1.72333E-005    5.31808E+007   -2.89485E+005   -3.69286E+005
             443    6.10963E-005   -2.51343E-003    3.91008E-004   -1.56079E-004   -3.35505E-005    2.34697E+007    2.31666E+004   -7.18938E+005
             444    6.03421E-005   -2.44033E-003    3.94566E-004   -1.57648E-004   -3.15589E-005    2.36791E+007    1.27663E+004   -6.76261E+005
             445    1.21014E-004   -2.44067E-003    8.46968E-004   -3.42673E-004   -1.65998E-005    5.07071E+007   -2.77547E+005   -3.55709E+005
             446    6.22297E-005   -2.66147E-003    3.71597E-004   -1.48314E-004   -3.35506E-005    2.23051E+007    2.31617E+004   -7.18941E+005
             447    6.15128E-005   -2.58700E-003    3.75155E-004   -1.49883E-004   -3.15592E-005    2.25144E+007    1.27573E+004   -6.76269E+005
             448    1.23341E-004   -2.58732E-003    8.05660E-004   -3.25982E-004   -1.59671E-005    4.82334E+007   -2.65586E+005   -3.42151E+005
             449    6.33049E-005   -2.81217E-003    3.52186E-004   -1.40550E-004   -3.35508E-005    2.11404E+007    2.31646E+004   -7.18946E+005
             450    6.26253E-005   -2.73640E-003    3.55744E-004   -1.42119E-004   -3.15585E-005    2.13497E+007    1.27702E+004   -6.76253E+005
             451    1.25551E-004   -2.73670E-003    7.64351E-004   -3.09291E-004   -1.53333E-005    4.57596E+007   -2.53635E+005   -3.28570E+005
             452    6.43219E-005   -2.96539E-003    3.32774E-004   -1.32786E-004   -3.35506E-005    1.99757E+007    2.31614E+004   -7.18942E+005
             453    6.36796E-005   -2.88838E-003    3.36332E-004   -1.34354E-004   -3.15592E-005    2.01850E+007    1.27609E+004   -6.76269E+005
             454    1.27645E-004   -2.88867E-003    7.23043E-004   -2.92601E-004   -1.47001E-005    4.32859E+007   -2.41692E+005   -3.15002E+005
             455    6.52806E-005   -3.12098E-003    3.13363E-004   -1.25021E-004   -3.35509E-005    1.88111E+007    2.31641E+004   -7.18947E+005
             456    6.46756E-005   -3.04281E-003    3.16921E-004   -1.26590E-004   -3.15585E-005    1.90204E+007    1.27708E+004   -6.76253E+005
             457    1.29623E-004   -3.04308E-003    6.81735E-004   -2.75910E-004   -1.40665E-005    4.08122E+007   -2.29735E+005   -3.01425E+005
             458    6.61812E-005   -3.27881E-003    2.93952E-004   -1.17257E-004   -3.35505E-005    1.76464E+007    2.31643E+004   -7.18939E+005
             459    6.56134E-005   -3.19954E-003    2.97510E-004   -1.18825E-004   -3.15591E-005    1.78557E+007    1.27619E+004   -6.76267E+005
             460    1.31484E-004   -3.19980E-003    6.40427E-004   -2.59220E-004   -1.34333E-005    3.83385E+007   -2.17792E+005   -2.87857E+005
             461    6.70234E-005   -3.43873E-003    2.74541E-004   -1.09492E-004   -3.35509E-005    1.64817E+007    2.31609E+004   -7.18947E+005
             462    6.64930E-005   -3.35844E-003    2.78099E-004   -1.11061E-004   -3.15589E-005    1.66910E+007    1.27646E+004   -6.76261E+005
             463    1.33229E-004   -3.35868E-003    5.99119E-004   -2.42529E-004   -1.28000E-005    3.58648E+007   -2.05836E+005   -2.74286E+005
             464    6.78075E-005   -3.60062E-003    2.55130E-004   -1.01728E-004   -3.35508E-005    1.53171E+007    2.31639E+004   -7.18947E+005
             465    6.73143E-005   -3.51937E-003    2.58688E-004   -1.03296E-004   -3.15586E-005    1.55264E+007    1.27703E+004   -6.76255E+005
             466    1.34857E-004   -3.51959E-003    5.57810E-004   -2.25838E-004   -1.21664E-005    3.33911E+007   -1.93887E+005   -2.60709E+005
             467    6.85333E-005   -3.76431E-003    2.35719E-004   -9.39632E-005   -3.35506E-005    1.41524E+007    2.31623E+004   -7.18942E+005
             468    6.80774E-005   -3.68218E-003    2.39277E-004   -9.55320E-005   -3.15591E-005    1.43617E+007    1.27626E+004   -6.76267E+005
             469    1.36369E-004   -3.68238E-003    5.16502E-004   -2.09148E-004   -1.15332E-005    3.09174E+007   -1.81941E+005   -2.47141E+005
             470    6.92009E-005   -3.92969E-003    2.16308E-004   -8.61988E-005   -3.35508E-005    1.29877E+007    2.31642E+004   -7.18945E+005
             471    6.87823E-005   -3.84674E-003    2.19866E-004   -8.77675E-005   -3.15586E-005    1.31970E+007    1.27681E+004   -6.76256E+005
             472    1.37765E-004   -3.84693E-003    4.75194E-004   -1.92457E-004   -1.08998E-005    2.84436E+007   -1.69985E+005   -2.33567E+005
             473    6.98102E-005   -4.09660E-003    1.96896E-004   -7.84343E-005   -3.35505E-005    1.18231E+007    2.31640E+004   -7.18940E+005
             474    6.94289E-005   -4.01291E-003    2.00454E-004   -8.00031E-005   -3.15591E-005    1.20324E+007    1.27621E+004   -6.76266E+005
             475    1.39043E-004   -4.01308E-003    4.33886E-004   -1.75767E-004   -1.02666E-005    2.59699E+007   -1.58039E+005   -2.19998E+005
             476    7.03613E-005   -4.26491E-003    1.77485E-004   -7.06698E-005   -3.35508E-005    1.06584E+007    2.31619E+004   -7.18946E+005
             477    7.00173E-005   -4.18054E-003    1.81043E-004   -7.22386E-005   -3.15589E-005    1.08677E+007    1.27648E+004   -6.76261E+005
             478    1.40206E-004   -4.18070E-003    3.92577E-004   -1.59076E-004   -9.63322E-006    2.34962E+007   -1.46085E+005   -2.06426E+005
             479    7.08542E-005   -4.43448E-003    1.58074E-004   -6.29054E-005   -3.35509E-005    9.49371E+006    2.31624E+004   -7.18947E+005
             480    7.05475E-005   -4.34950E-003    1.61632E-004   -6.44741E-005   -3.15587E-005    9.70303E+006    1.27681E+004   -6.76258E+005
             481    1.41252E-004   -4.34964E-003    3.51269E-004   -1.42385E-004   -8.99972E-006    2.10225E+007   -1.34136E+005   -1.92851E+005
             482    7.12888E-005   -4.60517E-003    1.38663E-004   -5.51409E-005   -3.35506E-005    8.32905E+006    2.31650E+004   -7.18941E+005
             483    7.10194E-005   -4.51965E-003    1.42221E-004   -5.67097E-005   -3.15588E-005    8.53836E+006    1.27662E+004   -6.76261E+005
             484    1.42181E-004   -4.51978E-003    3.09961E-004   -1.25695E-004   -8.36637E-006    1.85488E+007   -1.22188E+005   -1.79279E+005
             485    7.16652E-005   -4.77683E-003    1.19252E-004   -4.73765E-005   -3.35507E-005    7.16438E+006    2.31610E+004   -7.18944E+005
             486    7.14331E-005   -4.69085E-003    1.22810E-004   -4.89453E-005   -3.15591E-005    7.37369E+006    1.27614E+004   -6.76267E+005
             487    1.42994E-004   -4.69096E-003    2.68653E-004   -1.09004E-004   -7.73320E-006    1.60751E+007   -1.10237E+005   -1.65711E+005
             488    7.19834E-005   -4.94934E-003    9.98403E-005   -3.96118E-005   -3.35512E-005    5.99969E+006    2.31686E+004   -7.18955E+005
             489    7.17885E-005   -4.86296E-003    1.03399E-004   -4.11807E-005   -3.15587E-005    6.20902E+006    1.27673E+004   -6.76257E+005
             490    1.43691E-004   -4.86305E-003    2.27344E-004   -9.23135E-005   -7.09970E-006    1.36013E+007   -9.82828E+004   -1.52136E+005
             491    7.22433E-005   -5.12254E-003    8.04256E-005   -3.18439E-005   -3.35431E-005    4.83486E+006    2.33120E+004   -7.18780E+005
             492    7.20858E-005   -5.03583E-003    8.39880E-005   -3.34162E-005   -3.15564E-005    5.04439E+006    1.27847E+004   -6.76209E+005
             493    1.44271E-004   -5.03591E-003    1.86037E-004   -7.56233E-005   -6.46477E-006    1.11277E+007   -8.63287E+004   -1.38531E+005
             494    7.24451E-005   -5.29630E-003    6.10398E-005   -2.40928E-005   -3.34910E-005    3.67162E+006    2.30787E+004   -7.17664E+005
             495    7.23248E-005   -5.20934E-003    6.45803E-005   -2.56501E-005   -3.15450E-005    3.88002E+006    1.30006E+004   -6.75965E+005
             496    1.44735E-004   -5.20939E-003    1.44746E-004   -5.89404E-005   -5.82394E-006    8.65502E+006   -7.44129E+004   -1.24799E+005
             497    7.25887E-005   -5.47048E-003    4.20539E-005   -1.67092E-005   -3.41084E-005    2.52645E+006    8.02867E+003   -7.30895E+005
             498    7.25056E-005   -5.38333E-003    4.51276E-005   -1.78856E-005   -3.17466E-005    2.71238E+006    1.18152E+004   -6.80284E+005
             499    1.45082E-004   -5.38337E-003    1.03409E-004   -4.22512E-005   -5.31263E-006    6.17919E+006   -6.33994E+004   -1.13842E+005
             500    7.26734E-005   -5.64494E-003    2.21357E-005   -8.85944E-006   -3.99905E-005    1.32799E+006   -3.68770E+002   -8.56940E+005
             501    7.26289E-005   -5.55768E-003    2.51634E-005   -1.02938E-005   -3.36485E-005    1.50327E+006   -1.63213E+004   -7.21039E+005
             502    1.45312E-004   -5.55770E-003    6.02362E-005   -2.48130E-005   -5.87369E-006    3.59364E+006   -5.13263E+004   -1.25865E+005
             503    7.26967E-005   -5.81949E-003   -4.27881E-006    1.32524E-005   -1.53694E-005    7.30097E+004    8.24346E+005   -3.29344E+005
             504    7.26939E-005   -5.73223E-003    6.35423E-006   -2.59517E-006   -2.99869E-005    3.79725E+005   -3.82029E+003   -6.42576E+005
             505    1.45409E-004   -5.73223E-003    1.30297E-005   -5.16660E-006   -1.95181E-006    7.83075E+005    3.23389E+003   -4.18245E+004


