********************************************************************************
Field Output Report, written Wed Sep 20 14:32:42 2017

Source 1
---------

   ODB: E:/Class/FEA/Hw/Hw2/cantilever20Elements.odb
   Step: Step-1
   Frame: Increment      1: Step Time =    1.000

Loc 1 : Nodal values from source 1

Output sorted by column "Node Label".

Field Output reported at nodes for part: PART-1-1
   Computation algorithm: EXTRAPOLATE_COMPUTE_AVERAGE
   Averaged at nodes
   Averaging regions: ODB_REGIONS

      Node Label            U.U1            U.U2           E.E11           E.E22           E.E12           S.S11           S.S22           S.S12
                          @Loc 1          @Loc 1          @Loc 1          @Loc 1          @Loc 1          @Loc 1          @Loc 1          @Loc 1
-------------------------------------------------------------------------------------------------------------------------------------------------
               1   -3.00000E-034    1.56454E-034   -1.23920E-006    3.09798E-006   -3.11111E-005    0.00000E+000    1.85879E+005   -6.66667E+005
               2   -2.18414E-006   -6.97880E-006   -5.02031E-005    6.23211E-006    1.12915E-004   -3.40787E+006   -9.89223E+005    2.41960E+006
               3   -4.15152E-006   -2.62287E-005   -4.54011E-005    6.30501E-006    9.75418E-005   -3.06279E+006   -8.46816E+005    2.09018E+006
               4   -5.89206E-006   -5.63761E-005   -4.03603E-005    6.30628E-006    8.24025E-005   -2.70270E+006   -7.02702E+005    1.76577E+006
               5   -7.40557E-006   -9.60586E-005   -3.53153E-005    6.30631E-006    6.72673E-005   -2.34234E+006   -5.58559E+005    1.44144E+006
               6   -8.69206E-006   -1.43914E-004   -3.02703E-005    6.30630E-006    5.21321E-005   -1.98198E+006   -4.14414E+005    1.11712E+006
               7   -9.75152E-006   -1.98580E-004   -2.52252E-005    6.30631E-006    3.69970E-005   -1.62162E+006   -2.70270E+005    7.92793E+005
               8   -1.05840E-005   -2.58695E-004   -2.01803E-005    6.30669E-006    2.18619E-005   -1.26126E+006   -1.26104E+005    4.68469E+005
               9   -1.11894E-005   -3.22897E-004   -1.51437E-005    6.32789E-006    6.72678E-006   -9.00898E+005    1.93143E+004    1.44145E+005
              10   -1.15680E-005   -3.89823E-004   -1.05815E-005    7.54013E-006   -8.40601E-006   -5.40386E+005    2.36253E+005   -1.80129E+005
              11   -1.17353E-005   -4.58135E-004   -1.11503E-005    9.88263E-006   -7.99689E-006   -5.14086E+005    3.87324E+005   -1.71362E+005
              12    3.00000E-034   -1.66454E-034    1.43131E-004   -6.45814E-032   -4.63188E-004    1.02236E+007    4.08945E+006   -9.92546E+006
              13    2.14696E-006   -6.94782E-006    4.12268E-005    4.13065E-006   -1.59764E-004    3.06279E+006    1.47296E+006   -3.42351E+006
              14    4.03934E-006   -2.61972E-005    3.53305E-005    6.26824E-006   -1.44625E-004    2.70270E+006    1.45717E+006   -3.09910E+006
              15    5.70422E-006   -5.63445E-005    3.02705E-005    6.30564E-006   -1.29490E-004    2.34234E+006    1.31528E+006   -2.77478E+006
              16    7.14205E-006   -9.60270E-005    2.52252E-005    6.30630E-006   -1.14354E-004    1.98198E+006    1.17117E+006   -2.45045E+006
              17    8.35287E-006   -1.43883E-004    2.01802E-005    6.30631E-006   -9.92192E-005    1.62162E+006    1.02703E+006   -2.12613E+006
              18    9.33665E-006   -1.98549E-004    1.51351E-005    6.30630E-006   -8.40841E-005    1.26126E+006    8.82883E+005   -1.80180E+006
              19    1.00934E-005   -2.58664E-004    1.00900E-005    6.30632E-006   -6.89490E-005    9.00898E+005    7.38739E+005   -1.47748E+006
              20    1.06231E-005   -3.22865E-004    5.04258E-006    6.30705E-006   -5.38162E-005    5.40386E+005    5.94577E+005   -1.15320E+006
              21    1.09257E-005   -3.89791E-004   -1.40288E-007    6.34839E-006   -3.88159E-005    1.71362E+005    4.49448E+005   -8.31768E+005
              22    1.09955E-005   -4.58086E-004   -3.25030E-006    8.12576E-006   -3.11111E-005    0.00000E+000    4.87545E+005   -6.66667E+005


