********************************************************************************
Field Output Report, written Sat Sep 16 16:27:27 2017

Source 1
---------

   ODB: C:/Users/edgarrios/Desktop/cantileverAbaqus.odb
   Step: myLoadingStep10N
   Frame: Increment      1: Step Time =    1.000

Loc 1 : Nodal values from source 1

Output sorted by column "Node Label".

Field Output reported at nodes for part: MYBEAMPART-1
   Computation algorithm: EXTRAPOLATE_COMPUTE_AVERAGE
   Averaged at nodes
   Averaging regions: ODB_REGIONS

      Node Label     U.Magnitude            U.U1            U.U2    UT.Magnitude          UT.UT1          UT.UT2           E.E11           E.E22           E.E33           E.E12         EE.EE11         EE.EE22         EE.EE33         EE.EE12         ER.ER11         ER.ER22         ER.ER33         ER.ER12           S.S11           S.S22           S.S33           S.S12
                          @Loc 1          @Loc 1          @Loc 1          @Loc 1          @Loc 1          @Loc 1          @Loc 1          @Loc 1          @Loc 1          @Loc 1          @Loc 1          @Loc 1          @Loc 1          @Loc 1          @Loc 1          @Loc 1          @Loc 1          @Loc 1          @Loc 1          @Loc 1          @Loc 1          @Loc 1
---------------------------------------------------------------------------------------------------------------------------------------------------------------------------------------------------------------------------------------------------------------------------------------------------------------------------------------------------------------------------------
               1    0.00000E+000   -3.00000E-034    1.53716E-034    0.00000E+000   -3.00000E-034    1.53716E-034   -3.50509E-006    8.76280E-006    0.00000E+000   -9.33334E-005   -3.50509E-006    8.76280E-006    0.00000E+000   -9.33334E-005   -3.50509E-006    8.76280E-006    0.00000E+000   -9.33334E-005    0.00000E+000    5.25768E-001    0.00000E+000   -2.00000E+000
               2    9.39888E-003   -6.39496E-003   -6.88792E-003    9.39888E-003   -6.39496E-003   -6.88792E-003   -4.31059E-004    1.76633E-005    0.00000E+000    3.28908E-004   -4.31059E-004    1.76633E-005    0.00000E+000    3.28908E-004   -4.31059E-004    1.76633E-005    0.00000E+000    3.28908E-004   -3.02853E+001   -1.10543E+001    0.00000E+000    7.04803E+000
               3    2.91037E-002   -1.25694E-002   -2.62495E-002    2.91037E-002   -1.25694E-002   -2.62495E-002   -4.16417E-004    1.79420E-005    0.00000E+000    3.15866E-004   -4.16417E-004    1.79420E-005    0.00000E+000    3.15866E-004   -4.16417E-004    1.79420E-005    0.00000E+000    3.15866E-004   -2.92315E+001   -1.06161E+001    0.00000E+000    6.76855E+000
               4    6.05755E-002   -1.85284E-002   -5.76722E-002    6.05755E-002   -1.85284E-002   -5.76722E-002   -4.02051E-004    1.79486E-005    0.00000E+000    3.01538E-004   -4.02051E-004    1.79486E-005    0.00000E+000    3.01538E-004   -4.02051E-004    1.79486E-005    0.00000E+000    3.01538E-004   -2.82051E+001   -1.02051E+001    0.00000E+000    6.46152E+000
               5    1.03609E-001   -2.42720E-002   -1.00726E-001    1.03609E-001   -2.42720E-002   -1.00726E-001   -3.87692E-004    1.79487E-005    0.00000E+000    2.87179E-004   -3.87692E-004    1.79487E-005    0.00000E+000    2.87179E-004   -3.87692E-004    1.79487E-005    0.00000E+000    2.87179E-004   -2.71795E+001   -9.79487E+000    0.00000E+000    6.15385E+000
               6    1.57818E-001   -2.98002E-002   -1.54979E-001    1.57818E-001   -2.98002E-002   -1.54979E-001   -3.73333E-004    1.79487E-005    0.00000E+000    2.72821E-004   -3.73333E-004    1.79487E-005    0.00000E+000    2.72821E-004   -3.73333E-004    1.79487E-005    0.00000E+000    2.72821E-004   -2.61538E+001   -9.38461E+000    0.00000E+000    5.84615E+000
               7    2.22786E-001   -3.51130E-002   -2.20002E-001    2.22786E-001   -3.51130E-002   -2.20002E-001   -3.58974E-004    1.79487E-005    0.00000E+000    2.58462E-004   -3.58974E-004    1.79487E-005    0.00000E+000    2.58462E-004   -3.58974E-004    1.79487E-005    0.00000E+000    2.58462E-004   -2.51282E+001   -8.97436E+000    0.00000E+000    5.53846E+000
               8    2.98087E-001   -4.02105E-002   -2.95363E-001    2.98087E-001   -4.02105E-002   -2.95363E-001   -3.44615E-004    1.79487E-005    0.00000E+000    2.44103E-004   -3.44615E-004    1.79487E-005    0.00000E+000    2.44103E-004   -3.44615E-004    1.79487E-005    0.00000E+000    2.44103E-004   -2.41026E+001   -8.56410E+000    0.00000E+000    5.23077E+000
               9    3.83293E-001   -4.50925E-002   -3.80632E-001    3.83293E-001   -4.50925E-002   -3.80632E-001   -3.30256E-004    1.79487E-005    0.00000E+000    2.29744E-004   -3.30256E-004    1.79487E-005    0.00000E+000    2.29744E-004   -3.30256E-004    1.79487E-005    0.00000E+000    2.29744E-004   -2.30769E+001   -8.15385E+000    0.00000E+000    4.92308E+000
              10    4.77975E-001   -4.97592E-002   -4.75378E-001    4.77975E-001   -4.97592E-002   -4.75378E-001   -3.15897E-004    1.79487E-005    0.00000E+000    2.15385E-004   -3.15897E-004    1.79487E-005    0.00000E+000    2.15385E-004   -3.15897E-004    1.79487E-005    0.00000E+000    2.15385E-004   -2.20513E+001   -7.74359E+000    0.00000E+000    4.61538E+000
              11    5.81701E-001   -5.42105E-002   -5.79169E-001    5.81701E-001   -5.42105E-002   -5.79169E-001   -3.01538E-004    1.79487E-005    0.00000E+000    2.01026E-004   -3.01538E-004    1.79487E-005    0.00000E+000    2.01026E-004   -3.01538E-004    1.79487E-005    0.00000E+000    2.01026E-004   -2.10256E+001   -7.33333E+000    0.00000E+000    4.30769E+000
              12    6.94042E-001   -5.84464E-002   -6.91577E-001    6.94042E-001   -5.84464E-002   -6.91577E-001   -2.87179E-004    1.79487E-005    0.00000E+000    1.86667E-004   -2.87179E-004    1.79487E-005    0.00000E+000    1.86667E-004   -2.87179E-004    1.79487E-005    0.00000E+000    1.86667E-004   -2.00000E+001   -6.92308E+000    0.00000E+000    4.00000E+000
              13    8.14567E-001   -6.24669E-002   -8.12169E-001    8.14567E-001   -6.24669E-002   -8.12169E-001   -2.72820E-004    1.79487E-005    0.00000E+000    1.72308E-004   -2.72820E-004    1.79487E-005    0.00000E+000    1.72308E-004   -2.72820E-004    1.79487E-005    0.00000E+000    1.72308E-004   -1.89744E+001   -6.51282E+000    0.00000E+000    3.69231E+000
              14    9.42846E-001   -6.62720E-002   -9.40514E-001    9.42846E-001   -6.62720E-002   -9.40514E-001   -2.58462E-004    1.79487E-005    0.00000E+000    1.57949E-004   -2.58462E-004    1.79487E-005    0.00000E+000    1.57949E-004   -2.58462E-004    1.79487E-005    0.00000E+000    1.57949E-004   -1.79487E+001   -6.10256E+000    0.00000E+000    3.38461E+000
              15    1.07845E+000   -6.98618E-002   -1.07618E+000    1.07845E+000   -6.98618E-002   -1.07618E+000   -2.44103E-004    1.79487E-005    0.00000E+000    1.43590E-004   -2.44103E-004    1.79487E-005    0.00000E+000    1.43590E-004   -2.44103E-004    1.79487E-005    0.00000E+000    1.43590E-004   -1.69231E+001   -5.69231E+000    0.00000E+000    3.07692E+000
              16    1.22094E+000   -7.32361E-002   -1.21874E+000    1.22094E+000   -7.32361E-002   -1.21874E+000   -2.29744E-004    1.79487E-005    0.00000E+000    1.29231E-004   -2.29744E-004    1.79487E-005    0.00000E+000    1.29231E-004   -2.29744E-004    1.79487E-005    0.00000E+000    1.29231E-004   -1.58974E+001   -5.28205E+000    0.00000E+000    2.76923E+000
              17    1.36990E+000   -7.63951E-002   -1.36777E+000    1.36990E+000   -7.63951E-002   -1.36777E+000   -2.15385E-004    1.79487E-005    0.00000E+000    1.14872E-004   -2.15385E-004    1.79487E-005    0.00000E+000    1.14872E-004   -2.15385E-004    1.79487E-005    0.00000E+000    1.14872E-004   -1.48718E+001   -4.87179E+000    0.00000E+000    2.46154E+000
              18    1.52489E+000   -7.93387E-002   -1.52282E+000    1.52489E+000   -7.93387E-002   -1.52282E+000   -2.01026E-004    1.79487E-005    0.00000E+000    1.00513E-004   -2.01026E-004    1.79487E-005    0.00000E+000    1.00513E-004   -2.01026E-004    1.79487E-005    0.00000E+000    1.00513E-004   -1.38462E+001   -4.46154E+000    0.00000E+000    2.15385E+000
              19    1.68547E+000   -8.20669E-002   -1.68347E+000    1.68547E+000   -8.20669E-002   -1.68347E+000   -1.86667E-004    1.79487E-005    0.00000E+000    8.61539E-005   -1.86667E-004    1.79487E-005    0.00000E+000    8.61539E-005   -1.86667E-004    1.79487E-005    0.00000E+000    8.61539E-005   -1.28205E+001   -4.05128E+000    0.00000E+000    1.84615E+000
              20    1.85123E+000   -8.45797E-002   -1.84930E+000    1.85123E+000   -8.45797E-002   -1.84930E+000   -1.72308E-004    1.79487E-005    0.00000E+000    7.17949E-005   -1.72308E-004    1.79487E-005    0.00000E+000    7.17949E-005   -1.72308E-004    1.79487E-005    0.00000E+000    7.17949E-005   -1.17949E+001   -3.64103E+000    0.00000E+000    1.53846E+000
              21    2.02173E+000   -8.68771E-002   -2.01986E+000    2.02173E+000   -8.68771E-002   -2.01986E+000   -1.57949E-004    1.79487E-005    0.00000E+000    5.74359E-005   -1.57949E-004    1.79487E-005    0.00000E+000    5.74359E-005   -1.57949E-004    1.79487E-005    0.00000E+000    5.74359E-005   -1.07692E+001   -3.23077E+000    0.00000E+000    1.23077E+000
              22    2.19653E+000   -8.89592E-002   -2.19473E+000    2.19653E+000   -8.89592E-002   -2.19473E+000   -1.43590E-004    1.79487E-005    0.00000E+000    4.30769E-005   -1.43590E-004    1.79487E-005    0.00000E+000    4.30769E-005   -1.43590E-004    1.79487E-005    0.00000E+000    4.30769E-005   -9.74359E+000   -2.82051E+000    0.00000E+000    9.23077E-001
              23    2.37521E+000   -9.08259E-002   -2.37347E+000    2.37521E+000   -9.08259E-002   -2.37347E+000   -1.29231E-004    1.79487E-005    0.00000E+000    2.87179E-005   -1.29231E-004    1.79487E-005    0.00000E+000    2.87179E-005   -1.29231E-004    1.79487E-005    0.00000E+000    2.87179E-005   -8.71795E+000   -2.41026E+000    0.00000E+000    6.15385E-001
              24    2.55734E+000   -9.24771E-002   -2.55566E+000    2.55734E+000   -9.24771E-002   -2.55566E+000   -1.14872E-004    1.79487E-005    0.00000E+000    1.43590E-005   -1.14872E-004    1.79487E-005    0.00000E+000    1.43590E-005   -1.14872E-004    1.79487E-005    0.00000E+000    1.43590E-005   -7.69231E+000   -2.00000E+000    0.00000E+000    3.07692E-001
              25    2.74248E+000   -9.39130E-002   -2.74087E+000    2.74248E+000   -9.39130E-002   -2.74087E+000   -1.00513E-004    1.79487E-005    0.00000E+000    0.00000E+000   -1.00513E-004    1.79487E-005    0.00000E+000    0.00000E+000   -1.00513E-004    1.79487E-005    0.00000E+000    0.00000E+000   -6.66667E+000   -1.58974E+000    0.00000E+000    7.94729E-008
              26    2.93021E+000   -9.51336E-002   -2.92866E+000    2.93021E+000   -9.51336E-002   -2.92866E+000   -8.61538E-005    1.79487E-005    0.00000E+000   -1.43590E-005   -8.61538E-005    1.79487E-005    0.00000E+000   -1.43590E-005   -8.61538E-005    1.79487E-005    0.00000E+000   -1.43590E-005   -5.64103E+000   -1.17949E+000    0.00000E+000   -3.07692E-001
              27    3.12009E+000   -9.61387E-002   -3.11861E+000    3.12009E+000   -9.61387E-002   -3.11861E+000   -7.17949E-005    1.79487E-005    0.00000E+000   -2.87179E-005   -7.17949E-005    1.79487E-005    0.00000E+000   -2.87179E-005   -7.17949E-005    1.79487E-005    0.00000E+000   -2.87179E-005   -4.61538E+000   -7.69231E-001    0.00000E+000   -6.15385E-001
              28    3.31170E+000   -9.69284E-002   -3.31028E+000    3.31170E+000   -9.69284E-002   -3.31028E+000   -5.74359E-005    1.79487E-005    0.00000E+000   -4.30769E-005   -5.74359E-005    1.79487E-005    0.00000E+000   -4.30769E-005   -5.74359E-005    1.79487E-005    0.00000E+000   -4.30769E-005   -3.58974E+000   -3.58974E-001    0.00000E+000   -9.23077E-001
              29    3.50460E+000   -9.75028E-002   -3.50324E+000    3.50460E+000   -9.75028E-002   -3.50324E+000   -4.30769E-005    1.79487E-005    0.00000E+000   -5.74359E-005   -4.30769E-005    1.79487E-005    0.00000E+000   -5.74359E-005   -4.30769E-005    1.79487E-005    0.00000E+000   -5.74359E-005   -2.56410E+000    5.12820E-002    0.00000E+000   -1.23077E+000
              30    3.69836E+000   -9.78618E-002   -3.69706E+000    3.69836E+000   -9.78618E-002   -3.69706E+000   -2.87179E-005    1.79487E-005    0.00000E+000   -7.17949E-005   -2.87179E-005    1.79487E-005    0.00000E+000   -7.17949E-005   -2.87179E-005    1.79487E-005    0.00000E+000   -7.17949E-005   -1.53846E+000    4.61538E-001    0.00000E+000   -1.53846E+000
              31    3.89255E+000   -9.80053E-002   -3.89132E+000    3.89255E+000   -9.80053E-002   -3.89132E+000   -2.87179E-005    1.79487E-005    0.00000E+000   -7.17949E-005   -2.87179E-005    1.79487E-005    0.00000E+000   -7.17949E-005   -2.87179E-005    1.79487E-005    0.00000E+000   -7.17949E-005   -1.53846E+000    4.61538E-001    0.00000E+000   -1.53846E+000
              32    0.00000E+000    3.00000E-034   -1.63716E-034    0.00000E+000    3.00000E-034   -1.63716E-034    1.27198E-003   -6.34865E-035    0.00000E+000   -1.36006E-003    1.27198E-003   -6.34865E-035    0.00000E+000   -1.36006E-003    1.27198E-003   -6.34865E-035    0.00000E+000   -1.36006E-003    9.08559E+001    3.63424E+001    0.00000E+000   -2.91441E+001
              33    9.31088E-003    6.35991E-003   -6.80029E-003    9.31088E-003    6.35991E-003   -6.80029E-003    4.04567E-004    1.16837E-005    0.00000E+000   -5.02532E-004    4.04567E-004    1.16837E-005    0.00000E+000   -5.02532E-004    4.04567E-004    1.16837E-005    0.00000E+000   -5.02532E-004    2.92315E+001    1.23936E+001    0.00000E+000   -1.07685E+001
              34    2.89771E-002    1.24635E-002   -2.61598E-002    2.89771E-002    1.24635E-002   -2.61598E-002    3.87752E-004    1.78010E-005    0.00000E+000   -4.88204E-004    3.87752E-004    1.78010E-005    0.00000E+000   -4.88204E-004    3.87752E-004    1.78010E-005    0.00000E+000   -4.88204E-004    2.82051E+001    1.23501E+001    0.00000E+000   -1.04615E+001
              35    6.04358E-002    1.83507E-002   -5.75825E-002    6.04358E-002    1.83507E-002   -5.75825E-002    3.73335E-004    1.79452E-005    0.00000E+000   -4.73846E-004    3.73335E-004    1.79452E-005    0.00000E+000   -4.73846E-004    3.73335E-004    1.79452E-005    0.00000E+000   -4.73846E-004    2.71795E+001    1.19485E+001    0.00000E+000   -1.01538E+001
              36    1.03463E-001    2.40225E-002   -1.00636E-001    1.03463E-001    2.40225E-002   -1.00636E-001    3.58974E-004    1.79486E-005    0.00000E+000   -4.59487E-004    3.58974E-004    1.79486E-005    0.00000E+000   -4.59487E-004    3.58974E-004    1.79486E-005    0.00000E+000   -4.59487E-004    2.61538E+001    1.15385E+001    0.00000E+000   -9.84615E+000
              37    1.57670E-001    2.94789E-002   -1.54889E-001    1.57670E-001    2.94789E-002   -1.54889E-001    3.44615E-004    1.79487E-005    0.00000E+000   -4.45128E-004    3.44615E-004    1.79487E-005    0.00000E+000   -4.45128E-004    3.44615E-004    1.79487E-005    0.00000E+000   -4.45128E-004    2.51282E+001    1.11282E+001    0.00000E+000   -9.53846E+000
              38    2.22636E-001    3.47199E-002   -2.19912E-001    2.22636E-001    3.47199E-002   -2.19912E-001    3.30256E-004    1.79487E-005    0.00000E+000   -4.30769E-004    3.30256E-004    1.79487E-005    0.00000E+000   -4.30769E-004    3.30256E-004    1.79487E-005    0.00000E+000   -4.30769E-004    2.41026E+001    1.07179E+001    0.00000E+000   -9.23077E+000
              39    2.97936E-001    3.97455E-002   -2.95273E-001    2.97936E-001    3.97455E-002   -2.95273E-001    3.15897E-004    1.79487E-005    0.00000E+000   -4.16410E-004    3.15897E-004    1.79487E-005    0.00000E+000   -4.16410E-004    3.15897E-004    1.79487E-005    0.00000E+000   -4.16410E-004    2.30769E+001    1.03077E+001    0.00000E+000   -8.92308E+000
              40    3.83142E-001    4.45558E-002   -3.80542E-001    3.83142E-001    4.45558E-002   -3.80542E-001    3.01538E-004    1.79487E-005    0.00000E+000   -4.02051E-004    3.01538E-004    1.79487E-005    0.00000E+000   -4.02051E-004    3.01538E-004    1.79487E-005    0.00000E+000   -4.02051E-004    2.20513E+001    9.89744E+000    0.00000E+000   -8.61538E+000
              41    4.77822E-001    4.91507E-002   -4.75288E-001    4.77822E-001    4.91507E-002   -4.75288E-001    2.87179E-004    1.79487E-005    0.00000E+000   -3.87692E-004    2.87179E-004    1.79487E-005    0.00000E+000   -3.87692E-004    2.87179E-004    1.79487E-005    0.00000E+000   -3.87692E-004    2.10256E+001    9.48718E+000    0.00000E+000   -8.30769E+000
              42    5.81549E-001    5.35302E-002   -5.79080E-001    5.81549E-001    5.35302E-002   -5.79080E-001    2.72820E-004    1.79487E-005    0.00000E+000   -3.73333E-004    2.72820E-004    1.79487E-005    0.00000E+000   -3.73333E-004    2.72820E-004    1.79487E-005    0.00000E+000   -3.73333E-004    2.00000E+001    9.07692E+000    0.00000E+000   -8.00000E+000
              43    6.93890E-001    5.76943E-002   -6.91487E-001    6.93890E-001    5.76943E-002   -6.91487E-001    2.58462E-004    1.79487E-005    0.00000E+000   -3.58974E-004    2.58462E-004    1.79487E-005    0.00000E+000   -3.58974E-004    2.58462E-004    1.79487E-005    0.00000E+000   -3.58974E-004    1.89744E+001    8.66667E+000    0.00000E+000   -7.69231E+000
              44    8.14415E-001    6.16430E-002   -8.12079E-001    8.14415E-001    6.16430E-002   -8.12079E-001    2.44103E-004    1.79487E-005    0.00000E+000   -3.44615E-004    2.44103E-004    1.79487E-005    0.00000E+000   -3.44615E-004    2.44103E-004    1.79487E-005    0.00000E+000   -3.44615E-004    1.79487E+001    8.25641E+000    0.00000E+000   -7.38462E+000
              45    9.42694E-001    6.53763E-002   -9.40425E-001    9.42694E-001    6.53763E-002   -9.40425E-001    2.29744E-004    1.79487E-005    0.00000E+000   -3.30256E-004    2.29744E-004    1.79487E-005    0.00000E+000   -3.30256E-004    2.29744E-004    1.79487E-005    0.00000E+000   -3.30256E-004    1.69231E+001    7.84615E+000    0.00000E+000   -7.07692E+000
              46    1.07830E+000    6.88943E-002   -1.07609E+000    1.07830E+000    6.88943E-002   -1.07609E+000    2.15385E-004    1.79487E-005    0.00000E+000   -3.15897E-004    2.15385E-004    1.79487E-005    0.00000E+000   -3.15897E-004    2.15385E-004    1.79487E-005    0.00000E+000   -3.15897E-004    1.58974E+001    7.43590E+000    0.00000E+000   -6.76923E+000
              47    1.22079E+000    7.21968E-002   -1.21865E+000    1.22079E+000    7.21968E-002   -1.21865E+000    2.01026E-004    1.79487E-005    0.00000E+000   -3.01538E-004    2.01026E-004    1.79487E-005    0.00000E+000   -3.01538E-004    2.01026E-004    1.79487E-005    0.00000E+000   -3.01538E-004    1.48718E+001    7.02564E+000    0.00000E+000   -6.46154E+000
              48    1.36975E+000    7.52840E-002   -1.36768E+000    1.36975E+000    7.52840E-002   -1.36768E+000    1.86667E-004    1.79487E-005    0.00000E+000   -2.87179E-004    1.86667E-004    1.79487E-005    0.00000E+000   -2.87179E-004    1.86667E-004    1.79487E-005    0.00000E+000   -2.87179E-004    1.38462E+001    6.61539E+000    0.00000E+000   -6.15385E+000
              49    1.52474E+000    7.81558E-002   -1.52273E+000    1.52474E+000    7.81558E-002   -1.52273E+000    1.72308E-004    1.79487E-005    0.00000E+000   -2.72820E-004    1.72308E-004    1.79487E-005    0.00000E+000   -2.72820E-004    1.72308E-004    1.79487E-005    0.00000E+000   -2.72820E-004    1.28205E+001    6.20513E+000    0.00000E+000   -5.84615E+000
              50    1.68532E+000    8.08122E-002   -1.68338E+000    1.68532E+000    8.08122E-002   -1.68338E+000    1.57949E-004    1.79487E-005    0.00000E+000   -2.58462E-004    1.57949E-004    1.79487E-005    0.00000E+000   -2.58462E-004    1.57949E-004    1.79487E-005    0.00000E+000   -2.58462E-004    1.17949E+001    5.79487E+000    0.00000E+000   -5.53846E+000
              51    1.85108E+000    8.32532E-002   -1.84921E+000    1.85108E+000    8.32532E-002   -1.84921E+000    1.43590E-004    1.79487E-005    0.00000E+000   -2.44103E-004    1.43590E-004    1.79487E-005    0.00000E+000   -2.44103E-004    1.43590E-004    1.79487E-005    0.00000E+000   -2.44103E-004    1.07692E+001    5.38462E+000    0.00000E+000   -5.23077E+000
              52    2.02158E+000    8.54789E-002   -2.01977E+000    2.02158E+000    8.54789E-002   -2.01977E+000    1.29231E-004    1.79487E-005    0.00000E+000   -2.29744E-004    1.29231E-004    1.79487E-005    0.00000E+000   -2.29744E-004    1.29231E-004    1.79487E-005    0.00000E+000   -2.29744E-004    9.74359E+000    4.97436E+000    0.00000E+000   -4.92308E+000
              53    2.19638E+000    8.74891E-002   -2.19464E+000    2.19638E+000    8.74891E-002   -2.19464E+000    1.14872E-004    1.79487E-005    0.00000E+000   -2.15385E-004    1.14872E-004    1.79487E-005    0.00000E+000   -2.15385E-004    1.14872E-004    1.79487E-005    0.00000E+000   -2.15385E-004    8.71795E+000    4.56410E+000    0.00000E+000   -4.61538E+000
              54    2.37506E+000    8.92840E-002   -2.37338E+000    2.37506E+000    8.92840E-002   -2.37338E+000    1.00513E-004    1.79487E-005    0.00000E+000   -2.01026E-004    1.00513E-004    1.79487E-005    0.00000E+000   -2.01026E-004    1.00513E-004    1.79487E-005    0.00000E+000   -2.01026E-004    7.69231E+000    4.15385E+000    0.00000E+000   -4.30769E+000
              55    2.55719E+000    9.08635E-002   -2.55557E+000    2.55719E+000    9.08635E-002   -2.55557E+000    8.61538E-005    1.79487E-005    0.00000E+000   -1.86667E-004    8.61538E-005    1.79487E-005    0.00000E+000   -1.86667E-004    8.61538E-005    1.79487E-005    0.00000E+000   -1.86667E-004    6.66667E+000    3.74359E+000    0.00000E+000   -4.00000E+000
              56    2.74233E+000    9.22276E-002   -2.74078E+000    2.74233E+000    9.22276E-002   -2.74078E+000    7.17949E-005    1.79487E-005    0.00000E+000   -1.72308E-004    7.17949E-005    1.79487E-005    0.00000E+000   -1.72308E-004    7.17949E-005    1.79487E-005    0.00000E+000   -1.72308E-004    5.64103E+000    3.33333E+000    0.00000E+000   -3.69231E+000
              57    2.93006E+000    9.33763E-002   -2.92857E+000    2.93006E+000    9.33763E-002   -2.92857E+000    5.74359E-005    1.79487E-005    0.00000E+000   -1.57949E-004    5.74359E-005    1.79487E-005    0.00000E+000   -1.57949E-004    5.74359E-005    1.79487E-005    0.00000E+000   -1.57949E-004    4.61538E+000    2.92308E+000    0.00000E+000   -3.38462E+000
              58    3.11995E+000    9.43096E-002   -3.11852E+000    3.11995E+000    9.43096E-002   -3.11852E+000    4.30769E-005    1.79487E-005    0.00000E+000   -1.43590E-004    4.30769E-005    1.79487E-005    0.00000E+000   -1.43590E-004    4.30769E-005    1.79487E-005    0.00000E+000   -1.43590E-004    3.58974E+000    2.51282E+000    0.00000E+000   -3.07692E+000
              59    3.31155E+000    9.50276E-002   -3.31019E+000    3.31155E+000    9.50276E-002   -3.31019E+000    2.87180E-005    1.79487E-005    0.00000E+000   -1.29231E-004    2.87180E-005    1.79487E-005    0.00000E+000   -1.29231E-004    2.87180E-005    1.79487E-005    0.00000E+000   -1.29231E-004    2.56410E+000    2.10256E+000    0.00000E+000   -2.76923E+000
              60    3.50445E+000    9.55302E-002   -3.50315E+000    3.50445E+000    9.55302E-002   -3.50315E+000    1.43590E-005    1.79487E-005    0.00000E+000   -1.14872E-004    1.43590E-005    1.79487E-005    0.00000E+000   -1.14872E-004    1.43590E-005    1.79487E-005    0.00000E+000   -1.14872E-004    1.53846E+000    1.69231E+000    0.00000E+000   -2.46154E+000
              61    3.69821E+000    9.58173E-002   -3.69697E+000    3.69821E+000    9.58173E-002   -3.69697E+000   -3.03165E-013    1.79487E-005    0.00000E+000   -1.00513E-004   -3.03165E-013    1.79487E-005    0.00000E+000   -1.00513E-004   -3.03165E-013    1.79487E-005    0.00000E+000   -1.00513E-004    5.12821E-001    1.28205E+000    0.00000E+000   -2.15385E+000
              62    3.89241E+000    9.58891E-002   -3.89123E+000    3.89241E+000    9.58891E-002   -3.89123E+000   -7.17949E-006    1.79487E-005    0.00000E+000   -9.33333E-005   -7.17949E-006    1.79487E-005    0.00000E+000   -9.33333E-005   -7.17949E-006    1.79487E-005    0.00000E+000   -9.33333E-005    0.00000E+000    1.07692E+000    0.00000E+000   -2.00000E+000


