%!PS-Adobe-3.0
%%Title: hw3.py
%%For: e-Dgar
%%Creator: a2ps version 4.14
%%CreationDate: Tue Jan 31 01:47:46 2017
%%BoundingBox: 24 24 588 768
%%DocumentData: Clean7Bit
%%Orientation: Landscape
%%Pages: 1
%%PageOrder: Ascend
%%DocumentMedia: Letter 612 792 0 () ()
%%DocumentNeededResources: font Courier
%%+ font Courier-Bold
%%+ font Helvetica
%%+ font Helvetica-Bold
%%+ font Symbol
%%+ font Times-Bold
%%+ font Times-Roman
%%DocumentProcessColors: Black Blue Green Red 
%%DocumentSuppliedResources: procset a2ps-color-prolog
%%+ encoding ISO-8859-1Encoding
%%EndComments
/a2psdict 200 dict def
a2psdict begin
%%BeginProlog
%%Copyright: (c) 1988, 89, 90, 91, 92, 93 Miguel Santana
%%Copyright: (c) 1995, 96, 97, 98 Akim Demaille, Miguel Santana
% Check PostScript language level.
/languagelevel where {
  pop /gs_languagelevel languagelevel def
} {
  /gs_languagelevel 1 def
} ifelse

% EPSF import as in the Red Book
/BeginInclude {
  /b4_Inc_state save def    		% Save state for cleanup
  /dict_count countdictstack def	% Count objects on dict stack
  /op_count count 1 sub def		% Count objects on operand stack 
  userdict begin
    0 setgray 0 setlinecap
    1 setlinewidth 0 setlinejoin
    10 setmiterlimit [ ] 0 setdash newpath
    gs_languagelevel 1 ne {
      false setstrokeadjust false setoverprint 
    } if
} bind def

/EndInclude {
  count op_count sub { pos } repeat	% Clean up stacks
  countdictstack dict_count sub { end } repeat
  b4_Inc_state restore
} bind def

/BeginEPSF {
  BeginInclude
  /showpage { } def
} bind def

/EndEPSF {
  EndInclude
} bind def

% Page prefeed
/page_prefeed {         % bool -> -
  statusdict /prefeed known {
    statusdict exch /prefeed exch put
  } {
    pop
  } ifelse
} bind def

/deffont {
  findfont exch scalefont def
} bind def

/reencode_font {
  findfont reencode 2 copy definefont pop def
} bind def

% Function c-show (str => -)
% centers text only according to x axis.
/c-show { 
  dup stringwidth pop
  2 div neg 0 rmoveto
  show
} bind def

% Function l-show (str => -)
% prints texts so that it ends at currentpoint
/l-show {
  dup stringwidth pop neg 
  0 
  rmoveto show
} bind def

% center-fit show (str w => -)
% show centered, and scale currentfont so that the width is less than w
/cfshow {
  exch dup stringwidth pop
  % If the title is too big, try to make it smaller
  3 2 roll 2 copy
  gt
  { % if, i.e. too big
    exch div
    currentfont exch scalefont setfont
  } { % ifelse
    pop pop 
  }
  ifelse
  c-show			% center title
} bind def

% Return the y size of the current font
% - => fontsize
/currentfontsize {
  currentfont /FontType get 0 eq {
    currentfont /FontMatrix get 3 get
  }{
    currentfont /FontMatrix get 3 get 1000 mul
  } ifelse
} bind def

% reencode the font
% <encoding-vector> <fontdict> -> <newfontdict>
/reencode { %def
  dup length 5 add dict begin
    { %forall
      % <vector> <key> <val>
      1 index /FID ne 
      { def }{ pop pop } ifelse
    } forall
    /Encoding exch def % -

    % Use the font's bounding box to determine the ascent, descent,
    % and overall height; don't forget that these values have to be
    % transformed using the font's matrix.
    % We use `load' because sometimes BBox is executable, sometimes not.
    % Since we need 4 numbers an not an array avoid BBox from being executed
    /FontBBox load aload pop
    FontMatrix transform /Ascent exch def pop
    FontMatrix transform /Descent exch def pop
    /FontHeight Ascent Descent sub def

    % Get the underline position and thickness if they're defined.
    % Use 1 if they are not defined.
    currentdict /FontInfo 2 copy known
    { get
      /UnderlinePosition 2 copy % <FontInfo> /UP <FontInfo> /UP
      2 copy known
      { get }{ pop pop 1 } ifelse
      0 exch FontMatrix transform exch pop
      def % <FontInfo>

      /UnderlineThickness 2 copy % <FontInfo> /UT <FontInfo> /UT
      2 copy known
      { get }{ pop pop 1 } ifelse
      0 exch FontMatrix transform exch pop
      def % <FontInfo>
      pop % -
    }{ pop pop
    } ifelse

    currentdict
  end 
} bind def

% composite fonts for ASCII-EUC mixed strings
% Version 1.2 1/31/1990
% Original Ken'ichi HANDA (handa@etl.go.jp)
% Modified Norio Katayama (katayama@rd.nacsis.ac.jp),1998
% Extend & Fix Koji Nakamaru (maru@on.cs.keio.ac.jp), 1999
% Anyone can freely copy, modify, distribute this program.

/copyfont {	% font-dic extra-entry-count  copyfont  font-dic
	1 index maxlength add dict begin
	{	1 index /FID ne 2 index /UniqueID ne and
		{def} {pop pop} ifelse
	} forall
	currentdict
	end
} bind def

/compositefont { % ASCIIFontName EUCFontName RomanScale RomanOffset Rot(T/F) compositefont font
    /RomanRotation exch def
    /RomanOffset exch def
    /RomanScale exch def
    userdict /fixeucfont_dict known not {
	userdict begin
	    /fixeucfont_dict 2 dict begin
		/UpperByteEncoding [
		    16#00 1 16#20 { pop 0 } for
		    16#21 1 16#28 { 16#20 sub } for
		    16#29 1 16#2F { pop 0 } for
		    16#30 1 16#74 { 16#27 sub } for
		    16#75 1 16#FF { pop 0 } for
		] def
	        /LowerByteEncoding [
		    16#00 1 16#A0 { pop /.notdef } for
		    16#A1 1 16#FE { 16#80 sub 16 2 string cvrs
				    (cXX) dup 1 4 -1 roll
				    putinterval cvn } for
		    /.notdef
		] def
		currentdict
	    end def
	end
    } if
    findfont dup /FontType get 0 eq {
	14 dict begin
	    %
	    % 7+8 bit EUC font
	    %
	    12 dict begin
		/EUCFont exch def
		/FontInfo (7+8 bit EUC font) readonly def
		/PaintType 0 def
		/FontType 0 def
		/FontMatrix matrix def
		% /FontName
		/Encoding fixeucfont_dict /UpperByteEncoding get def
		/FMapType 2 def
		EUCFont /WMode known
		{ EUCFont /WMode get /WMode exch def }
		{ /WMode 0 def } ifelse
		/FDepVector [
		    EUCFont /FDepVector get 0 get
		    [ 16#21 1 16#28 {} for 16#30 1 16#74 {} for ]
		    {
			13 dict begin
			    /EUCFont EUCFont def
			    /UpperByte exch 16#80 add def	
			    % /FontName
			    /FontInfo (EUC lower byte font) readonly def
			    /PaintType 0 def
			    /FontType 3 def
			    /FontMatrix matrix def
			    /FontBBox {0 0 0 0} def
			    /Encoding
				fixeucfont_dict /LowerByteEncoding get def
			    % /UniqueID
			    % /WMode
			    /BuildChar {
				gsave
				exch dup /EUCFont get setfont
				/UpperByte get
				2 string
				dup 0 4 -1 roll put
				dup 1 4 -1 roll put
				dup stringwidth setcharwidth
				0 0 moveto show
				grestore
			    } bind def
			    currentdict
			end
			/lowerbytefont exch definefont
		    } forall
		] def
		currentdict
	    end
	    /eucfont exch definefont
	    exch
	    findfont 1 copyfont dup begin
		RomanRotation {
			/FontMatrix FontMatrix
			[ 0 RomanScale neg RomanScale 0 RomanOffset neg 0 ]
			matrix concatmatrix def
		}{
			/FontMatrix FontMatrix
			[ RomanScale 0 0 RomanScale 0 RomanOffset ] matrix concatmatrix
			def
			/CDevProc
			    {pop pop pop pop 0 exch -1000 exch 2 div 880} def
		} ifelse
	    end
	    /asciifont exch definefont
	    exch
	    /FDepVector [ 4 2 roll ] def
	    /FontType 0 def
	    /WMode 0 def
	    /FMapType 4 def
	    /FontMatrix matrix def
	    /Encoding [0 1] def
	    /FontBBox {0 0 0 0} def
%	    /FontHeight 1.0 def % XXXX
	    /FontHeight RomanScale 1.0 ge { RomanScale }{ 1.0 } ifelse def
	    /Descent -0.3 def   % XXXX
	    currentdict
	end
	/tmpfont exch definefont
	pop
	/tmpfont findfont
    }{
	pop findfont 0 copyfont
    } ifelse
} def	

/slantfont {	% FontName slant-degree  slantfont  font'
    exch findfont 1 copyfont begin
    [ 1 0 4 -1 roll 1 0 0 ] FontMatrix exch matrix concatmatrix
    /FontMatrix exch def
    currentdict
    end
} def

% Function print line number (<string> # -)
/# {
  gsave
    sx cw mul neg 2 div 0 rmoveto
    f# setfont
    c-show
  grestore
} bind def

% -------- Some routines to enlight plain b/w printings ---------

% Underline
% width --
/dounderline {
  currentpoint
  gsave
    moveto
    0 currentfont /Descent get currentfontsize mul rmoveto
    0 rlineto
    stroke
  grestore
} bind def

% Underline a string
% string --
/dounderlinestring {
  stringwidth pop
  dounderline
} bind def

/UL {
  /ul exch store
} bind def

% Draw a box of WIDTH wrt current font
% width --
/dobox {
  currentpoint
  gsave
    newpath
    moveto
    0 currentfont /Descent get currentfontsize mul rmoveto
    dup 0 rlineto
    0 currentfont /FontHeight get currentfontsize mul rlineto
    neg 0 rlineto
    closepath
    stroke
  grestore
} bind def

/BX {
  /bx exch store
} bind def

% Box a string
% string --
/doboxstring {
  stringwidth pop
  dobox
} bind def

%
% ------------- Color routines ---------------
%
/FG /setrgbcolor load def

% Draw the background
% width --
/dobackground {
  currentpoint
  gsave
    newpath
    moveto
    0 currentfont /Descent get currentfontsize mul rmoveto
    dup 0 rlineto
    0 currentfont /FontHeight get currentfontsize mul rlineto
    neg 0 rlineto
    closepath
    bgcolor aload pop setrgbcolor
    fill
  grestore
} bind def

% Draw bg for a string
% string --
/dobackgroundstring {
  stringwidth pop
  dobackground
} bind def


/BG {
  dup /bg exch store
  { mark 4 1 roll ] /bgcolor exch store } if
} bind def


/Show {
  bg { dup dobackgroundstring } if
  ul { dup dounderlinestring } if
  bx { dup doboxstring } if
  show
} bind def

% Function T(ab), jumps to the n-th tabulation in the current line
/T {
  cw mul x0 add
  bg { dup currentpoint pop sub dobackground } if
  ul { dup currentpoint pop sub dounderline } if
  bx { dup currentpoint pop sub dobox } if
  y0 moveto
} bind def

% Function n: move to the next line
/n {
  /y0 y0 bfs sub store
  x0 y0 moveto
} bind def

% Function N: show and move to the next line
/N {
  Show
  /y0 y0 bfs sub store
  x0 y0 moveto
} bind def

/S {
  Show
} bind def

%%Copyright: (c) 1988, 89, 90, 91, 92, 93 Miguel Santana
%%Copyright: (c) 1995, 96, 97, 98 Akim Demaille, Miguel Santana
% Function title: prints page header.
% <ct> <rt> <lt> are passed as argument
/title { 
  % 1. Draw the background
  x v get y v get moveto
  0 setgray
  gsave
    0 th 2 div neg rmoveto 
    th setlinewidth
    0.5 0.5 1 setrgbcolor
    pw 0 rlineto stroke
  grestore
  % 2. Border it
  gsave
    0.7 setlinewidth
    pw 0 rlineto
    0 th neg rlineto
    pw neg 0 rlineto
    closepath stroke
  grestore
  % stk: ct rt lt
  x v get y v get th sub 1 add moveto
%%IncludeResource: font Helvetica
  fHelvetica fnfs 0.8 mul scalefont setfont
  % 3. The left title
  gsave
    dup stringwidth pop fnfs 0.8 mul add exch % leave space took on stack
    fnfs 0.8 mul hm rmoveto
    show			% left title
  grestore
  exch
  % stk: ct ltw rt
  % 4. the right title
  gsave
    dup stringwidth pop fnfs 0.8 mul add exch % leave space took on stack
    dup
    pw exch stringwidth pop fnfs 0.8 mul add sub
    hm
    rmoveto
    show			% right title
  grestore
  % stk: ct ltw rtw
  % 5. the center title
  gsave
    pw 3 1 roll
    % stk: ct pw ltw rtw
    3 copy 
    % Move to the center of the left room
    sub add 2 div hm rmoveto
    % What is the available space in here?
    add sub fnfs 0.8 mul sub fnfs 0.8 mul sub
    % stk: ct space_left
%%IncludeResource: font Helvetica-Bold
  fHelvetica-Bold fnfs scalefont setfont
    1 setgray
    cfshow
  grestore
} bind def

% Function border: prints virtual page border
/border { %def
  gsave				% print four sides
    0 setgray
    x v get y v get moveto
    0.7 setlinewidth		% of the square
    pw 0 rlineto
    0 ph neg rlineto
    pw neg 0 rlineto
    closepath stroke
  grestore
} bind def

% Function water: prints a water mark in background
/water { %def
  gsave
    scx scy moveto rotate
%%IncludeResource: font Times-Bold
  fTimes-Bold 100 scalefont setfont
    .97 setgray
    dup stringwidth pop 2 div neg -50 rmoveto
    show
  grestore
} bind def

% Function rhead: prints the right header
/rhead {  %def
  lx ly moveto
  fHelvetica fnfs 0.8 mul scalefont setfont
  l-show
} bind def

% Function footer (cf rf lf -> -)
/footer {
  fHelvetica fnfs 0.8 mul scalefont setfont
  dx dy moveto
  show

  snx sny moveto
  l-show
  
  fnx fny moveto
  c-show
} bind def

% Function print line number (<string> # -)
/# {
  gsave
    sx cw mul neg 2 div 0 rmoveto
    f# setfont
    c-show
  grestore
} bind def
%%BeginResource: procset a2ps-color-prolog 2.0 1

%% Definition of the color faces.
/p {
  0 0 0 FG
  false BG
  false UL
  false BX
  fCourier bfs scalefont setfont
  Show
} bind def

/sy {
  0 0 0 FG
  false BG
  fSymbol bfs scalefont setfont
  Show
} bind def

/k {
  false BG
  false UL
  false BX
  0 0 0.9 FG
  fCourier bfs scalefont setfont
  Show
} bind def

/K {
  false BG
  false UL
  false BX
  0 0 0.8 FG
  fCourier-Bold bfs scalefont setfont
  Show
} bind def

/c {
  false BG
  false UL
  false BX
  0.8 0 0 FG
  fCourier bfs scalefont setfont
  Show
} bind def

/C {
  false BG
  false UL
  false BX
  0.8 0 0 FG
  fCourier-Bold bfs scalefont setfont
  Show
} bind def

/l {
  0 0 0 FG
  0.8 0.8 0 true BG
  false UL
  false BX
  fCourier bfs scalefont setfont
  Show
} bind def

/L {
  0 0 0 FG
  1 1 0 true BG
  false UL
  false BX
  fCourier-Bold bfs scalefont setfont
  Show
} bind def

/str {
  false BG
  false UL
  false BX
  0 0.5 0 FG
  fTimes-Roman bfs scalefont setfont
  Show
} bind def

/e{
  1 0 0 true BG
  false UL
  true BX
  1 1 1 FG
  fHelvetica-Bold bfs scalefont setfont
  Show
} bind def

% Function print line number (<string> # -)
/# {
  gsave
    sx cw mul 2 div neg 0 rmoveto
    f# setfont
    0.8 0.1 0.1 FG
    c-show
  grestore
} bind def
%%EndResource
%%EndProlog
%%BeginSetup
%%IncludeResource: font Courier
%%IncludeResource: font Courier-Bold
%%IncludeResource: font Times-Roman
%%IncludeResource: font Symbol
%%BeginResource: encoding ISO-8859-1Encoding
/ISO-8859-1Encoding [
/.notdef /.notdef /.notdef /.notdef /.notdef /.notdef /.notdef /.notdef 
/.notdef /.notdef /.notdef /.notdef /.notdef /.notdef /.notdef /.notdef 
/.notdef /.notdef /.notdef /.notdef /.notdef /.notdef /.notdef /.notdef 
/.notdef /.notdef /.notdef /.notdef /.notdef /.notdef /.notdef /.notdef 
/space /exclam /quotedbl /numbersign /dollar /percent /ampersand /quoteright 
/parenleft /parenright /asterisk /plus /comma /minus /period /slash 
/zero /one /two /three /four /five /six /seven 
/eight /nine /colon /semicolon /less /equal /greater /question 
/at /A /B /C /D /E /F /G 
/H /I /J /K /L /M /N /O 
/P /Q /R /S /T /U /V /W 
/X /Y /Z /bracketleft /backslash /bracketright /asciicircum /underscore 
/quoteleft /a /b /c /d /e /f /g 
/h /i /j /k /l /m /n /o 
/p /q /r /s /t /u /v /w 
/x /y /z /braceleft /bar /braceright /asciitilde /.notdef 
/.notdef /.notdef /.notdef /.notdef /.notdef /.notdef /.notdef /.notdef 
/.notdef /.notdef /.notdef /.notdef /.notdef /.notdef /.notdef /.notdef 
/.notdef /.notdef /.notdef /.notdef /.notdef /.notdef /.notdef /.notdef 
/.notdef /.notdef /.notdef /.notdef /.notdef /.notdef /.notdef /.notdef 
/space /exclamdown /cent /sterling /currency /yen /brokenbar /section 
/dieresis /copyright /ordfeminine /guillemotleft /logicalnot /hyphen /registered /macron 
/degree /plusminus /twosuperior /threesuperior /acute /mu /paragraph /bullet 
/cedilla /onesuperior /ordmasculine /guillemotright /onequarter /onehalf /threequarters /questiondown 
/Agrave /Aacute /Acircumflex /Atilde /Adieresis /Aring /AE /Ccedilla 
/Egrave /Eacute /Ecircumflex /Edieresis /Igrave /Iacute /Icircumflex /Idieresis 
/Eth /Ntilde /Ograve /Oacute /Ocircumflex /Otilde /Odieresis /multiply 
/Oslash /Ugrave /Uacute /Ucircumflex /Udieresis /Yacute /Thorn /germandbls 
/agrave /aacute /acircumflex /atilde /adieresis /aring /ae /ccedilla 
/egrave /eacute /ecircumflex /edieresis /igrave /iacute /icircumflex /idieresis 
/eth /ntilde /ograve /oacute /ocircumflex /otilde /odieresis /divide 
/oslash /ugrave /uacute /ucircumflex /udieresis /yacute /thorn /ydieresis 
] def
%%EndResource
% Initialize page description variables.
/sh 612 def
/sw 792 def
/llx 24 def
/urx 768 def
/ury 588 def
/lly 24 def
/#copies 1 def
/th 0.000000 def
/fnfs 11 def
/bfs 8.000000 def
/cw 4.800000 def

% Dictionary for ISO-8859-1 support
/iso1dict 6 dict begin
  /fCourier ISO-8859-1Encoding /Courier reencode_font
  /fCourier-Bold ISO-8859-1Encoding /Courier-Bold reencode_font
  /fHelvetica ISO-8859-1Encoding /Helvetica reencode_font
  /fHelvetica-Bold ISO-8859-1Encoding /Helvetica-Bold reencode_font
  /fTimes-Bold ISO-8859-1Encoding /Times-Bold reencode_font
  /fTimes-Roman ISO-8859-1Encoding /Times-Roman reencode_font
currentdict end def
/bgcolor [ 0 0 0 ] def
/bg false def
/ul false def
/bx false def
% The font for line numbering
/f# /Helvetica findfont bfs .6 mul scalefont def
/fSymbol /Symbol findfont def
/hm fnfs 0.25 mul def
/pw
   cw 75.400000 mul
def
/ph
   557.600000 th add
def
/pmw urx llx sub pw 2 mul sub 1 div def
/pmh 0 def
/v 0 def
/x [
  0
  dup pmw add pw add
] def
/y [
  pmh ph add 0 mul ph add
  dup
] def
/scx sw 2 div def
/scy sh 2 div def
/snx urx def
/sny lly 2 add def
/dx llx def
/dy sny def
/fnx scx def
/fny dy def
/lx snx def
/ly ury fnfs 0.8 mul sub def
/sx 0 def
/tab 8 def
/x0 0 def
/y0 0 def
%%EndSetup

%%Page: (1-2) 1
%%BeginPageSetup
/pagesave save def
sh 0 translate 90 rotate
%%EndPageSetup
iso1dict begin
gsave
llx lly 0 add translate
/v 0 store
/x0 x v get 3.360000 add sx cw mul add store
/y0 y v get bfs  sub store
x0 y0 moveto
(#!/bin/env python3) c n
(# -*- coding: utf-8 -*-) N
() p n
(from) K
( numpy ) p
(import) K
( cos, sin, matrix, dot, pi) p n
(from) K
( numpy ) p
(import) K
( linspace as lsp) p n
(# from numpy import linalg as la) c n
(from) K
( matplotlib ) p
(import) K
( pyplot as pl) p n
(from) K
( matplotlib ) p
(import) K
( rc) p n
() N
() N
(def) K
( Q_trans\(a, b, g\):) p n
(    """) S
(This function builds the inverse of Q \(the coordinate system) str n
(    transformation matrix\) from Euler angles alpha \(a\), beta \(b\) and gamma) N
(    \(g\)) N
(    Keyword Arguments:) N
(    a -- Euler angle 1) N
(    b  -- Euler angle 2) N
(    g -- Euler angle 3) N
(    ) S
(""") p n
(    res = matrix\([) N
(        [cos\(a\)*cos\(g\),) N
(            -cos\(a\)*sin\(b\) - cos\(b\)*cos\(g\)*sin\(a\),) N
(            sin\(a\)*sin\(b\)],) N
(        [cos\(g\)*sin\(a\) + cos\(a\)*cos\(b\)*sin\(g\),) N
(            cos\(a\)*cos\(b\)*cos\(g\) - sin\(a\)*sin\(g\),) N
(            -cos\(a\)*sin\(b\)],) N
(        [sin\(b\)*sin\(g\),) N
(            cos\(g\)*sin\(b\),) N
(            cos\(b\)]) N
(    ]\)) N
() N
(    ) S
(return) K
( res) p n
() N
() N
(def) K
( matQ\(a, b, c\):) p n
(    """) S
(This function builds the coordinate system transformation matrix Q) str n
(    from Euler angles alpha \(a\), beta \(b\) and gamma \(g\)) N
(    Keyword Arguments:) N
(    a -- Euler angle 1) N
(    b  -- Euler angle 2) N
(    g -- Euler angle 3) N
(    ) S
(""") p n
(    ) S
(return) K
( Q_trans\(a, b, c\).transpose\(\)) p n
() N
() N
(# b. Using values given below, have the program calculate vector) c n
(# components for vB. Sketch the problem to confirm that your solution) N
(# makes physical sense.) N
(vA = [0, 4, 0]) p n
(print) K
(\(") p
(vB = ) str
(", dot\(matQ\(0, pi, 0\), vA\)\)) p n
(# vB = [[ 2.82842712  2.82842712  0.        ]]) c n
() p n
(# c. Using values given below, have the program calculate tensor) c n
(# components for TB.) N
(TA = matrix\([) p n
(    [-4, 3, 0],) N
(    [3, 2, 0],) N
(    [0, 0, 1]) N
(]\)) N
() N
(alpha = pi/2) N
(beta = -pi/2) N
(gamma = pi/4) N
() N
(Q = matQ\(alpha, beta, gamma\)) N
(TB = dot\(dot\(Q, TA\), Q.transpose\(\)\)) N
(print) K
(\(") p
(TB = ) str
(", TB\)) p n
() N
(# d. Plot the changing values for T11 \(plot on the x-axis\) and T21 \(plot) c n
border
/v 1 store
/x0 x v get 3.360000 add sx cw mul add store
/y0 y v get bfs  sub store
x0 y0 moveto
(# on the y-axis\) when \316\261 rotates from 0 to \317M-^@ \(\316\262 = 0, and \316\263 = 0\). Wha) c n
(t) N
(# does the resulting plot remind you of from mechanics of materials?) N
(T11A = TA[0, 0]) p n
(T21A = TA[1, 0]) N
(T11B = TB[0, 0]) N
(T21B = TB[1, 0]) N
() N
(# Create linear array with 100 points for the angle alpha) c n
(alpha = lsp\(0, pi, 100\)) p n
(beta = 0) N
(gamma = 0) N
() N
(# Calculate the values of Q for each alpha) c n
(Q = [matQ\(alpha_i, beta, gamma\) ) p
(for) K
( alpha_i ) p
(in) K
( alpha]) p n
(# Calculate the values of the transformed tensor) c n
(TB = [dot\(dot\(Q_i, TA\), Q_i.transpose\(\)\) ) p
(for) K
( Q_i ) p
(in) K
( Q]) p n
(# Extract the first element \(0,0\) from all the results) c n
(T11B = [T_i[0, 0] ) p
(for) K
( T_i ) p
(in) K
( TB]) p n
(# Extract the fourth element \(1,0\) from all the results) c n
(T21B = [T_i[1, 0] ) p
(for) K
( T_i ) p
(in) K
( TB]) p n
() N
(# Set the LaTeX output) c n
(# http://matplotlib.org/users/usetex.html) N
(pl.rc\(') p
(text) str
(', usetex=True\)) p n
(# Plot all the first elements v.s. all the fourth elements) c n
(pl.plot\(T11B, T21B, label=r") p
(${T_{11}}^B$ v.s. ${T_{21}}^B$) str
("\)) p n
(pl.legend\(\)) N
(# Set equal axes) c n
(pl.axis\(") p
(equal) str
("\)) p n
(# Set axes labels) c n
(pl.xlabel\(") p
(${T_{11}}^B$) str
("\)) p n
(pl.ylabel\(') S
(${T_{21}}^B$) str
('\)) p n
(# Export picture to PDF) c n
(pl.savefig\(") p
(hw3_fig.pdf) str
("\)) p n
(# Clear figure) c n
(pl.clf\(\)) p n
border
grestore
end % of iso1dict
pagesave restore
showpage

%%Trailer
end
%%EOF
