% $ biblatex auxiliary file $
% $ biblatex bbl format version 2.3 $
% Do not modify the above lines!
%
% This is an auxiliary file used by the 'biblatex' package.
% This file may safely be deleted. It will be recreated by
% biber as required.
%
\begingroup
\makeatletter
\@ifundefined{ver@biblatex.sty}
  {\@latex@error
     {Missing 'biblatex' package}
     {The bibliography requires the 'biblatex' package.}
      \aftergroup\endinput}
  {}
\endgroup


\refsection{0}
  \sortlist{entry}{none}
    \entry{maxima}{manual}{}
      \name{labelname}{1}{}{%
        {{hash=bc3292567552688d69e5ddc95781245b}{Maxima}{M\bibinitperiod}{}{}{}{}{}{}}%
      }
      \name{author}{1}{}{%
        {{hash=bc3292567552688d69e5ddc95781245b}{Maxima}{M\bibinitperiod}{}{}{}{}{}{}}%
      }
      \strng{namehash}{bc3292567552688d69e5ddc95781245b}
      \strng{fullhash}{bc3292567552688d69e5ddc95781245b}
      \field{sortinit}{0}
      \field{labeltitle}{Maxima, a Computer Algebra System. Version 5.37.2}
      \field{title}{Maxima, a Computer Algebra System. Version 5.37.2}
      \field{year}{2015}
      \verb{url}
      \verb http://maxima.sourceforge.net/
      \endverb
    \endentry
    \entry{vanRossum95}{report}{}
      \name{labelname}{1}{}{%
        {{hash=b396b87ab437aff8930856280c9b2238}{{van\bibnamedelimb Rossum}}{v\bibinitperiod}{Guido}{G\bibinitperiod}{}{}{}{}}%
      }
      \name{author}{1}{}{%
        {{hash=b396b87ab437aff8930856280c9b2238}{{van\bibnamedelimb Rossum}}{v\bibinitperiod}{Guido}{G\bibinitperiod}{}{}{}{}}%
      }
      \list{institution}{1}{%
        {Centrum voor Wiskunde en Informatica}%
      }
      \list{location}{1}{%
        {"P. O. Box 4079, 1009 AB Amsterdam, The Netherlands"}%
      }
      \strng{namehash}{b396b87ab437aff8930856280c9b2238}
      \strng{fullhash}{b396b87ab437aff8930856280c9b2238}
      \field{sortinit}{0}
      \field{labeltitle}{{Python} tutorial}
      \field{month}{04}
      \field{number}{CS-R9526}
      \field{title}{{Python} tutorial}
      \field{type}{Report}
      \field{year}{1995}
      \field{pages}{iii + 65}
      \verb{url}
      \verb http://www.python.org
      \endverb
    \endentry
  \endsortlist
\endrefsection
\endinput

