********************************************************************************
Probe Values Report, written on Sun Oct 22 19:07:43 2017

Source
-------

   ODB: C:/Users/edgarrios/Desktop/Abaqus/quadTri6Job.odb
   Step: step100N
   Frame: Increment      1: Step Time =    1.000
   Variable: U, All direct

Probe values reported at nodes

  Part Instance     Node ID            Orig. Coords                     Def. Coords          
                                 X          Y          Z          X          Y          Z    
-------------------------------------------------------------------------------------------
  MYPARTINSTANCE           2    2E+001.    2E+001.    0E+000.    2E+001.    2E+001.    0E+000.
  MYPARTINSTANCE           3    0E+000.    0E+000.    0E+000.    1E-034.    1E-034.    0E+000.
  MYPARTINSTANCE           1    2E+001.    0E+000.    0E+000.    2E+001.    1E-034.    0E+000.
  MYPARTINSTANCE           5    1E+001.    1E+001.    0E+000.    1E+001.    1E+001.    0E+000.
  MYPARTINSTANCE           6    1E+001.    0E+000.    0E+000.    1E+001.    2E-003.    0E+000.
  MYPARTINSTANCE           4    2E+001.    1E+001.    0E+000.    2E+001.    1E+001.    0E+000.


  Part Instance     Node ID  Attached elements      U, U1      U, U2
---------------------------------------------------------------------
  MYPARTINSTANCE           2          1    1E-002.    3E-003.
  MYPARTINSTANCE           3          1    1E-034.    1E-034.
  MYPARTINSTANCE           1          1    1E-017.    1E-034.
  MYPARTINSTANCE           5          1    4E-003.    3E-003.
  MYPARTINSTANCE           6          1    3E-004.    2E-003.
  MYPARTINSTANCE           4          1    4E-003.    2E-003.


