********************************************************************************
Field Output Report, written Sun Oct 22 18:50:03 2017

Source 1
---------

   ODB: C:/Users/edgarrios/Desktop/Abaqus/quadTri6Job.odb
   Step: step100N
   Frame: Increment      1: Step Time =    1.000

Loc 1 : Integration point values from source 1

Output sorted by column "Element Label".

Field Output reported at integration points for part: MYPARTINSTANCE

   Element Label             Int             S.S11           S.S22           S.S12
                              Pt            @Loc 1          @Loc 1          @Loc 1
-----------------------------------------------------------------------------------
               1               1     -1.00000E+002   -3.00000E+002   -1.00000E+002
               1               2      2.00000E+002    1.56319E-013    2.00000E+002
               1               3      2.00000E+002    3.00000E+002    2.00000E+002
