********************************************************************************
Field Output Report, written Sun Oct 22 19:09:39 2017

Source 1
---------

   ODB: C:/Users/edgarrios/Desktop/Abaqus/quadTri6Job.odb
   Step: step100N
   Frame: Increment      1: Step Time =    1.000

Loc 1 : Nodal values from source 1

Output sorted by column "Node Label".

Field Output reported at nodes for part: MYPARTINSTANCE
   Computation algorithm: EXTRAPOLATE_COMPUTE_AVERAGE
   Averaged at nodes
   Averaging regions: ODB_REGIONS

      Node Label            U.U1            U.U2           E.E11           E.E22           E.E12           S.S11           S.S22           S.S12
                          @Loc 1          @Loc 1          @Loc 1          @Loc 1          @Loc 1          @Loc 1          @Loc 1          @Loc 1
-------------------------------------------------------------------------------------------------------------------------------------------------
               1   -9.75782E-018   -1.00000E-034   -5.10000E-005   -2.50500E-004   -3.99000E-004   -3.00000E+002   -6.00000E+002   -3.00000E+002
               2    1.50000E-002   -3.00000E-003    1.50000E-004   -4.95000E-005    3.99000E-004    3.00000E+002    0.00000E+000    3.00000E+002
               3    1.00000E-034    1.00000E-034    5.10000E-005    2.50500E-004    3.99000E-004    3.00000E+002    6.00000E+002    3.00000E+002
               4    4.25250E-003   -2.00250E-003    4.95000E-005   -1.50000E-004    7.27596E-012    7.62939E-006   -3.00000E+002    7.62939E-006
               5    3.50250E-003    3.00000E-003    1.00500E-004    1.00500E-004    3.99000E-004    3.00000E+002    3.00000E+002    3.00000E+002
               6    2.55000E-004    2.49750E-003    3.63798E-012    0.00000E+000    0.00000E+000    0.00000E+000    0.00000E+000    0.00000E+000


