| "up-l 1" | "up-l 2" | "up-r 1" | "up-r 2" | "low-l 1" | "low-l 2" | "low-r 1" | "low-r 2" |
|----------+----------+----------+----------+-----------+-----------+-----------+-----------|
|  1.86282 |  3.79489 |  4.22377 |  3.56123 |   1.91923 |     1.609 |   4.14658 |   1.38635 |
|  1.86294 |  3.79861 |  4.22396 |  3.56657 |   1.92058 |   1.61304 |   4.14838 |   1.39071 |
|  1.86232 |  3.81688 |  4.22337 |  3.58932 |   1.92395 |   1.63043 |   4.15185 |   1.41371 |
|  1.86015 |  3.84836 |  4.22084 |  3.63079 |   1.92839 |   1.66309 |   4.15686 |   1.45594 |
|  1.85711 |  3.89309 |  4.21962 |  3.68819 |   1.93522 |   1.70801 |   4.16565 |   1.51348 |
|  1.85432 |  3.94222 |  4.21727 |   3.7528 |   1.94279 |   1.75733 |   4.17589 |   1.57711 |
|  1.85143 |   3.9907 |  4.21496 |  3.81875 |   1.95026 |   1.80606 |   4.18504 |   1.64112 |
|  1.84861 |    4.041 |  4.21366 |  3.88259 |   1.95847 |   1.85569 |   4.19459 |   1.70607 |
|  1.84575 |  4.08938 |  4.21241 |  3.94646 |   1.96719 |    1.9053 |   4.20315 |   1.77084 |
|  1.84265 |  4.13876 |  4.21057 |  4.01145 |   1.97462 |   1.95617 |   4.21147 |   1.83571 |
|  1.83895 |  4.18844 |  4.20831 |  4.07646 |   1.98133 |   2.00599 |   4.21897 |   1.90094 |
|  1.83357 |  4.23817 |   4.2042 |   4.1416 |   1.98643 |   2.05592 |   4.22462 |   1.96638 |
|  1.82751 |   4.2881 |  4.19916 |  4.20701 |   1.98977 |    2.1072 |   4.22893 |   2.03211 |
|  1.82098 |  4.33805 |  4.19257 |  4.27262 |   1.99267 |   2.15856 |   4.23253 |   2.09798 |
|  1.81292 |  4.38816 |   4.1851 |  4.33842 |   1.99407 |   2.20878 |   4.23448 |   2.16471 |
|  1.80354 |  4.44042 |  4.17574 |  4.40554 |   1.99378 |    2.2591 |   4.23581 |   2.23108 |
|  1.79283 |  4.49155 |  4.16611 |  4.47244 |   1.99194 |    2.3095 |   4.23665 |   2.29842 |
|  1.78198 |   4.5427 |  4.15551 |  4.53948 |   1.99017 |   2.36119 |   4.23736 |   2.36485 |
|  1.77109 |  4.59417 |  4.14516 |  4.60778 |   1.98924 |   2.41411 |   4.23784 |   2.43166 |
|  1.76097 |  4.64478 |  4.13417 |  4.67539 |    1.9883 |    2.4671 |   4.23821 |   2.49926 |
|  1.74978 |  4.69668 |  4.12362 |  4.74299 |   1.98732 |   2.52136 |    4.2385 |   2.56884 |
|  1.74037 |  4.74869 |   4.1119 |  4.81186 |   1.98628 |   2.57579 |   4.23867 |   2.63802 |
|  1.73117 |  4.80074 |   4.1014 |  4.88047 |   1.98535 |   2.63017 |    4.2389 |   2.70732 |
|  1.72216 |  4.85384 |  4.09019 |  4.94867 |   1.98577 |   2.68452 |   4.23843 |   2.77575 |
|  1.71409 |  4.90692 |   4.0793 |  5.01689 |    1.9854 |   2.73903 |   4.23806 |   2.84444 |
|  1.70661 |  4.95985 |  4.06943 |  5.08476 |   1.98742 |   2.79324 |   4.23894 |   2.91452 |
|  1.69879 |  5.01359 |  4.06024 |   5.1533 |    1.9896 |   2.84629 |    4.2402 |    2.9839 |
|  1.69195 |   5.0672 |  4.05115 |  5.22113 |   1.99187 |    2.8992 |   4.24161 |   3.05251 |
|   1.6825 |  5.11966 |  4.04217 |  5.28885 |   1.99445 |   2.95321 |   4.24303 |   3.12071 |
|  1.67354 |  5.17117 |   4.0328 |  5.35574 |   1.99603 |   3.00741 |   4.24412 |   3.18904 |
|  1.66472 |  5.22262 |  4.02387 |  5.42302 |   1.99841 |   3.06083 |   4.24612 |    3.2582 |
|  1.65639 |  5.27501 |  4.01519 |  5.49111 |   2.00108 |   3.11419 |   4.24837 |   3.32733 |
|  1.64794 |  5.32649 |  4.00656 |  5.55858 |   2.00266 |   3.16682 |   4.25001 |   3.39585 |
|  1.64042 |  5.37786 |  3.99861 |  5.62514 |   2.00467 |   3.22053 |   4.25174 |   3.46489 |
|  1.63247 |  5.42836 |  3.99063 |   5.6915 |   2.00794 |     3.274 |    4.2538 |   3.53304 |
|  1.62676 |  5.47895 |  3.98434 |  5.75775 |   2.01234 |   3.32678 |   4.25794 |   3.60119 |
|  1.62193 |  5.53018 |  3.97922 |  5.82448 |   2.01815 |   3.37845 |   4.26301 |   3.66996 |
|  1.61854 |  5.58125 |  3.97546 |  5.89115 |    2.0238 |   3.43084 |   4.26858 |   3.73712 |
|  1.61474 |  5.63138 |  3.97298 |  5.95692 |   2.03087 |   3.48314 |    4.2748 |   3.80502 |
|  1.61212 |  5.68306 |  3.96947 |   6.0226 |   2.03886 |    3.5361 |   4.28186 |   3.87255 |
|  1.60937 |    5.734 |  3.96594 |  6.08828 |   2.04677 |   3.58918 |    4.2889 |   3.94032 |
|  1.60704 |  5.78576 |   3.9626 |  6.15474 |   2.05344 |   3.64264 |   4.29534 |   4.00838 |
|  1.60338 |  5.83692 |  3.95796 |  6.22147 |   2.05883 |   3.69617 |   4.29981 |    4.0769 |
|  1.59864 |  5.88821 |  3.95301 |  6.28842 |   2.06485 |    3.7507 |   4.30393 |   4.14539 |
|  1.59368 |  5.93947 |  3.94713 |  6.35466 |   2.07075 |   3.80527 |   4.30796 |   4.21472 |
|  1.58933 |  5.99152 |  3.94088 |  6.42087 |   2.07636 |   3.85982 |    4.3115 |   4.28386 |
|  1.58467 |  6.04111 |  3.93489 |  6.48589 |    2.0802 |   3.91389 |   4.31483 |   4.35242 |
|  1.57917 |  6.09159 |  3.92896 |  6.55278 |    2.0839 |   3.96797 |   4.31804 |   4.42124 |
|  1.57332 |  6.14212 |  3.92344 |  6.61964 |   2.08859 |   4.02206 |   4.32253 |   4.48988 |
|  1.56864 |  6.19415 |  3.91892 |  6.68645 |    2.0937 |   4.07691 |   4.32724 |   4.55901 |
|  1.56475 |  6.24619 |  3.91297 |  6.75254 |   2.09801 |    4.1318 |   4.33182 |   4.62826 |
|  1.55972 |  6.29769 |  3.90718 |  6.81873 |   2.10195 |   4.18683 |   4.33592 |   4.69704 |
|  1.55435 |  6.34936 |  3.90033 |  6.88569 |   2.10552 |    4.2421 |   4.33976 |   4.76622 |
|  1.54865 |  6.40293 |  3.89315 |   6.9549 |   2.10863 |    4.2984 |   4.34238 |   4.83718 |
|   1.5417 |  6.45658 |  3.88431 |  7.02244 |   2.11119 |   4.35486 |   4.34355 |   4.90823 |
|  1.53455 |  6.50951 |   3.8737 |  7.08941 |    2.1121 |   4.41138 |   4.34189 |   4.97957 |
|  1.52565 |  6.56271 |  3.86118 |  7.15722 |   2.11134 |   4.46831 |   4.33914 |    5.0507 |
|  1.51426 |   6.6162 |  3.84744 |  7.22541 |   2.10953 |   4.52558 |   4.33479 |   5.12305 |
|  1.50328 |  6.67058 |  3.83261 |  7.29578 |    2.1072 |   4.58303 |   4.32789 |   5.19653 |
|  1.49022 |  6.72513 |  3.81675 |  7.36578 |   2.10344 |   4.64072 |   4.32131 |   5.27018 |
|  1.47645 |   6.7792 |  3.79945 |  7.43594 |   2.09837 |   4.69816 |   4.31323 |   5.34355 |
|  1.46241 |  6.83347 |  3.78248 |  7.50723 |    2.0931 |   4.75654 |   4.30566 |     5.418 |
|  1.44805 |  6.88869 |  3.76401 |  7.57893 |   2.08735 |   4.81521 |   4.29696 |   5.49373 |
|  1.43283 |  6.94012 |  3.74538 |   7.6474 |   2.08166 |   4.87209 |   4.28824 |   5.56697 |
|  1.42082 |   6.9831 |  3.72996 |   7.7043 |   2.07625 |   4.91877 |    4.2806 |    5.6264 |
|  1.41237 |  7.00992 |  3.71932 |  7.74026 |   2.07222 |   4.94978 |   4.27601 |   5.66537 |
|   1.4083 |  7.02175 |  3.71472 |  7.75702 |   2.07018 |   4.96432 |   4.27354 |   5.68287 |
|  1.40799 |  7.01854 |   3.7145 |  7.75377 |   2.06951 |   4.96301 |   4.27093 |   5.68067 |
|  1.41173 |  7.00041 |  3.71894 |  7.73006 |   2.06951 |   4.94455 |   4.27132 |   5.65655 |
|  1.41943 |  6.96639 |  3.72844 |  7.68686 |   2.07049 |   4.90947 |   4.27466 |   5.61118 |
|  1.43123 |  6.92134 |  3.74334 |  7.62684 |   2.07343 |   4.85948 |   4.27963 |   5.54694 |
|  1.44479 |  6.86966 |  3.76054 |  7.55821 |   2.07717 |   4.80332 |   4.28556 |   5.47571 |
|  1.45771 |   6.8185 |  3.77698 |  7.49025 |   2.08019 |   4.74723 |    4.2922 |   5.40399 |
|  1.46987 |  6.76671 |  3.79224 |  7.42319 |    2.0827 |    4.6912 |   4.29743 |   5.33313 |
|  1.48204 |  6.71486 |  3.80828 |  7.35418 |   2.08578 |   4.63512 |   4.30443 |   5.26133 |
|  1.49355 |  6.66287 |  3.82239 |  7.28634 |   2.08756 |   4.57903 |   4.30884 |   5.18993 |
|  1.50371 |  6.61107 |  3.83563 |  7.21886 |   2.08875 |   4.52319 |   4.31259 |   5.11871 |
|  1.51305 |  6.55848 |  3.84804 |  7.15152 |   2.08863 |   4.46764 |   4.31509 |   5.04893 |
|  1.52061 |  6.50522 |  3.85863 |  7.08477 |   2.08755 |   4.41203 |   4.31656 |   4.97856 |
|  1.52765 |  6.45277 |  3.86789 |  7.01822 |   2.08576 |   4.35591 |   4.31658 |   4.90925 |
|  1.53437 |  6.40037 |  3.87641 |  6.95107 |   2.08353 |   4.29991 |   4.31529 |   4.83947 |
|  1.53929 |   6.3479 |  3.88377 |   6.8839 |    2.0797 |   4.24381 |   4.31268 |   4.76951 |
|  1.54388 |  6.29549 |   3.8906 |  6.81676 |    2.0763 |   4.18852 |   4.30975 |    4.7002 |
|  1.54742 |  6.24387 |  3.89695 |  6.75029 |   2.07241 |   4.13321 |   4.30562 |    4.6311 |
|  1.55049 |  6.19235 |  3.90132 |   6.6827 |   2.06724 |   4.07796 |   4.30092 |   4.56162 |
|   1.5541 |  6.14101 |  3.90528 |  6.61575 |   2.06112 |   4.02311 |   4.29582 |   4.49225 |
|  1.55775 |  6.08945 |  3.91004 |  6.54864 |   2.05521 |   3.96888 |   4.29076 |   4.42268 |
|  1.56175 |  6.03884 |  3.91428 |  6.48164 |   2.05009 |   3.91454 |   4.28588 |    4.3537 |
|  1.56668 |  5.98831 |  3.91955 |  6.41538 |   2.04572 |    3.8603 |   4.28212 |   4.28495 |
|  1.57152 |  5.93715 |  3.92488 |  6.34919 |    2.0413 |   3.80544 |   4.27755 |   4.21592 |
|  1.57715 |  5.88594 |  3.93008 |  6.28238 |   2.03547 |   3.75091 |   4.27367 |   4.14684 |
|   1.5831 |  5.83464 |  3.93568 |  6.21657 |    2.0306 |   3.69641 |   4.27006 |   4.07827 |
|  1.58832 |  5.78325 |   3.9419 |  6.14967 |   2.02641 |   3.64164 |   4.26646 |   4.00957 |
|  1.59223 |  5.73133 |  3.94685 |  6.08291 |   2.02099 |   3.58709 |   4.26073 |   3.94052 |
|  1.59611 |  5.67851 |  3.95111 |  6.01685 |   2.01439 |   3.53345 |   4.25439 |   3.87241 |
|  1.59913 |  5.62724 |  3.95436 |  5.95073 |   2.00749 |   3.47983 |   4.24767 |    3.8035 |
|  1.60325 |  5.57671 |  3.95836 |  5.88377 |   2.00071 |    3.4262 |   4.24193 |   3.73504 |
|  1.60718 |  5.52538 |   3.9632 |  5.81675 |   1.99628 |   3.37325 |    4.2368 |   3.66647 |
|  1.61318 |  5.47391 |  3.96952 |  5.74972 |   1.99244 |   3.32031 |   4.23224 |   3.59725 |
|  1.61967 |   5.4223 |  3.97632 |  5.68321 |   1.98907 |   3.26732 |   4.22823 |   3.52821 |
|  1.62673 |  5.37154 |  3.98355 |  5.61667 |   1.98664 |   3.21347 |   4.22615 |   3.45981 |
|  1.63414 |  5.32157 |  3.99087 |   5.5482 |   1.98433 |   3.15886 |   4.22425 |   3.39041 |
|  1.64235 |  5.26988 |  3.99859 |  5.47996 |   1.98221 |   3.10422 |   4.22252 |   3.32153 |
|  1.65009 |  5.21717 |  4.00678 |   5.4123 |   1.97967 |   3.04937 |   4.22109 |   3.25113 |
|  1.65945 |  5.16434 |  4.01595 |  5.34512 |   1.97723 |   2.99478 |   4.21984 |   3.18157 |
|  1.66735 |  5.11251 |  4.02399 |  5.27615 |   1.97474 |   2.94003 |   4.21837 |   3.11181 |
|   1.6742 |  5.06052 |  4.03276 |  5.20736 |   1.97132 |   2.88629 |   4.21691 |   3.04267 |
|  1.68207 |  5.00751 |  4.04182 |  5.13758 |   1.96819 |   2.83251 |    4.2157 |   2.97182 |
|  1.69054 |  4.95354 |  4.05262 |  5.06947 |   1.96564 |   2.77885 |   4.21509 |   2.90133 |
|  1.70146 |  4.90065 |  4.06411 |  5.00211 |   1.96694 |   2.72643 |   4.21615 |   2.83185 |
|  1.71186 |  4.84766 |  4.07659 |  4.93392 |   1.96845 |   2.67411 |    4.2183 |   2.76388 |
|  1.72154 |  4.79464 |  4.08885 |  4.86405 |   1.96978 |    2.6206 |   4.22039 |   2.69428 |
|  1.73222 |  4.74055 |  4.10152 |    4.796 |   1.97128 |   2.56728 |   4.22269 |   2.62574 |
|  1.74368 |  4.68646 |  4.11406 |   4.7277 |   1.97372 |   2.51295 |   4.22473 |   2.55568 |
|  1.75509 |  4.63441 |  4.12625 |  4.65955 |   1.97604 |   2.45873 |   4.22658 |    2.4874 |
|  1.76651 |  4.58249 |  4.13756 |   4.5917 |   1.97838 |   2.40453 |   4.22736 |   2.41998 |
|  1.77589 |  4.52949 |  4.14868 |  4.52327 |   1.97737 |   2.34919 |   4.22794 |   2.35185 |
|  1.78577 |  4.47771 |  4.15846 |  4.45502 |   1.97697 |   2.29619 |   4.22737 |   2.28326 |
|  1.79651 |  4.42614 |  4.16832 |  4.38853 |   1.97651 |   2.24325 |   4.22661 |   2.21492 |
|  1.80565 |   4.3747 |  4.17719 |  4.32119 |   1.97562 |   2.19032 |   4.22411 |   2.14655 |
|  1.81457 |  4.32446 |  4.18412 |  4.25423 |   1.97442 |   2.13996 |   4.22111 |   2.08005 |
|  1.82209 |  4.27223 |  4.19054 |   4.1874 |   1.97176 |   2.08959 |    4.2171 |   2.01371 |
|  1.82815 |  4.22085 |  4.19615 |   4.1206 |   1.96858 |   2.03926 |   4.21239 |   1.94569 |
|  1.83266 |   4.1706 |  4.20086 |  4.05451 |   1.96459 |   1.98901 |   4.20564 |   1.87865 |
|  1.83738 |  4.11937 |  4.20414 |  3.98846 |   1.95927 |   1.93653 |   4.19805 |    1.8117 |
|  1.84079 |  4.06931 |  4.20579 |  3.92175 |   1.95239 |   1.88502 |   4.18996 |   1.74569 |
|  1.84436 |  4.01928 |   4.2081 |  3.85504 |    1.9455 |   1.83578 |   4.18143 |   1.67976 |
|   1.8482 |  3.96835 |  4.21092 |  3.78949 |   1.93884 |   1.78429 |   4.17326 |   1.61395 |
|  1.85225 |  3.91846 |  4.21384 |  3.72383 |    1.9334 |     1.733 |   4.16576 |   1.54734 |
|  1.85677 |  3.86963 |  4.21636 |  3.65957 |   1.92797 |   1.68401 |   4.15811 |   1.48475 |
|  1.86003 |  3.83067 |  4.21879 |  3.60757 |   1.92324 |   1.64471 |   4.15147 |    1.4338 |
|  1.86307 |  3.80664 |  4.22138 |  3.57469 |   1.92056 |   1.62053 |   4.14772 |   1.40084 |
|  1.86383 |  3.79493 |   4.2227 |  3.56134 |   1.92019 |   1.61012 |   4.14611 |   1.38635 |
