<?xml version="1.0" encoding="utf-8" standalone="no"?>
<!DOCTYPE svg PUBLIC "-//W3C//DTD SVG 1.1//EN"
  "http://www.w3.org/Graphics/SVG/1.1/DTD/svg11.dtd">
<!-- Created with matplotlib (http://matplotlib.org/) -->
<svg height="432pt" version="1.1" viewBox="0 0 576 432" width="576pt" xmlns="http://www.w3.org/2000/svg" xmlns:xlink="http://www.w3.org/1999/xlink">
 <defs>
  <style type="text/css">
*{stroke-linecap:butt;stroke-linejoin:round;}
  </style>
 </defs>
 <g id="figure_1">
  <g id="patch_1">
   <path d="
M0 432
L576 432
L576 0
L0 0
z
" style="fill:#ffffff;"/>
  </g>
  <g id="axes_1">
   <g id="patch_2">
    <path d="
M72 342.818
L274.909 342.818
L274.909 89.1818
L72 89.1818
z
" style="fill:#ffffff;"/>
   </g>
   <g id="patch_3">
    <path clip-path="url(#p46586a9ed1)" d="
M152.443 262.376
L156.03 255.202
L157.787 256.959
L224.146 190.6
L224.218 190.672
L157.859 257.031
L159.617 258.789
z
" style="fill:#0000ff;stroke:#000000;"/>
   </g>
   <g id="patch_4">
    <path clip-path="url(#p46586a9ed1)" d="
M152.443 118.897
L159.617 122.484
L157.859 124.242
L224.218 190.6
L224.146 190.672
L157.787 124.313
L156.03 126.071
z
" style="fill:#0000ff;stroke:#000000;"/>
   </g>
   <g id="matplotlib.axis_1">
    <g id="xtick_1">
     <g id="line2d_1">
      <path clip-path="url(#p46586a9ed1)" d="
M72 342.818
L72 89.1818" style="fill:none;stroke:#000000;stroke-dasharray:1.000000,3.000000;stroke-dashoffset:0.0;stroke-width:0.5;"/>
     </g>
     <g id="line2d_2">
      <defs>
       <path d="
M0 0
L0 -4" id="mc7db9fdffb" style="stroke:#000000;stroke-width:0.5;"/>
      </defs>
      <g>
       <use style="stroke:#000000;stroke-width:0.5;" x="72.0" xlink:href="#mc7db9fdffb" y="342.818181818"/>
      </g>
     </g>
     <g id="line2d_3">
      <defs>
       <path d="
M0 0
L0 4" id="m5a7d422ac3" style="stroke:#000000;stroke-width:0.5;"/>
      </defs>
      <g>
       <use style="stroke:#000000;stroke-width:0.5;" x="72.0" xlink:href="#m5a7d422ac3" y="89.1818181818"/>
      </g>
     </g>
     <g id="text_1">
      <!-- -1.5 -->
      <defs>
       <path d="
M47.5938 71
L11 71
L5.70312 32.5938
L13.7969 32.5938
C17.9062 37.4844 21.2969 39.1875 26.7969 39.1875
C36.2969 39.1875 42.2969 32.6875 42.2969 22.2031
C42.2969 12 36.4062 5.8125 26.7969 5.8125
C19.0938 5.8125 14.4062 9.70312 12.2969 17.7031
L3.5 17.7031
C4.70312 11.9062 5.70312 9.09375 7.79688 6.48438
C11.7969 1.09375 19 -2 27 -2
C41.2969 -2 51.2969 8.39062 51.2969 23.3906
C51.2969 37.4062 42 47 28.4062 47
C23.4062 47 19.4062 45.7031 15.2969 42.6875
L18.0938 62.2969
L47.5938 62.2969
z
" id="Nimbus_Sans_L_Regular-53"/>
       <path d="
M19.0938 10.4219
L8.70312 10.4219
L8.70312 0
L19.0938 0
z
" id="Nimbus_Sans_L_Regular-46"/>
       <path d="
M25.9062 50.5938
L25.9062 0
L34.7031 0
L34.7031 71.0156
L28.9062 71.0156
C25.7969 60.1094 23.7969 58.6094 10.2031 56.9062
L10.2031 50.5938
z
" id="Nimbus_Sans_L_Regular-49"/>
       <path d="
M28.4062 31.2031
L4.59375 31.2031
L4.59375 24
L28.4062 24
z
" id="Nimbus_Sans_L_Regular-45"/>
      </defs>
      <g transform="translate(61.7007848376 355.336166135)scale(0.12 -0.12)">
       <use transform="scale(0.9962640099626402)" xlink:href="#Nimbus_Sans_L_Regular-45"/>
       <use transform="translate(33.17522972933531 0.0)scale(0.9962640099626402)" xlink:href="#Nimbus_Sans_L_Regular-49"/>
       <use transform="translate(88.56690669267591 0.0)scale(0.9962640099626402)" xlink:href="#Nimbus_Sans_L_Regular-46"/>
       <use transform="translate(116.26207629592156 0.0)scale(0.9962640099626402)" xlink:href="#Nimbus_Sans_L_Regular-53"/>
      </g>
     </g>
    </g>
    <g id="xtick_2">
     <g id="line2d_4">
      <path clip-path="url(#p46586a9ed1)" d="
M122.727 342.818
L122.727 89.1818" style="fill:none;stroke:#000000;stroke-dasharray:1.000000,3.000000;stroke-dashoffset:0.0;stroke-width:0.5;"/>
     </g>
     <g id="line2d_5">
      <g>
       <use style="stroke:#000000;stroke-width:0.5;" x="122.727272727" xlink:href="#mc7db9fdffb" y="342.818181818"/>
      </g>
     </g>
     <g id="line2d_6">
      <g>
       <use style="stroke:#000000;stroke-width:0.5;" x="122.727272727" xlink:href="#m5a7d422ac3" y="89.1818181818"/>
      </g>
     </g>
     <g id="text_2">
      <!-- -1.0 -->
      <defs>
       <path d="
M27.5 71
C20.9062 71 14.9062 68.125 11.2031 63.2188
C6.59375 57.0469 4.29688 47.5625 4.29688 34.5
C4.29688 10.6719 12.2969 -2 27.5 -2
C42.5 -2 50.7031 10.6719 50.7031 33.9062
C50.7031 47.6562 48.5 56.8438 43.7969 63.2188
C40.0938 68.2188 34.2031 71 27.5 71
M27.5 63.1875
C37 63.1875 41.7031 53.625 41.7031 34.7031
C41.7031 14.6719 37.0938 5.3125 27.2969 5.3125
C18 5.3125 13.2969 15.0781 13.2969 34.4062
C13.2969 53.7188 18 63.1875 27.5 63.1875" id="Nimbus_Sans_L_Regular-48"/>
      </defs>
      <g transform="translate(112.428057565 355.336166135)scale(0.12 -0.12)">
       <use transform="scale(0.9962640099626402)" xlink:href="#Nimbus_Sans_L_Regular-45"/>
       <use transform="translate(33.17522972933531 0.0)scale(0.9962640099626402)" xlink:href="#Nimbus_Sans_L_Regular-49"/>
       <use transform="translate(88.56690669267591 0.0)scale(0.9962640099626402)" xlink:href="#Nimbus_Sans_L_Regular-46"/>
       <use transform="translate(116.26207629592156 0.0)scale(0.9962640099626402)" xlink:href="#Nimbus_Sans_L_Regular-48"/>
      </g>
     </g>
    </g>
    <g id="xtick_3">
     <g id="line2d_7">
      <path clip-path="url(#p46586a9ed1)" d="
M173.455 342.818
L173.455 89.1818" style="fill:none;stroke:#000000;stroke-dasharray:1.000000,3.000000;stroke-dashoffset:0.0;stroke-width:0.5;"/>
     </g>
     <g id="line2d_8">
      <g>
       <use style="stroke:#000000;stroke-width:0.5;" x="173.454545455" xlink:href="#mc7db9fdffb" y="342.818181818"/>
      </g>
     </g>
     <g id="line2d_9">
      <g>
       <use style="stroke:#000000;stroke-width:0.5;" x="173.454545455" xlink:href="#m5a7d422ac3" y="89.1818181818"/>
      </g>
     </g>
     <g id="text_3">
      <!-- -0.5 -->
      <g transform="translate(163.155330292 355.336166135)scale(0.12 -0.12)">
       <use transform="scale(0.9962640099626402)" xlink:href="#Nimbus_Sans_L_Regular-45"/>
       <use transform="translate(33.17522972933531 0.0)scale(0.9962640099626402)" xlink:href="#Nimbus_Sans_L_Regular-48"/>
       <use transform="translate(88.56690669267591 0.0)scale(0.9962640099626402)" xlink:href="#Nimbus_Sans_L_Regular-46"/>
       <use transform="translate(116.26207629592156 0.0)scale(0.9962640099626402)" xlink:href="#Nimbus_Sans_L_Regular-53"/>
      </g>
     </g>
    </g>
    <g id="xtick_4">
     <g id="line2d_10">
      <path clip-path="url(#p46586a9ed1)" d="
M224.182 342.818
L224.182 89.1818" style="fill:none;stroke:#000000;stroke-dasharray:1.000000,3.000000;stroke-dashoffset:0.0;stroke-width:0.5;"/>
     </g>
     <g id="line2d_11">
      <g>
       <use style="stroke:#000000;stroke-width:0.5;" x="224.181818182" xlink:href="#mc7db9fdffb" y="342.818181818"/>
      </g>
     </g>
     <g id="line2d_12">
      <g>
       <use style="stroke:#000000;stroke-width:0.5;" x="224.181818182" xlink:href="#m5a7d422ac3" y="89.1818181818"/>
      </g>
     </g>
     <g id="text_4">
      <!-- 0.0 -->
      <g transform="translate(215.873116803 355.336166135)scale(0.12 -0.12)">
       <use transform="scale(0.9962640099626402)" xlink:href="#Nimbus_Sans_L_Regular-48"/>
       <use transform="translate(55.3916769633406 0.0)scale(0.9962640099626402)" xlink:href="#Nimbus_Sans_L_Regular-46"/>
       <use transform="translate(83.08684656658625 0.0)scale(0.9962640099626402)" xlink:href="#Nimbus_Sans_L_Regular-48"/>
      </g>
     </g>
    </g>
    <g id="xtick_5">
     <g id="line2d_13">
      <path clip-path="url(#p46586a9ed1)" d="
M274.909 342.818
L274.909 89.1818" style="fill:none;stroke:#000000;stroke-dasharray:1.000000,3.000000;stroke-dashoffset:0.0;stroke-width:0.5;"/>
     </g>
     <g id="line2d_14">
      <g>
       <use style="stroke:#000000;stroke-width:0.5;" x="274.909090909" xlink:href="#mc7db9fdffb" y="342.818181818"/>
      </g>
     </g>
     <g id="line2d_15">
      <g>
       <use style="stroke:#000000;stroke-width:0.5;" x="274.909090909" xlink:href="#m5a7d422ac3" y="89.1818181818"/>
      </g>
     </g>
     <g id="text_5">
      <!-- 0.5 -->
      <g transform="translate(266.60038953 355.336166135)scale(0.12 -0.12)">
       <use transform="scale(0.9962640099626402)" xlink:href="#Nimbus_Sans_L_Regular-48"/>
       <use transform="translate(55.3916769633406 0.0)scale(0.9962640099626402)" xlink:href="#Nimbus_Sans_L_Regular-46"/>
       <use transform="translate(83.08684656658625 0.0)scale(0.9962640099626402)" xlink:href="#Nimbus_Sans_L_Regular-53"/>
      </g>
     </g>
    </g>
   </g>
   <g id="matplotlib.axis_2">
    <g id="ytick_1">
     <g id="line2d_16">
      <path clip-path="url(#p46586a9ed1)" d="
M72 342.818
L274.909 342.818" style="fill:none;stroke:#000000;stroke-dasharray:1.000000,3.000000;stroke-dashoffset:0.0;stroke-width:0.5;"/>
     </g>
     <g id="line2d_17">
      <defs>
       <path d="
M0 0
L4 0" id="md7965d1ba0" style="stroke:#000000;stroke-width:0.5;"/>
      </defs>
      <g>
       <use style="stroke:#000000;stroke-width:0.5;" x="72.0" xlink:href="#md7965d1ba0" y="342.818181818"/>
      </g>
     </g>
     <g id="line2d_18">
      <defs>
       <path d="
M0 0
L-4 0" id="md9a1c1a7cd" style="stroke:#000000;stroke-width:0.5;"/>
      </defs>
      <g>
       <use style="stroke:#000000;stroke-width:0.5;" x="274.909090909" xlink:href="#md9a1c1a7cd" y="342.818181818"/>
      </g>
     </g>
     <g id="text_6">
      <!-- -1.5 -->
      <g transform="translate(47.4015696752 345.803986698)scale(0.12 -0.12)">
       <use transform="scale(0.9962640099626402)" xlink:href="#Nimbus_Sans_L_Regular-45"/>
       <use transform="translate(33.17522972933531 0.0)scale(0.9962640099626402)" xlink:href="#Nimbus_Sans_L_Regular-49"/>
       <use transform="translate(88.56690669267591 0.0)scale(0.9962640099626402)" xlink:href="#Nimbus_Sans_L_Regular-46"/>
       <use transform="translate(116.26207629592156 0.0)scale(0.9962640099626402)" xlink:href="#Nimbus_Sans_L_Regular-53"/>
      </g>
     </g>
    </g>
    <g id="ytick_2">
     <g id="line2d_19">
      <path clip-path="url(#p46586a9ed1)" d="
M72 292.091
L274.909 292.091" style="fill:none;stroke:#000000;stroke-dasharray:1.000000,3.000000;stroke-dashoffset:0.0;stroke-width:0.5;"/>
     </g>
     <g id="line2d_20">
      <g>
       <use style="stroke:#000000;stroke-width:0.5;" x="72.0" xlink:href="#md7965d1ba0" y="292.090909091"/>
      </g>
     </g>
     <g id="line2d_21">
      <g>
       <use style="stroke:#000000;stroke-width:0.5;" x="274.909090909" xlink:href="#md9a1c1a7cd" y="292.090909091"/>
      </g>
     </g>
     <g id="text_7">
      <!-- -1.0 -->
      <g transform="translate(47.4015696752 295.076713971)scale(0.12 -0.12)">
       <use transform="scale(0.9962640099626402)" xlink:href="#Nimbus_Sans_L_Regular-45"/>
       <use transform="translate(33.17522972933531 0.0)scale(0.9962640099626402)" xlink:href="#Nimbus_Sans_L_Regular-49"/>
       <use transform="translate(88.56690669267591 0.0)scale(0.9962640099626402)" xlink:href="#Nimbus_Sans_L_Regular-46"/>
       <use transform="translate(116.26207629592156 0.0)scale(0.9962640099626402)" xlink:href="#Nimbus_Sans_L_Regular-48"/>
      </g>
     </g>
    </g>
    <g id="ytick_3">
     <g id="line2d_22">
      <path clip-path="url(#p46586a9ed1)" d="
M72 241.364
L274.909 241.364" style="fill:none;stroke:#000000;stroke-dasharray:1.000000,3.000000;stroke-dashoffset:0.0;stroke-width:0.5;"/>
     </g>
     <g id="line2d_23">
      <g>
       <use style="stroke:#000000;stroke-width:0.5;" x="72.0" xlink:href="#md7965d1ba0" y="241.363636364"/>
      </g>
     </g>
     <g id="line2d_24">
      <g>
       <use style="stroke:#000000;stroke-width:0.5;" x="274.909090909" xlink:href="#md9a1c1a7cd" y="241.363636364"/>
      </g>
     </g>
     <g id="text_8">
      <!-- -0.5 -->
      <g transform="translate(47.4015696752 244.349441243)scale(0.12 -0.12)">
       <use transform="scale(0.9962640099626402)" xlink:href="#Nimbus_Sans_L_Regular-45"/>
       <use transform="translate(33.17522972933531 0.0)scale(0.9962640099626402)" xlink:href="#Nimbus_Sans_L_Regular-48"/>
       <use transform="translate(88.56690669267591 0.0)scale(0.9962640099626402)" xlink:href="#Nimbus_Sans_L_Regular-46"/>
       <use transform="translate(116.26207629592156 0.0)scale(0.9962640099626402)" xlink:href="#Nimbus_Sans_L_Regular-53"/>
      </g>
     </g>
    </g>
    <g id="ytick_4">
     <g id="line2d_25">
      <path clip-path="url(#p46586a9ed1)" d="
M72 190.636
L274.909 190.636" style="fill:none;stroke:#000000;stroke-dasharray:1.000000,3.000000;stroke-dashoffset:0.0;stroke-width:0.5;"/>
     </g>
     <g id="line2d_26">
      <g>
       <use style="stroke:#000000;stroke-width:0.5;" x="72.0" xlink:href="#md7965d1ba0" y="190.636363636"/>
      </g>
     </g>
     <g id="line2d_27">
      <g>
       <use style="stroke:#000000;stroke-width:0.5;" x="274.909090909" xlink:href="#md9a1c1a7cd" y="190.636363636"/>
      </g>
     </g>
     <g id="text_9">
      <!-- 0.0 -->
      <g transform="translate(51.3825972428 193.622168516)scale(0.12 -0.12)">
       <use transform="scale(0.9962640099626402)" xlink:href="#Nimbus_Sans_L_Regular-48"/>
       <use transform="translate(55.3916769633406 0.0)scale(0.9962640099626402)" xlink:href="#Nimbus_Sans_L_Regular-46"/>
       <use transform="translate(83.08684656658625 0.0)scale(0.9962640099626402)" xlink:href="#Nimbus_Sans_L_Regular-48"/>
      </g>
     </g>
    </g>
    <g id="ytick_5">
     <g id="line2d_28">
      <path clip-path="url(#p46586a9ed1)" d="
M72 139.909
L274.909 139.909" style="fill:none;stroke:#000000;stroke-dasharray:1.000000,3.000000;stroke-dashoffset:0.0;stroke-width:0.5;"/>
     </g>
     <g id="line2d_29">
      <g>
       <use style="stroke:#000000;stroke-width:0.5;" x="72.0" xlink:href="#md7965d1ba0" y="139.909090909"/>
      </g>
     </g>
     <g id="line2d_30">
      <g>
       <use style="stroke:#000000;stroke-width:0.5;" x="274.909090909" xlink:href="#md9a1c1a7cd" y="139.909090909"/>
      </g>
     </g>
     <g id="text_10">
      <!-- 0.5 -->
      <g transform="translate(51.3825972428 142.894895789)scale(0.12 -0.12)">
       <use transform="scale(0.9962640099626402)" xlink:href="#Nimbus_Sans_L_Regular-48"/>
       <use transform="translate(55.3916769633406 0.0)scale(0.9962640099626402)" xlink:href="#Nimbus_Sans_L_Regular-46"/>
       <use transform="translate(83.08684656658625 0.0)scale(0.9962640099626402)" xlink:href="#Nimbus_Sans_L_Regular-53"/>
      </g>
     </g>
    </g>
    <g id="ytick_6">
     <g id="line2d_31">
      <path clip-path="url(#p46586a9ed1)" d="
M72 89.1818
L274.909 89.1818" style="fill:none;stroke:#000000;stroke-dasharray:1.000000,3.000000;stroke-dashoffset:0.0;stroke-width:0.5;"/>
     </g>
     <g id="line2d_32">
      <g>
       <use style="stroke:#000000;stroke-width:0.5;" x="72.0" xlink:href="#md7965d1ba0" y="89.1818181818"/>
      </g>
     </g>
     <g id="line2d_33">
      <g>
       <use style="stroke:#000000;stroke-width:0.5;" x="274.909090909" xlink:href="#md9a1c1a7cd" y="89.1818181818"/>
      </g>
     </g>
     <g id="text_11">
      <!-- 1.0 -->
      <g transform="translate(51.3825972428 92.1676230615)scale(0.12 -0.12)">
       <use transform="scale(0.9962640099626402)" xlink:href="#Nimbus_Sans_L_Regular-49"/>
       <use transform="translate(55.3916769633406 0.0)scale(0.9962640099626402)" xlink:href="#Nimbus_Sans_L_Regular-46"/>
       <use transform="translate(83.08684656658625 0.0)scale(0.9962640099626402)" xlink:href="#Nimbus_Sans_L_Regular-48"/>
      </g>
     </g>
    </g>
   </g>
   <g id="patch_5">
    <path d="
M72 342.818
L72 89.1818" style="fill:none;stroke:#000000;"/>
   </g>
   <g id="patch_6">
    <path d="
M274.909 342.818
L274.909 89.1818" style="fill:none;stroke:#000000;"/>
   </g>
   <g id="patch_7">
    <path d="
M72 89.1818
L274.909 89.1818" style="fill:none;stroke:#000000;"/>
   </g>
   <g id="patch_8">
    <path d="
M72 342.818
L274.909 342.818" style="fill:none;stroke:#000000;"/>
   </g>
   <g id="text_12">
    <!-- $G_{1}$ -->
    <defs>
     <path d="
M74.5938 69.1094
C74.5938 70 73.9062 70 73.7031 70
C73.5 70 73.0938 70 72.2969 69
L65.4062 60.75
C64.9062 61.5469 62.9062 65.0312 59 67.3281
C54.7031 70 50.4062 70 48.9062 70
C27.5 70 5 48.3594 5 24.9219
C5 8.53125 16.4062 -2 31.4062 -2
C38.5938 -2 47.7031 0.375 52.7031 6.64062
C53.7969 2.875 56 0.1875 56.7031 0.1875
C57.2031 0.1875 57.2969 0.5 57.4062 0.5
C57.5 0.6875 58.2969 4.17188 58.7969 5.95312
L60.4062 12.2969
C61.2031 15.5625 61.5938 16.9688 62.2969 19.9375
C63.2969 23.7031 63.5 24 69 24
C69.4062 24 70.5938 24 70.5938 25.9688
C70.5938 27 69.5938 27 69.2969 27
C67.5938 27 65.7031 27 63.9062 27
L58.5 27
C54.2969 27 49.9062 27 45.7969 27
C44.9062 27 43.7031 27 43.7031 25.0781
C43.7031 24 44.5 24 44.5 24
L47 24
C54.9062 24 54.9062 23.2031 54.9062 21.7344
C54.9062 21.625 53 11.6562 51.0938 8.70312
C47.2969 3.15625 39.4062 0.890625 33.5 0.890625
C25.7969 0.890625 13.2969 4.875 13.2969 22.0312
C13.2969 28.6875 15.7031 43.875 25.4062 55.0938
C31.7031 62.25 41 67.1094 49.7969 67.1094
C61.5938 67.1094 65.7969 57.0781 65.7969 47.9375
C65.7969 46.3594 65.4062 44.1719 65.4062 42.7812
C65.4062 41.8906 66.4062 41.8906 66.7031 41.8906
C67.7969 41.8906 67.9062 41.9844 68.2969 43.7656
z
" id="CMMI12-71"/>
     <path d="
M26.5938 63.3125
C26.5938 65.4062 26.5 65.5 25.0938 65.5
C21.2031 61.1875 15.2969 59.7969 9.70312 59.7969
C9.40625 59.7969 8.90625 59.7969 8.79688 59.6094
C8.70312 59.3906 8.70312 59.1719 8.70312 57
C11.7969 57 17 57.5938 21 59.9844
L21 7.20312
C21 3.6875 20.7969 2.5 12.2031 2.5
L9.20312 2.5
L9.20312 0
C14 0 19 0 23.7969 0
C28.5938 0 33.5938 0 38.4062 0
L38.4062 2.5
L35.4062 2.5
C26.7969 2.5 26.5938 3.59375 26.5938 7.15625
z
" id="CMR17-49"/>
    </defs>
    <g transform="translate(145.268701401 269.549480417)scale(0.12 -0.12)">
     <use transform="translate(0.0 14.943914544092467)scale(0.9962640099626402)" xlink:href="#CMMI12-71"/>
     <use transform="translate(76.94686186566003 0.0)scale(0.6973817666173724)" xlink:href="#CMR17-49"/>
    </g>
   </g>
   <g id="text_13">
    <!-- $G_{2}$ -->
    <defs>
     <path d="
M41.7031 15.4531
L39.9062 15.4531
C38.9062 8.375 38.0938 7.17188 37.7031 6.5625
C37.2031 5.76562 30 5.76562 28.5938 5.76562
L9.40625 5.76562
C13 9.67188 20 16.75 28.5 24.9531
C34.5938 30.7344 41.7031 37.5312 41.7031 47.4219
C41.7031 59.2188 32.2969 66 21.7969 66
C10.7969 66 4.09375 56.3125 4.09375 47.3438
C4.09375 43.4375 7 42.9375 8.20312 42.9375
C9.20312 42.9375 12.2031 43.5469 12.2031 47.0312
C12.2031 50.1094 9.59375 51 8.20312 51
C7.59375 51 7 50.9062 6.59375 50.7031
C8.5 59.2188 14.2969 63.4062 20.4062 63.4062
C29.0938 63.4062 34.7969 56.5156 34.7969 47.4219
C34.7969 38.7344 29.7031 31.25 24 24.75
L4.09375 2.28125
L4.09375 0
L39.2969 0
z
" id="CMR17-50"/>
    </defs>
    <g transform="translate(130.920861987 111.723246856)scale(0.12 -0.12)">
     <use transform="translate(0.0 14.943914544092467)scale(0.9962640099626402)" xlink:href="#CMMI12-71"/>
     <use transform="translate(76.94686186566003 0.0)scale(0.6973817666173724)" xlink:href="#CMR17-50"/>
    </g>
   </g>
   <g id="text_14">
    <!-- Reference (undeformed) -->
    <defs>
     <path d="
M47.0938 34.9375
C46.7031 40.0312 45.5938 43.3281 43.5938 46.2188
C40 51.1094 33.7031 54 26.4062 54
C12.2969 54 3.09375 42.8438 3.09375 25.5
C3.09375 8.65625 12.0938 -2 26.2969 -2
C38.7969 -2 46.7031 5.46875 47.7031 18.2344
L39.2969 18.2344
C37.9062 9.875 33.5938 5.70312 26.5 5.70312
C17.2969 5.70312 11.7969 13.1719 11.7969 25.5
C11.7969 38.5312 17.2031 46.2812 26.2969 46.2812
C33.2969 46.2812 37.7031 42.2031 38.7031 34.9375
z
" id="Nimbus_Sans_L_Regular-99"/>
     <path d="
M25.7969 52
L17.0938 52
L17.0938 60.25
C17.0938 63.7812 19.0938 65.5938 22.9062 65.5938
C23.5938 65.5938 23.9062 65.5938 25.7969 65.5938
L25.7969 72.5
C23.9062 72.9062 22.7969 73 21.0938 73
C13.4062 73 8.79688 68.5625 8.79688 60.9844
L8.79688 52
L1.79688 52
L1.79688 45.1875
L8.79688 45.1875
L8.79688 -0.40625
L17.0938 -0.40625
L17.0938 45.1875
L25.7969 45.1875
z
" id="Nimbus_Sans_L_Regular-102"/>
     <path d="
M7 52.4844
L7 0
L15.4062 0
L15.4062 32.9531
C15.4062 40.5781 20.9062 46.6875 27.7031 46.6875
C33.9062 46.6875 37.4062 42.875 37.4062 36.1562
L37.4062 0
L45.7969 0
L45.7969 32.9531
C45.7969 40.5781 51.2969 46.6875 58.0938 46.6875
C64.2031 46.6875 67.7969 42.7812 67.7969 36.1562
L67.7969 0
L76.2031 0
L76.2031 39.375
C76.2031 48.7812 70.7969 54 61 54
C54 54 49.7969 51.8906 44.9062 45.9844
C41.7969 51.5938 37.5938 54 30.7969 54
C23.7969 54 19.2031 51.3906 14.7031 45.0781
L14.7031 52.4844
z
" id="Nimbus_Sans_L_Regular-109"/>
     <path d="
M51.2969 24
C51.2969 31.875 50.7031 36.5938 49.2031 40.4219
C45.7969 48.875 37.7969 54 28 54
C13.4062 54 4 42.8438 4 25.7031
C4 8.54688 13.0938 -2 27.7969 -2
C39.7969 -2 48.0938 4.875 50.2031 16.375
L41.7969 16.375
C39.5 9.35938 34.7969 5.70312 28.0938 5.70312
C22.7969 5.70312 18.2969 8.14062 15.5 12.6094
C13.5 15.6562 12.7969 18.7188 12.7031 24
z

M12.9062 30.8125
C13.5938 40.1875 19.5 46.2812 27.9062 46.2812
C36.0938 46.2812 42.4062 39.7031 42.4062 31.4062
C42.4062 31.2031 42.4062 31.0156 42.2969 30.8125
z
" id="Nimbus_Sans_L_Regular-101"/>
     <path d="
M27.2031 54
C12.5 54 3.59375 43.5312 3.59375 26
C3.59375 8.45312 12.4062 -2 27.2969 -2
C42 -2 51 8.45312 51 25.5938
C51 43.6406 42.2969 54 27.2031 54
M27.2969 46.2812
C36.7031 46.2812 42.2969 38.625 42.2969 25.7031
C42.2969 13.4531 36.5 5.70312 27.2969 5.70312
C18 5.70312 12.2969 13.3594 12.2969 26
C12.2969 38.5312 18 46.2812 27.2969 46.2812" id="Nimbus_Sans_L_Regular-111"/>
     <path d="
M6.90625 52.4844
L6.90625 0
L15.2969 0
L15.2969 27.25
C15.2969 34.7656 17.2031 39.6719 21.2031 42.5781
C23.7969 44.4844 26.2969 45.0781 32.0938 45.0781
L32.0938 53.7031
C30.7031 53.8906 30 54 28.9062 54
C23.5 54 19.4062 50.7812 14.5938 42.9688
L14.5938 52.4844
z
" id="Nimbus_Sans_L_Regular-114"/>
     <path d="
M18.5938 31.7812
L42.5938 31.7812
C50.9062 31.7812 54.5938 27.7188 54.5938 18.5469
L54.5 11.9062
C54.5 7.3125 55.2969 2.82812 56.5938 -0.21875
L67.9062 -0.21875
L67.9062 2.125
C64.4062 4.5625 63.7031 7.21875 63.5 17.0781
C63.4062 29.2656 61.5 32.9375 53.5938 36.3906
C61.7969 40.3594 65.0938 45.4062 65.0938 53.6562
C65.0938 66.1406 57.2031 73 42.9062 73
L9.29688 73
L9.29688 -0.21875
L18.5938 -0.21875
z

M18.5938 40
L18.5938 64.7812
L41.0938 64.7812
C46.2969 64.7812 49.2969 64 51.5938 62.0156
C54.0938 59.9375 55.4062 56.6875 55.4062 52.3438
C55.4062 43.8438 51 40 41.0938 40
z
" id="Nimbus_Sans_L_Regular-82"/>
     <path d="
M23.5938 73
C13.5938 59.875 7.29688 41.6406 7.29688 25.9062
C7.29688 10.0938 13.5938 -8.14062 23.5938 -21.2656
L29.0938 -21.2656
C20.2969 -6.9375 15.4062 9.89062 15.4062 25.9062
C15.4062 41.8438 20.2969 58.7656 29.0938 73
z
" id="Nimbus_Sans_L_Regular-40"/>
     <path d="
M7 52.4844
L7 0
L15.4062 0
L15.4062 28.9531
C15.4062 39.6719 21 46.6875 29.5938 46.6875
C36.2031 46.6875 40.4062 42.6719 40.4062 36.3594
L40.4062 0
L48.7031 0
L48.7031 39.6719
C48.7031 48.3906 42.2031 54 32.0938 54
C24.2969 54 19.2969 50.9844 14.7031 43.6875
L14.7031 52.4844
z
" id="Nimbus_Sans_L_Regular-110"/>
     <path d="
M49.5 73
L41.2031 73
L41.2031 45.8906
C37.7031 51.1875 32.0938 54 25.0938 54
C11.5 54 2.59375 43.1406 2.59375 26.4844
C2.59375 8.84375 11.2969 -2 25.4062 -2
C32.5938 -2 37.5938 0.703125 42.0938 7.20312
L42.0938 -0.03125
L49.5 -0.03125
z

M26.5 46.1875
C35.5 46.1875 41.2031 38.2344 41.2031 25.7969
C41.2031 13.7656 35.4062 5.8125 26.5938 5.8125
C17.4062 5.8125 11.2969 13.8594 11.2969 26
C11.2969 38.125 17.4062 46.1875 26.5 46.1875" id="Nimbus_Sans_L_Regular-100"/>
     <path d="
M48.2031 0.515625
L48.2031 53
L39.9062 53
L39.9062 23.1094
C39.9062 12.3438 34.2969 5.3125 25.5938 5.3125
C19 5.3125 14.7969 9.32812 14.7969 15.6719
L14.7969 53
L6.5 53
L6.5 12.375
C6.5 3.625 13 -2 23.2031 -2
C30.9062 -2 35.7969 0.703125 40.7031 7.625
L40.7031 0.515625
z
" id="Nimbus_Sans_L_Regular-117"/>
     <path d="
M9.29688 -21.2656
C19.2969 -8.14062 25.5938 10.0938 25.5938 25.8125
C25.5938 41.6406 19.2969 59.875 9.29688 73
L3.79688 73
C12.5938 58.6719 17.5 41.8438 17.5 25.8125
C17.5 9.89062 12.5938 -7.04688 3.79688 -21.2656
z
" id="Nimbus_Sans_L_Regular-41"/>
    </defs>
    <g transform="translate(95.5699236384 84.1818181818)scale(0.144 -0.144)">
     <use transform="scale(0.9962640099626402)" xlink:href="#Nimbus_Sans_L_Regular-82"/>
     <use transform="translate(71.92998484686333 0.0)scale(0.9962640099626402)" xlink:href="#Nimbus_Sans_L_Regular-101"/>
     <use transform="translate(127.32166181020393 0.0)scale(0.9962640099626402)" xlink:href="#Nimbus_Sans_L_Regular-102"/>
     <use transform="translate(152.0287234637687 0.0)scale(0.9962640099626402)" xlink:href="#Nimbus_Sans_L_Regular-101"/>
     <use transform="translate(207.42040042710929 0.0)scale(0.9962640099626402)" xlink:href="#Nimbus_Sans_L_Regular-114"/>
     <use transform="translate(240.5956301564446 0.0)scale(0.9962640099626402)" xlink:href="#Nimbus_Sans_L_Regular-101"/>
     <use transform="translate(295.9873071197852 0.0)scale(0.9962640099626402)" xlink:href="#Nimbus_Sans_L_Regular-110"/>
     <use transform="translate(351.37898408312583 0.0)scale(0.9962640099626402)" xlink:href="#Nimbus_Sans_L_Regular-99"/>
     <use transform="translate(401.19218458125783 0.0)scale(0.9962640099626402)" xlink:href="#Nimbus_Sans_L_Regular-101"/>
     <use transform="translate(484.2790311478441 0.0)scale(0.9962640099626402)" xlink:href="#Nimbus_Sans_L_Regular-40"/>
     <use transform="translate(517.4542608771794 0.0)scale(0.9962640099626402)" xlink:href="#Nimbus_Sans_L_Regular-117"/>
     <use transform="translate(572.84593784052 0.0)scale(0.9962640099626402)" xlink:href="#Nimbus_Sans_L_Regular-110"/>
     <use transform="translate(628.2376148038605 0.0)scale(0.9962640099626402)" xlink:href="#Nimbus_Sans_L_Regular-100"/>
     <use transform="translate(683.6292917672012 0.0)scale(0.9962640099626402)" xlink:href="#Nimbus_Sans_L_Regular-101"/>
     <use transform="translate(739.0209687305418 0.0)scale(0.9962640099626402)" xlink:href="#Nimbus_Sans_L_Regular-102"/>
     <use transform="translate(763.7280303841065 0.0)scale(0.9962640099626402)" xlink:href="#Nimbus_Sans_L_Regular-111"/>
     <use transform="translate(819.1197073474472 0.0)scale(0.9962640099626402)" xlink:href="#Nimbus_Sans_L_Regular-114"/>
     <use transform="translate(854.7855514963419 0.0)scale(0.9962640099626402)" xlink:href="#Nimbus_Sans_L_Regular-109"/>
     <use transform="translate(937.7739817238092 0.0)scale(0.9962640099626402)" xlink:href="#Nimbus_Sans_L_Regular-101"/>
     <use transform="translate(993.1656586871499 0.0)scale(0.9962640099626402)" xlink:href="#Nimbus_Sans_L_Regular-100"/>
     <use transform="translate(1048.5573356504904 0.0)scale(0.9962640099626402)" xlink:href="#Nimbus_Sans_L_Regular-41"/>
    </g>
   </g>
  </g>
  <g id="axes_2">
   <g id="patch_9">
    <path d="
M315.491 342.818
L518.4 342.818
L518.4 89.1818
L315.491 89.1818
z
" style="fill:#ffffff;"/>
   </g>
   <g id="patch_10">
    <path clip-path="url(#pddb8a73196)" d="
M408.703 249.606
L412.29 242.432
L414.048 244.189
L467.637 190.6
L467.709 190.672
L414.12 244.261
L415.877 246.019
z
" style="fill:#0000ff;stroke:#000000;"/>
   </g>
   <g id="patch_11">
    <path clip-path="url(#pddb8a73196)" d="
M385.116 108.079
L392.29 111.666
L390.532 113.424
L467.709 190.6
L467.637 190.672
L390.46 113.496
L388.703 115.253
z
" style="fill:#0000ff;stroke:#000000;"/>
   </g>
   <g id="matplotlib.axis_3">
    <g id="xtick_6">
     <g id="line2d_34">
      <path clip-path="url(#pddb8a73196)" d="
M315.491 342.818
L315.491 89.1818" style="fill:none;stroke:#000000;stroke-dasharray:1.000000,3.000000;stroke-dashoffset:0.0;stroke-width:0.5;"/>
     </g>
     <g id="line2d_35">
      <g>
       <use style="stroke:#000000;stroke-width:0.5;" x="315.490909091" xlink:href="#mc7db9fdffb" y="342.818181818"/>
      </g>
     </g>
     <g id="line2d_36">
      <g>
       <use style="stroke:#000000;stroke-width:0.5;" x="315.490909091" xlink:href="#m5a7d422ac3" y="89.1818181818"/>
      </g>
     </g>
     <g id="text_15">
      <!-- $-1.5$ -->
      <defs>
       <path d="
M11.4062 57.6875
C12.4062 57.2812 16.5 56 20.7031 56
C30 56 35.0938 61.0156 38 63.9219
C38 64.7344 38 65.25 37.4062 65.25
C37.2969 65.25 37.0938 65.25 36.2969 64.8281
C32.7969 63.3125 28.7031 62.0781 23.7031 62.0781
C20.7031 62.0781 16.2031 62.5 11.2969 64.7344
C10.2031 65.25 10 65.25 9.90625 65.25
C9.40625 65.25 9.29688 65.1406 9.29688 63.1562
L9.29688 34.2812
C9.29688 32.5 9.29688 32 10.2969 32
C10.7969 32 11 32.2031 11.5 32.9062
C14.7031 37.4844 19.0938 39.4062 24.0938 39.4062
C27.5938 39.4062 35.0938 37.2188 35.0938 20.1406
C35.0938 16.9531 35.0938 11.1719 32.0938 6.57812
C29.5938 2.48438 25.7031 0.390625 21.4062 0.390625
C14.7969 0.390625 8.09375 5 6.29688 12.7188
C6.70312 12.6094 7.5 12.4219 7.90625 12.4219
C9.20312 12.4219 11.7031 13.125 11.7031 16.2188
C11.7031 18.9062 9.79688 20 7.90625 20
C5.59375 20 4.09375 18.5938 4.09375 15.7969
C4.09375 7.09375 11 -2 21.5938 -2
C31.9062 -2 41.7031 6.875 41.7031 19.75
C41.7031 31.7188 33.9062 41 24.2031 41
C19.0938 41 14.7969 39.0938 11.4062 35.4531
z
" id="CMR17-53"/>
       <path d="
M65.9062 23
C67.5938 23 69.4062 23 69.4062 25
C69.4062 27 67.5938 27 65.9062 27
L11.7969 27
C10.0938 27 8.29688 27 8.29688 25
C8.29688 23 10.0938 23 11.7969 23
z
" id="CMSY10-0"/>
       <path d="
M18.4062 4.79688
C18.4062 7.6875 16 9.67188 13.5938 9.67188
C10.7031 9.67188 8.70312 7.28125 8.70312 4.89062
C8.70312 2 11.0938 0 13.5 0
C16.4062 0 18.4062 2.39062 18.4062 4.79688" id="CMMI12-58"/>
      </defs>
      <g transform="translate(303.362843499 355.336166135)scale(0.12 -0.12)">
       <use transform="scale(0.9962640099626402)" xlink:href="#CMSY10-0"/>
       <use transform="translate(77.4874676506071 0.0)scale(0.9962640099626402)" xlink:href="#CMR17-49"/>
       <use transform="translate(123.17794476766814 0.0)scale(0.9962640099626402)" xlink:href="#CMMI12-58"/>
       <use transform="translate(150.27512185748756 0.0)scale(0.9962640099626402)" xlink:href="#CMR17-53"/>
      </g>
     </g>
    </g>
    <g id="xtick_7">
     <g id="line2d_37">
      <path clip-path="url(#pddb8a73196)" d="
M366.218 342.818
L366.218 89.1818" style="fill:none;stroke:#000000;stroke-dasharray:1.000000,3.000000;stroke-dashoffset:0.0;stroke-width:0.5;"/>
     </g>
     <g id="line2d_38">
      <g>
       <use style="stroke:#000000;stroke-width:0.5;" x="366.218181818" xlink:href="#mc7db9fdffb" y="342.818181818"/>
      </g>
     </g>
     <g id="line2d_39">
      <g>
       <use style="stroke:#000000;stroke-width:0.5;" x="366.218181818" xlink:href="#m5a7d422ac3" y="89.1818181818"/>
      </g>
     </g>
     <g id="text_16">
      <!-- $-1.0$ -->
      <defs>
       <path d="
M42 31.6406
C42 37.75 41.9062 48.125 37.7031 56.1094
C34 63.1094 28.0938 65.5938 22.9062 65.5938
C18.0938 65.5938 12 63.4062 8.20312 56.2031
C4.20312 48.7188 3.79688 39.4375 3.79688 31.6406
C3.79688 25.9531 3.90625 17.2812 7 9.67188
C11.2969 -0.609375 19 -2 22.9062 -2
C27.5 -2 34.5 -0.109375 38.5938 9.375
C41.5938 16.2812 42 24.3594 42 31.6406
M22.9062 -0.40625
C16.5 -0.40625 12.7031 5.07812 11.2969 12.6875
C10.2031 18.5625 10.2031 27.1562 10.2031 32.75
C10.2031 40.4375 10.2031 46.8281 11.5 52.9219
C13.4062 61.3906 19 64 22.9062 64
C27 64 32.2969 61.2969 34.2031 53.125
C35.5 47.4375 35.5938 40.7344 35.5938 32.75
C35.5938 26.25 35.5938 18.2656 34.4062 12.375
C32.2969 1.48438 26.4062 -0.40625 22.9062 -0.40625" id="CMR17-48"/>
      </defs>
      <g transform="translate(354.090116227 355.336166135)scale(0.12 -0.12)">
       <use transform="scale(0.9962640099626402)" xlink:href="#CMSY10-0"/>
       <use transform="translate(77.4874676506071 0.0)scale(0.9962640099626402)" xlink:href="#CMR17-49"/>
       <use transform="translate(123.17794476766814 0.0)scale(0.9962640099626402)" xlink:href="#CMMI12-58"/>
       <use transform="translate(150.27512185748756 0.0)scale(0.9962640099626402)" xlink:href="#CMR17-48"/>
      </g>
     </g>
    </g>
    <g id="xtick_8">
     <g id="line2d_40">
      <path clip-path="url(#pddb8a73196)" d="
M416.945 342.818
L416.945 89.1818" style="fill:none;stroke:#000000;stroke-dasharray:1.000000,3.000000;stroke-dashoffset:0.0;stroke-width:0.5;"/>
     </g>
     <g id="line2d_41">
      <g>
       <use style="stroke:#000000;stroke-width:0.5;" x="416.945454545" xlink:href="#mc7db9fdffb" y="342.818181818"/>
      </g>
     </g>
     <g id="line2d_42">
      <g>
       <use style="stroke:#000000;stroke-width:0.5;" x="416.945454545" xlink:href="#m5a7d422ac3" y="89.1818181818"/>
      </g>
     </g>
     <g id="text_17">
      <!-- $-0.5$ -->
      <g transform="translate(404.817388954 355.336166135)scale(0.12 -0.12)">
       <use transform="scale(0.9962640099626402)" xlink:href="#CMSY10-0"/>
       <use transform="translate(77.4874676506071 0.0)scale(0.9962640099626402)" xlink:href="#CMR17-48"/>
       <use transform="translate(123.17794476766814 0.0)scale(0.9962640099626402)" xlink:href="#CMMI12-58"/>
       <use transform="translate(150.27512185748756 0.0)scale(0.9962640099626402)" xlink:href="#CMR17-53"/>
      </g>
     </g>
    </g>
    <g id="xtick_9">
     <g id="line2d_43">
      <path clip-path="url(#pddb8a73196)" d="
M467.673 342.818
L467.673 89.1818" style="fill:none;stroke:#000000;stroke-dasharray:1.000000,3.000000;stroke-dashoffset:0.0;stroke-width:0.5;"/>
     </g>
     <g id="line2d_44">
      <g>
       <use style="stroke:#000000;stroke-width:0.5;" x="467.672727273" xlink:href="#mc7db9fdffb" y="342.818181818"/>
      </g>
     </g>
     <g id="line2d_45">
      <g>
       <use style="stroke:#000000;stroke-width:0.5;" x="467.672727273" xlink:href="#m5a7d422ac3" y="89.1818181818"/>
      </g>
     </g>
     <g id="text_18">
      <!-- $0.0$ -->
      <g transform="translate(460.193906396 355.336166135)scale(0.12 -0.12)">
       <use transform="scale(0.9962640099626402)" xlink:href="#CMR17-48"/>
       <use transform="translate(45.69047711706103 0.0)scale(0.9962640099626402)" xlink:href="#CMMI12-58"/>
       <use transform="translate(72.78765420688046 0.0)scale(0.9962640099626402)" xlink:href="#CMR17-48"/>
      </g>
     </g>
    </g>
    <g id="xtick_10">
     <g id="line2d_46">
      <path clip-path="url(#pddb8a73196)" d="
M518.4 342.818
L518.4 89.1818" style="fill:none;stroke:#000000;stroke-dasharray:1.000000,3.000000;stroke-dashoffset:0.0;stroke-width:0.5;"/>
     </g>
     <g id="line2d_47">
      <g>
       <use style="stroke:#000000;stroke-width:0.5;" x="518.4" xlink:href="#mc7db9fdffb" y="342.818181818"/>
      </g>
     </g>
     <g id="line2d_48">
      <g>
       <use style="stroke:#000000;stroke-width:0.5;" x="518.4" xlink:href="#m5a7d422ac3" y="89.1818181818"/>
      </g>
     </g>
     <g id="text_19">
      <!-- $0.5$ -->
      <g transform="translate(510.921179123 355.336166135)scale(0.12 -0.12)">
       <use transform="scale(0.9962640099626402)" xlink:href="#CMR17-48"/>
       <use transform="translate(45.69047711706103 0.0)scale(0.9962640099626402)" xlink:href="#CMMI12-58"/>
       <use transform="translate(72.78765420688046 0.0)scale(0.9962640099626402)" xlink:href="#CMR17-53"/>
      </g>
     </g>
    </g>
   </g>
   <g id="matplotlib.axis_4">
    <g id="ytick_7">
     <g id="line2d_49">
      <path clip-path="url(#pddb8a73196)" d="
M315.491 342.818
L518.4 342.818" style="fill:none;stroke:#000000;stroke-dasharray:1.000000,3.000000;stroke-dashoffset:0.0;stroke-width:0.5;"/>
     </g>
     <g id="line2d_50">
      <g>
       <use style="stroke:#000000;stroke-width:0.5;" x="315.490909091" xlink:href="#md7965d1ba0" y="342.818181818"/>
      </g>
     </g>
     <g id="line2d_51">
      <g>
       <use style="stroke:#000000;stroke-width:0.5;" x="518.4" xlink:href="#md9a1c1a7cd" y="342.818181818"/>
      </g>
     </g>
     <g id="text_20">
      <!-- $-1.5$ -->
      <g transform="translate(287.234777908 345.803986698)scale(0.12 -0.12)">
       <use transform="scale(0.9962640099626402)" xlink:href="#CMSY10-0"/>
       <use transform="translate(77.4874676506071 0.0)scale(0.9962640099626402)" xlink:href="#CMR17-49"/>
       <use transform="translate(123.17794476766814 0.0)scale(0.9962640099626402)" xlink:href="#CMMI12-58"/>
       <use transform="translate(150.27512185748756 0.0)scale(0.9962640099626402)" xlink:href="#CMR17-53"/>
      </g>
     </g>
    </g>
    <g id="ytick_8">
     <g id="line2d_52">
      <path clip-path="url(#pddb8a73196)" d="
M315.491 292.091
L518.4 292.091" style="fill:none;stroke:#000000;stroke-dasharray:1.000000,3.000000;stroke-dashoffset:0.0;stroke-width:0.5;"/>
     </g>
     <g id="line2d_53">
      <g>
       <use style="stroke:#000000;stroke-width:0.5;" x="315.490909091" xlink:href="#md7965d1ba0" y="292.090909091"/>
      </g>
     </g>
     <g id="line2d_54">
      <g>
       <use style="stroke:#000000;stroke-width:0.5;" x="518.4" xlink:href="#md9a1c1a7cd" y="292.090909091"/>
      </g>
     </g>
     <g id="text_21">
      <!-- $-1.0$ -->
      <g transform="translate(287.234777908 295.076713971)scale(0.12 -0.12)">
       <use transform="scale(0.9962640099626402)" xlink:href="#CMSY10-0"/>
       <use transform="translate(77.4874676506071 0.0)scale(0.9962640099626402)" xlink:href="#CMR17-49"/>
       <use transform="translate(123.17794476766814 0.0)scale(0.9962640099626402)" xlink:href="#CMMI12-58"/>
       <use transform="translate(150.27512185748756 0.0)scale(0.9962640099626402)" xlink:href="#CMR17-48"/>
      </g>
     </g>
    </g>
    <g id="ytick_9">
     <g id="line2d_55">
      <path clip-path="url(#pddb8a73196)" d="
M315.491 241.364
L518.4 241.364" style="fill:none;stroke:#000000;stroke-dasharray:1.000000,3.000000;stroke-dashoffset:0.0;stroke-width:0.5;"/>
     </g>
     <g id="line2d_56">
      <g>
       <use style="stroke:#000000;stroke-width:0.5;" x="315.490909091" xlink:href="#md7965d1ba0" y="241.363636364"/>
      </g>
     </g>
     <g id="line2d_57">
      <g>
       <use style="stroke:#000000;stroke-width:0.5;" x="518.4" xlink:href="#md9a1c1a7cd" y="241.363636364"/>
      </g>
     </g>
     <g id="text_22">
      <!-- $-0.5$ -->
      <g transform="translate(287.234777908 244.349441243)scale(0.12 -0.12)">
       <use transform="scale(0.9962640099626402)" xlink:href="#CMSY10-0"/>
       <use transform="translate(77.4874676506071 0.0)scale(0.9962640099626402)" xlink:href="#CMR17-48"/>
       <use transform="translate(123.17794476766814 0.0)scale(0.9962640099626402)" xlink:href="#CMMI12-58"/>
       <use transform="translate(150.27512185748756 0.0)scale(0.9962640099626402)" xlink:href="#CMR17-53"/>
      </g>
     </g>
    </g>
    <g id="ytick_10">
     <g id="line2d_58">
      <path clip-path="url(#pddb8a73196)" d="
M315.491 190.636
L518.4 190.636" style="fill:none;stroke:#000000;stroke-dasharray:1.000000,3.000000;stroke-dashoffset:0.0;stroke-width:0.5;"/>
     </g>
     <g id="line2d_59">
      <g>
       <use style="stroke:#000000;stroke-width:0.5;" x="315.490909091" xlink:href="#md7965d1ba0" y="190.636363636"/>
      </g>
     </g>
     <g id="line2d_60">
      <g>
       <use style="stroke:#000000;stroke-width:0.5;" x="518.4" xlink:href="#md9a1c1a7cd" y="190.636363636"/>
      </g>
     </g>
     <g id="text_23">
      <!-- $0.0$ -->
      <g transform="translate(296.533267337 193.622168516)scale(0.12 -0.12)">
       <use transform="scale(0.9962640099626402)" xlink:href="#CMR17-48"/>
       <use transform="translate(45.69047711706103 0.0)scale(0.9962640099626402)" xlink:href="#CMMI12-58"/>
       <use transform="translate(72.78765420688046 0.0)scale(0.9962640099626402)" xlink:href="#CMR17-48"/>
      </g>
     </g>
    </g>
    <g id="ytick_11">
     <g id="line2d_61">
      <path clip-path="url(#pddb8a73196)" d="
M315.491 139.909
L518.4 139.909" style="fill:none;stroke:#000000;stroke-dasharray:1.000000,3.000000;stroke-dashoffset:0.0;stroke-width:0.5;"/>
     </g>
     <g id="line2d_62">
      <g>
       <use style="stroke:#000000;stroke-width:0.5;" x="315.490909091" xlink:href="#md7965d1ba0" y="139.909090909"/>
      </g>
     </g>
     <g id="line2d_63">
      <g>
       <use style="stroke:#000000;stroke-width:0.5;" x="518.4" xlink:href="#md9a1c1a7cd" y="139.909090909"/>
      </g>
     </g>
     <g id="text_24">
      <!-- $0.5$ -->
      <g transform="translate(296.533267337 142.894895789)scale(0.12 -0.12)">
       <use transform="scale(0.9962640099626402)" xlink:href="#CMR17-48"/>
       <use transform="translate(45.69047711706103 0.0)scale(0.9962640099626402)" xlink:href="#CMMI12-58"/>
       <use transform="translate(72.78765420688046 0.0)scale(0.9962640099626402)" xlink:href="#CMR17-53"/>
      </g>
     </g>
    </g>
    <g id="ytick_12">
     <g id="line2d_64">
      <path clip-path="url(#pddb8a73196)" d="
M315.491 89.1818
L518.4 89.1818" style="fill:none;stroke:#000000;stroke-dasharray:1.000000,3.000000;stroke-dashoffset:0.0;stroke-width:0.5;"/>
     </g>
     <g id="line2d_65">
      <g>
       <use style="stroke:#000000;stroke-width:0.5;" x="315.490909091" xlink:href="#md7965d1ba0" y="89.1818181818"/>
      </g>
     </g>
     <g id="line2d_66">
      <g>
       <use style="stroke:#000000;stroke-width:0.5;" x="518.4" xlink:href="#md9a1c1a7cd" y="89.1818181818"/>
      </g>
     </g>
     <g id="text_25">
      <!-- $1.0$ -->
      <g transform="translate(296.533267337 92.1676230615)scale(0.12 -0.12)">
       <use transform="scale(0.9962640099626402)" xlink:href="#CMR17-49"/>
       <use transform="translate(45.69047711706103 0.0)scale(0.9962640099626402)" xlink:href="#CMMI12-58"/>
       <use transform="translate(72.78765420688046 0.0)scale(0.9962640099626402)" xlink:href="#CMR17-48"/>
      </g>
     </g>
    </g>
   </g>
   <g id="patch_12">
    <path d="
M315.491 342.818
L315.491 89.1818" style="fill:none;stroke:#000000;"/>
   </g>
   <g id="patch_13">
    <path d="
M518.4 342.818
L518.4 89.1818" style="fill:none;stroke:#000000;"/>
   </g>
   <g id="patch_14">
    <path d="
M315.491 89.1818
L518.4 89.1818" style="fill:none;stroke:#000000;"/>
   </g>
   <g id="patch_15">
    <path d="
M315.491 342.818
L518.4 342.818" style="fill:none;stroke:#000000;"/>
   </g>
   <g id="text_26">
    <!-- $g_{1}$ -->
    <defs>
     <path d="
M33.7969 12.6719
C33.4062 11.0781 33.2031 10.6719 31.9062 9.1875
C27.7969 3.89062 23.5938 2 20.5 2
C17.2031 2 14.0938 4.59375 14.0938 11.4688
C14.0938 16.7656 17.0938 27.9375 19.2969 32.4375
C22.2031 38.0156 26.7031 42.0156 30.9062 42.0156
C37.5 42.0156 38.7969 33.8281 38.7969 33.2344
L38.5 31.8281
z

M40 37.4219
C38.7031 40.3125 35.9062 44 30.9062 44
C20 44 7.59375 30.3281 7.59375 15.4688
C7.59375 5.09375 13.9062 0 20.2969 0
C25.5938 0 30.2969 4.1875 32.0938 6.1875
L29.9062 -2.67188
C28.5 -8.0625 27.9062 -10.5312 24.2969 -13.9688
C20.2031 -18 16.4062 -18 14.2031 -18
C11.2031 -18 8.70312 -17.7969 6.20312 -17.0156
C9.40625 -16.1406 10.2031 -13.4062 10.2031 -12.3281
C10.2031 -10.7656 9 -9.1875 6.79688 -9.1875
C4.40625 -9.1875 1.79688 -11.1562 1.79688 -14.4062
C1.79688 -18.4375 5.90625 -20 14.4062 -20
C27.2969 -20 34 -11.7656 35.2969 -6.40625
L46.4062 38.0469
C46.7031 39.2344 46.7031 39.4375 46.7031 39.625
C46.7031 41.0156 45.5938 42.1094 44.0938 42.1094
C41.7031 42.1094 40.2969 40.1094 40 37.4219" id="CMMI12-103"/>
    </defs>
    <g transform="translate(396.909619179 261.39947173)scale(0.12 -0.12)">
     <use transform="translate(0.0 14.943914544092467)scale(0.9962640099626402)" xlink:href="#CMMI12-103"/>
     <use transform="translate(46.71089675922323 0.0)scale(0.6973817666173724)" xlink:href="#CMR17-49"/>
    </g>
   </g>
   <g id="text_27">
    <!-- $g_{2}$ -->
    <g transform="translate(376.860071886 99.8237082497)scale(0.12 -0.12)">
     <use transform="translate(0.0 14.943914544092467)scale(0.9962640099626402)" xlink:href="#CMMI12-103"/>
     <use transform="translate(46.71089675922323 0.0)scale(0.6973817666173724)" xlink:href="#CMR17-50"/>
    </g>
   </g>
   <g id="text_28">
    <!-- Current (deformed) -->
    <defs>
     <path d="
M25.4062 52.8125
L16.7969 52.8125
L16.7969 67
L8.5 67
L8.5 52.8125
L1.40625 52.8125
L1.40625 46
L8.5 46
L8.5 6.3125
C8.5 1 12.0938 -2 18.5938 -2
C20.5938 -2 22.5938 -1.8125 25.4062 -1.29688
L25.4062 5.71875
C24.2969 5.40625 23 5.3125 21.4062 5.3125
C17.7969 5.3125 16.7969 6.3125 16.7969 10.0156
L16.7969 46
L25.4062 46
z
" id="Nimbus_Sans_L_Regular-116"/>
     <path d="
M66.2031 50.4531
C63.2969 66.4375 54.0938 74.2188 38.0938 74.2188
C28.2969 74.2188 20.4062 71.125 15 65.125
C8.40625 57.9531 4.79688 47.5781 4.79688 35.7969
C4.79688 23.8281 8.5 13.5625 15.4062 6.46875
C21 0.6875 28.2031 -2 37.7031 -2
C55.5 -2 65.5 7.57812 67.7031 26.8281
L58.0938 26.8281
C57.2969 21.8594 56.2969 18.4688 54.7969 15.5781
C51.7969 9.59375 45.5938 6.20312 37.7969 6.20312
C23.2969 6.20312 14.0938 17.7656 14.0938 35.9062
C14.0938 54.5469 22.9062 66 37 66
C42.9062 66 48.4062 64.2188 51.4062 61.4062
C54.0938 58.9219 55.5938 55.8281 56.7031 50.4531
z
" id="Nimbus_Sans_L_Regular-67"/>
    </defs>
    <g transform="translate(355.996408792 84.1818181818)scale(0.144 -0.144)">
     <use transform="scale(0.9962640099626402)" xlink:href="#Nimbus_Sans_L_Regular-67"/>
     <use transform="translate(71.92998484686333 0.0)scale(0.9962640099626402)" xlink:href="#Nimbus_Sans_L_Regular-117"/>
     <use transform="translate(127.32166181020393 0.0)scale(0.9962640099626402)" xlink:href="#Nimbus_Sans_L_Regular-114"/>
     <use transform="translate(160.49689153953923 0.0)scale(0.9962640099626402)" xlink:href="#Nimbus_Sans_L_Regular-114"/>
     <use transform="translate(193.67212126887455 0.0)scale(0.9962640099626402)" xlink:href="#Nimbus_Sans_L_Regular-101"/>
     <use transform="translate(249.06379823221516 0.0)scale(0.9962640099626402)" xlink:href="#Nimbus_Sans_L_Regular-110"/>
     <use transform="translate(304.4554751955558 0.0)scale(0.9962640099626402)" xlink:href="#Nimbus_Sans_L_Regular-116"/>
     <use transform="translate(359.84581440204704 0.0)scale(0.9962640099626402)" xlink:href="#Nimbus_Sans_L_Regular-40"/>
     <use transform="translate(393.0210441313824 0.0)scale(0.9962640099626402)" xlink:href="#Nimbus_Sans_L_Regular-100"/>
     <use transform="translate(448.41272109472294 0.0)scale(0.9962640099626402)" xlink:href="#Nimbus_Sans_L_Regular-101"/>
     <use transform="translate(503.80439805806355 0.0)scale(0.9962640099626402)" xlink:href="#Nimbus_Sans_L_Regular-102"/>
     <use transform="translate(528.5114597116283 0.0)scale(0.9962640099626402)" xlink:href="#Nimbus_Sans_L_Regular-111"/>
     <use transform="translate(583.9031366749689 0.0)scale(0.9962640099626402)" xlink:href="#Nimbus_Sans_L_Regular-114"/>
     <use transform="translate(619.5689808238637 0.0)scale(0.9962640099626402)" xlink:href="#Nimbus_Sans_L_Regular-109"/>
     <use transform="translate(702.557411051331 0.0)scale(0.9962640099626402)" xlink:href="#Nimbus_Sans_L_Regular-101"/>
     <use transform="translate(757.9490880146716 0.0)scale(0.9962640099626402)" xlink:href="#Nimbus_Sans_L_Regular-100"/>
     <use transform="translate(813.3407649780122 0.0)scale(0.9962640099626402)" xlink:href="#Nimbus_Sans_L_Regular-41"/>
    </g>
   </g>
  </g>
 </g>
 <defs>
  <clipPath id="p46586a9ed1">
   <rect height="253.636363636" width="202.909090909" x="72.0" y="89.1818181818"/>
  </clipPath>
  <clipPath id="pddb8a73196">
   <rect height="253.636363636" width="202.909090909" x="315.490909091" y="89.1818181818"/>
  </clipPath>
 </defs>
</svg>
