%!PS-Adobe-3.0
%%Title: hw7.py
%%For: e-Dgar
%%Creator: a2ps version 4.14
%%CreationDate: Thu Mar  9 10:03:20 2017
%%BoundingBox: 24 24 588 768
%%DocumentData: Clean7Bit
%%Orientation: Landscape
%%Pages: 4
%%PageOrder: Ascend
%%DocumentMedia: Letter 612 792 0 () ()
%%DocumentNeededResources: font Courier
%%+ font Courier-Bold
%%+ font Helvetica
%%+ font Helvetica-Bold
%%+ font Symbol
%%+ font Times-Bold
%%+ font Times-Roman
%%DocumentProcessColors: Black Blue Green Red 
%%DocumentSuppliedResources: procset a2ps-color-prolog
%%+ encoding ISO-8859-1Encoding
%%EndComments
/a2psdict 200 dict def
a2psdict begin
%%BeginProlog
%%Copyright: (c) 1988, 89, 90, 91, 92, 93 Miguel Santana
%%Copyright: (c) 1995, 96, 97, 98 Akim Demaille, Miguel Santana
% Check PostScript language level.
/languagelevel where {
  pop /gs_languagelevel languagelevel def
} {
  /gs_languagelevel 1 def
} ifelse

% EPSF import as in the Red Book
/BeginInclude {
  /b4_Inc_state save def    		% Save state for cleanup
  /dict_count countdictstack def	% Count objects on dict stack
  /op_count count 1 sub def		% Count objects on operand stack 
  userdict begin
    0 setgray 0 setlinecap
    1 setlinewidth 0 setlinejoin
    10 setmiterlimit [ ] 0 setdash newpath
    gs_languagelevel 1 ne {
      false setstrokeadjust false setoverprint 
    } if
} bind def

/EndInclude {
  count op_count sub { pos } repeat	% Clean up stacks
  countdictstack dict_count sub { end } repeat
  b4_Inc_state restore
} bind def

/BeginEPSF {
  BeginInclude
  /showpage { } def
} bind def

/EndEPSF {
  EndInclude
} bind def

% Page prefeed
/page_prefeed {         % bool -> -
  statusdict /prefeed known {
    statusdict exch /prefeed exch put
  } {
    pop
  } ifelse
} bind def

/deffont {
  findfont exch scalefont def
} bind def

/reencode_font {
  findfont reencode 2 copy definefont pop def
} bind def

% Function c-show (str => -)
% centers text only according to x axis.
/c-show { 
  dup stringwidth pop
  2 div neg 0 rmoveto
  show
} bind def

% Function l-show (str => -)
% prints texts so that it ends at currentpoint
/l-show {
  dup stringwidth pop neg 
  0 
  rmoveto show
} bind def

% center-fit show (str w => -)
% show centered, and scale currentfont so that the width is less than w
/cfshow {
  exch dup stringwidth pop
  % If the title is too big, try to make it smaller
  3 2 roll 2 copy
  gt
  { % if, i.e. too big
    exch div
    currentfont exch scalefont setfont
  } { % ifelse
    pop pop 
  }
  ifelse
  c-show			% center title
} bind def

% Return the y size of the current font
% - => fontsize
/currentfontsize {
  currentfont /FontType get 0 eq {
    currentfont /FontMatrix get 3 get
  }{
    currentfont /FontMatrix get 3 get 1000 mul
  } ifelse
} bind def

% reencode the font
% <encoding-vector> <fontdict> -> <newfontdict>
/reencode { %def
  dup length 5 add dict begin
    { %forall
      % <vector> <key> <val>
      1 index /FID ne 
      { def }{ pop pop } ifelse
    } forall
    /Encoding exch def % -

    % Use the font's bounding box to determine the ascent, descent,
    % and overall height; don't forget that these values have to be
    % transformed using the font's matrix.
    % We use `load' because sometimes BBox is executable, sometimes not.
    % Since we need 4 numbers an not an array avoid BBox from being executed
    /FontBBox load aload pop
    FontMatrix transform /Ascent exch def pop
    FontMatrix transform /Descent exch def pop
    /FontHeight Ascent Descent sub def

    % Get the underline position and thickness if they're defined.
    % Use 1 if they are not defined.
    currentdict /FontInfo 2 copy known
    { get
      /UnderlinePosition 2 copy % <FontInfo> /UP <FontInfo> /UP
      2 copy known
      { get }{ pop pop 1 } ifelse
      0 exch FontMatrix transform exch pop
      def % <FontInfo>

      /UnderlineThickness 2 copy % <FontInfo> /UT <FontInfo> /UT
      2 copy known
      { get }{ pop pop 1 } ifelse
      0 exch FontMatrix transform exch pop
      def % <FontInfo>
      pop % -
    }{ pop pop
    } ifelse

    currentdict
  end 
} bind def

% composite fonts for ASCII-EUC mixed strings
% Version 1.2 1/31/1990
% Original Ken'ichi HANDA (handa@etl.go.jp)
% Modified Norio Katayama (katayama@rd.nacsis.ac.jp),1998
% Extend & Fix Koji Nakamaru (maru@on.cs.keio.ac.jp), 1999
% Anyone can freely copy, modify, distribute this program.

/copyfont {	% font-dic extra-entry-count  copyfont  font-dic
	1 index maxlength add dict begin
	{	1 index /FID ne 2 index /UniqueID ne and
		{def} {pop pop} ifelse
	} forall
	currentdict
	end
} bind def

/compositefont { % ASCIIFontName EUCFontName RomanScale RomanOffset Rot(T/F) compositefont font
    /RomanRotation exch def
    /RomanOffset exch def
    /RomanScale exch def
    userdict /fixeucfont_dict known not {
	userdict begin
	    /fixeucfont_dict 2 dict begin
		/UpperByteEncoding [
		    16#00 1 16#20 { pop 0 } for
		    16#21 1 16#28 { 16#20 sub } for
		    16#29 1 16#2F { pop 0 } for
		    16#30 1 16#74 { 16#27 sub } for
		    16#75 1 16#FF { pop 0 } for
		] def
	        /LowerByteEncoding [
		    16#00 1 16#A0 { pop /.notdef } for
		    16#A1 1 16#FE { 16#80 sub 16 2 string cvrs
				    (cXX) dup 1 4 -1 roll
				    putinterval cvn } for
		    /.notdef
		] def
		currentdict
	    end def
	end
    } if
    findfont dup /FontType get 0 eq {
	14 dict begin
	    %
	    % 7+8 bit EUC font
	    %
	    12 dict begin
		/EUCFont exch def
		/FontInfo (7+8 bit EUC font) readonly def
		/PaintType 0 def
		/FontType 0 def
		/FontMatrix matrix def
		% /FontName
		/Encoding fixeucfont_dict /UpperByteEncoding get def
		/FMapType 2 def
		EUCFont /WMode known
		{ EUCFont /WMode get /WMode exch def }
		{ /WMode 0 def } ifelse
		/FDepVector [
		    EUCFont /FDepVector get 0 get
		    [ 16#21 1 16#28 {} for 16#30 1 16#74 {} for ]
		    {
			13 dict begin
			    /EUCFont EUCFont def
			    /UpperByte exch 16#80 add def	
			    % /FontName
			    /FontInfo (EUC lower byte font) readonly def
			    /PaintType 0 def
			    /FontType 3 def
			    /FontMatrix matrix def
			    /FontBBox {0 0 0 0} def
			    /Encoding
				fixeucfont_dict /LowerByteEncoding get def
			    % /UniqueID
			    % /WMode
			    /BuildChar {
				gsave
				exch dup /EUCFont get setfont
				/UpperByte get
				2 string
				dup 0 4 -1 roll put
				dup 1 4 -1 roll put
				dup stringwidth setcharwidth
				0 0 moveto show
				grestore
			    } bind def
			    currentdict
			end
			/lowerbytefont exch definefont
		    } forall
		] def
		currentdict
	    end
	    /eucfont exch definefont
	    exch
	    findfont 1 copyfont dup begin
		RomanRotation {
			/FontMatrix FontMatrix
			[ 0 RomanScale neg RomanScale 0 RomanOffset neg 0 ]
			matrix concatmatrix def
		}{
			/FontMatrix FontMatrix
			[ RomanScale 0 0 RomanScale 0 RomanOffset ] matrix concatmatrix
			def
			/CDevProc
			    {pop pop pop pop 0 exch -1000 exch 2 div 880} def
		} ifelse
	    end
	    /asciifont exch definefont
	    exch
	    /FDepVector [ 4 2 roll ] def
	    /FontType 0 def
	    /WMode 0 def
	    /FMapType 4 def
	    /FontMatrix matrix def
	    /Encoding [0 1] def
	    /FontBBox {0 0 0 0} def
%	    /FontHeight 1.0 def % XXXX
	    /FontHeight RomanScale 1.0 ge { RomanScale }{ 1.0 } ifelse def
	    /Descent -0.3 def   % XXXX
	    currentdict
	end
	/tmpfont exch definefont
	pop
	/tmpfont findfont
    }{
	pop findfont 0 copyfont
    } ifelse
} def	

/slantfont {	% FontName slant-degree  slantfont  font'
    exch findfont 1 copyfont begin
    [ 1 0 4 -1 roll 1 0 0 ] FontMatrix exch matrix concatmatrix
    /FontMatrix exch def
    currentdict
    end
} def

% Function print line number (<string> # -)
/# {
  gsave
    sx cw mul neg 2 div 0 rmoveto
    f# setfont
    c-show
  grestore
} bind def

% -------- Some routines to enlight plain b/w printings ---------

% Underline
% width --
/dounderline {
  currentpoint
  gsave
    moveto
    0 currentfont /Descent get currentfontsize mul rmoveto
    0 rlineto
    stroke
  grestore
} bind def

% Underline a string
% string --
/dounderlinestring {
  stringwidth pop
  dounderline
} bind def

/UL {
  /ul exch store
} bind def

% Draw a box of WIDTH wrt current font
% width --
/dobox {
  currentpoint
  gsave
    newpath
    moveto
    0 currentfont /Descent get currentfontsize mul rmoveto
    dup 0 rlineto
    0 currentfont /FontHeight get currentfontsize mul rlineto
    neg 0 rlineto
    closepath
    stroke
  grestore
} bind def

/BX {
  /bx exch store
} bind def

% Box a string
% string --
/doboxstring {
  stringwidth pop
  dobox
} bind def

%
% ------------- Color routines ---------------
%
/FG /setrgbcolor load def

% Draw the background
% width --
/dobackground {
  currentpoint
  gsave
    newpath
    moveto
    0 currentfont /Descent get currentfontsize mul rmoveto
    dup 0 rlineto
    0 currentfont /FontHeight get currentfontsize mul rlineto
    neg 0 rlineto
    closepath
    bgcolor aload pop setrgbcolor
    fill
  grestore
} bind def

% Draw bg for a string
% string --
/dobackgroundstring {
  stringwidth pop
  dobackground
} bind def


/BG {
  dup /bg exch store
  { mark 4 1 roll ] /bgcolor exch store } if
} bind def


/Show {
  bg { dup dobackgroundstring } if
  ul { dup dounderlinestring } if
  bx { dup doboxstring } if
  show
} bind def

% Function T(ab), jumps to the n-th tabulation in the current line
/T {
  cw mul x0 add
  bg { dup currentpoint pop sub dobackground } if
  ul { dup currentpoint pop sub dounderline } if
  bx { dup currentpoint pop sub dobox } if
  y0 moveto
} bind def

% Function n: move to the next line
/n {
  /y0 y0 bfs sub store
  x0 y0 moveto
} bind def

% Function N: show and move to the next line
/N {
  Show
  /y0 y0 bfs sub store
  x0 y0 moveto
} bind def

/S {
  Show
} bind def

%%Copyright: (c) 1988, 89, 90, 91, 92, 93 Miguel Santana
%%Copyright: (c) 1995, 96, 97, 98 Akim Demaille, Miguel Santana
% Function title: prints page header.
% <ct> <rt> <lt> are passed as argument
/title { 
  % 1. Draw the background
  x v get y v get moveto
  0 setgray
  gsave
    0 th 2 div neg rmoveto 
    th setlinewidth
    0.5 0.5 1 setrgbcolor
    pw 0 rlineto stroke
  grestore
  % 2. Border it
  gsave
    0.7 setlinewidth
    pw 0 rlineto
    0 th neg rlineto
    pw neg 0 rlineto
    closepath stroke
  grestore
  % stk: ct rt lt
  x v get y v get th sub 1 add moveto
%%IncludeResource: font Helvetica
  fHelvetica fnfs 0.8 mul scalefont setfont
  % 3. The left title
  gsave
    dup stringwidth pop fnfs 0.8 mul add exch % leave space took on stack
    fnfs 0.8 mul hm rmoveto
    show			% left title
  grestore
  exch
  % stk: ct ltw rt
  % 4. the right title
  gsave
    dup stringwidth pop fnfs 0.8 mul add exch % leave space took on stack
    dup
    pw exch stringwidth pop fnfs 0.8 mul add sub
    hm
    rmoveto
    show			% right title
  grestore
  % stk: ct ltw rtw
  % 5. the center title
  gsave
    pw 3 1 roll
    % stk: ct pw ltw rtw
    3 copy 
    % Move to the center of the left room
    sub add 2 div hm rmoveto
    % What is the available space in here?
    add sub fnfs 0.8 mul sub fnfs 0.8 mul sub
    % stk: ct space_left
%%IncludeResource: font Helvetica-Bold
  fHelvetica-Bold fnfs scalefont setfont
    1 setgray
    cfshow
  grestore
} bind def

% Function border: prints virtual page border
/border { %def
  gsave				% print four sides
    0 setgray
    x v get y v get moveto
    0.7 setlinewidth		% of the square
    pw 0 rlineto
    0 ph neg rlineto
    pw neg 0 rlineto
    closepath stroke
  grestore
} bind def

% Function water: prints a water mark in background
/water { %def
  gsave
    scx scy moveto rotate
%%IncludeResource: font Times-Bold
  fTimes-Bold 100 scalefont setfont
    .97 setgray
    dup stringwidth pop 2 div neg -50 rmoveto
    show
  grestore
} bind def

% Function rhead: prints the right header
/rhead {  %def
  lx ly moveto
  fHelvetica fnfs 0.8 mul scalefont setfont
  l-show
} bind def

% Function footer (cf rf lf -> -)
/footer {
  fHelvetica fnfs 0.8 mul scalefont setfont
  dx dy moveto
  show

  snx sny moveto
  l-show
  
  fnx fny moveto
  c-show
} bind def

% Function print line number (<string> # -)
/# {
  gsave
    sx cw mul neg 2 div 0 rmoveto
    f# setfont
    c-show
  grestore
} bind def
%%BeginResource: procset a2ps-color-prolog 2.0 1

%% Definition of the color faces.
/p {
  0 0 0 FG
  false BG
  false UL
  false BX
  fCourier bfs scalefont setfont
  Show
} bind def

/sy {
  0 0 0 FG
  false BG
  fSymbol bfs scalefont setfont
  Show
} bind def

/k {
  false BG
  false UL
  false BX
  0 0 0.9 FG
  fCourier bfs scalefont setfont
  Show
} bind def

/K {
  false BG
  false UL
  false BX
  0 0 0.8 FG
  fCourier-Bold bfs scalefont setfont
  Show
} bind def

/c {
  false BG
  false UL
  false BX
  0.8 0 0 FG
  fCourier bfs scalefont setfont
  Show
} bind def

/C {
  false BG
  false UL
  false BX
  0.8 0 0 FG
  fCourier-Bold bfs scalefont setfont
  Show
} bind def

/l {
  0 0 0 FG
  0.8 0.8 0 true BG
  false UL
  false BX
  fCourier bfs scalefont setfont
  Show
} bind def

/L {
  0 0 0 FG
  1 1 0 true BG
  false UL
  false BX
  fCourier-Bold bfs scalefont setfont
  Show
} bind def

/str {
  false BG
  false UL
  false BX
  0 0.5 0 FG
  fTimes-Roman bfs scalefont setfont
  Show
} bind def

/e{
  1 0 0 true BG
  false UL
  true BX
  1 1 1 FG
  fHelvetica-Bold bfs scalefont setfont
  Show
} bind def

% Function print line number (<string> # -)
/# {
  gsave
    sx cw mul 2 div neg 0 rmoveto
    f# setfont
    0.8 0.1 0.1 FG
    c-show
  grestore
} bind def
%%EndResource
%%EndProlog
%%BeginSetup
%%IncludeResource: font Courier
%%IncludeResource: font Courier-Bold
%%IncludeResource: font Times-Roman
%%IncludeResource: font Symbol
%%BeginResource: encoding ISO-8859-1Encoding
/ISO-8859-1Encoding [
/.notdef /.notdef /.notdef /.notdef /.notdef /.notdef /.notdef /.notdef 
/.notdef /.notdef /.notdef /.notdef /.notdef /.notdef /.notdef /.notdef 
/.notdef /.notdef /.notdef /.notdef /.notdef /.notdef /.notdef /.notdef 
/.notdef /.notdef /.notdef /.notdef /.notdef /.notdef /.notdef /.notdef 
/space /exclam /quotedbl /numbersign /dollar /percent /ampersand /quoteright 
/parenleft /parenright /asterisk /plus /comma /minus /period /slash 
/zero /one /two /three /four /five /six /seven 
/eight /nine /colon /semicolon /less /equal /greater /question 
/at /A /B /C /D /E /F /G 
/H /I /J /K /L /M /N /O 
/P /Q /R /S /T /U /V /W 
/X /Y /Z /bracketleft /backslash /bracketright /asciicircum /underscore 
/quoteleft /a /b /c /d /e /f /g 
/h /i /j /k /l /m /n /o 
/p /q /r /s /t /u /v /w 
/x /y /z /braceleft /bar /braceright /asciitilde /.notdef 
/.notdef /.notdef /.notdef /.notdef /.notdef /.notdef /.notdef /.notdef 
/.notdef /.notdef /.notdef /.notdef /.notdef /.notdef /.notdef /.notdef 
/.notdef /.notdef /.notdef /.notdef /.notdef /.notdef /.notdef /.notdef 
/.notdef /.notdef /.notdef /.notdef /.notdef /.notdef /.notdef /.notdef 
/space /exclamdown /cent /sterling /currency /yen /brokenbar /section 
/dieresis /copyright /ordfeminine /guillemotleft /logicalnot /hyphen /registered /macron 
/degree /plusminus /twosuperior /threesuperior /acute /mu /paragraph /bullet 
/cedilla /onesuperior /ordmasculine /guillemotright /onequarter /onehalf /threequarters /questiondown 
/Agrave /Aacute /Acircumflex /Atilde /Adieresis /Aring /AE /Ccedilla 
/Egrave /Eacute /Ecircumflex /Edieresis /Igrave /Iacute /Icircumflex /Idieresis 
/Eth /Ntilde /Ograve /Oacute /Ocircumflex /Otilde /Odieresis /multiply 
/Oslash /Ugrave /Uacute /Ucircumflex /Udieresis /Yacute /Thorn /germandbls 
/agrave /aacute /acircumflex /atilde /adieresis /aring /ae /ccedilla 
/egrave /eacute /ecircumflex /edieresis /igrave /iacute /icircumflex /idieresis 
/eth /ntilde /ograve /oacute /ocircumflex /otilde /odieresis /divide 
/oslash /ugrave /uacute /ucircumflex /udieresis /yacute /thorn /ydieresis 
] def
%%EndResource
% Initialize page description variables.
/sh 612 def
/sw 792 def
/llx 24 def
/urx 768 def
/ury 588 def
/lly 24 def
/#copies 1 def
/th 0.000000 def
/fnfs 11 def
/bfs 8.000000 def
/cw 4.800000 def

% Dictionary for ISO-8859-1 support
/iso1dict 6 dict begin
  /fCourier ISO-8859-1Encoding /Courier reencode_font
  /fCourier-Bold ISO-8859-1Encoding /Courier-Bold reencode_font
  /fHelvetica ISO-8859-1Encoding /Helvetica reencode_font
  /fHelvetica-Bold ISO-8859-1Encoding /Helvetica-Bold reencode_font
  /fTimes-Bold ISO-8859-1Encoding /Times-Bold reencode_font
  /fTimes-Roman ISO-8859-1Encoding /Times-Roman reencode_font
currentdict end def
/bgcolor [ 0 0 0 ] def
/bg false def
/ul false def
/bx false def
% The font for line numbering
/f# /Helvetica findfont bfs .6 mul scalefont def
/fSymbol /Symbol findfont def
/hm fnfs 0.25 mul def
/pw
   cw 75.400000 mul
def
/ph
   557.600000 th add
def
/pmw urx llx sub pw 2 mul sub 1 div def
/pmh 0 def
/v 0 def
/x [
  0
  dup pmw add pw add
] def
/y [
  pmh ph add 0 mul ph add
  dup
] def
/scx sw 2 div def
/scy sh 2 div def
/snx urx def
/sny lly 2 add def
/dx llx def
/dy sny def
/fnx scx def
/fny dy def
/lx snx def
/ly ury fnfs 0.8 mul sub def
/sx 0 def
/tab 8 def
/x0 0 def
/y0 0 def
%%EndSetup

%%Page: (1-2) 1
%%BeginPageSetup
/pagesave save def
sh 0 translate 90 rotate
%%EndPageSetup
iso1dict begin
gsave
llx lly 0 add translate
/v 0 store
/x0 x v get 3.360000 add sx cw mul add store
/y0 y v get bfs  sub store
x0 y0 moveto
(#!/usr/env python3) c n
(# -*- coding: utf-8 -*-) N
(''') p n
(* To run:) str n
(import hw7) N
() N
(* To import from same directory:) N
(from hw7 import *) N
() N
(* To import from sibling directory:) N
(from sys import path as syspath) N
(from os import path as ospath) N
(from os import getcwd) N
(if not getcwd\(\) + "/.." in syspath:) N
(    syspath.append\(ospath.join\(getcwd\(\), ".."\)\)) N
(from importlib import reload) N
(# Import routines from homework 4) N
(from hw7.hw7 import *) N
() N
(* To reload) N
(import hw7; reload\(hw7\)) N
(''') p n
() N
(# To pretty print:) c n
(# a2ps hw7.py hw7.res --pro=color --columns=2 -B -E) N
(#   --font-size=8 -o hw7_code.ps && ps2pdf hw7_code.ps) N
() p n
(# Libraries to import...) c n
(from) K
( sys ) p
(import) K
( path as syspath) p n
(from) K
( os ) p
(import) K
( path as ospath) p n
(from) K
( os ) p
(import) K
( getcwd) p n
(if) K
( ) p
(not) K
( getcwd\(\) + ") p
(/..) str
(" ) p
(in) K
( syspath:) p n
(    syspath.append\(ospath.join\(getcwd\(\), ") S
(..) str
("\)\)) p n
(#  ... and reload modules) c n
(from) K
( importlib ) p
(import) K
( reload) p n
(# --end) c n
(# Utilities) N
(from) K
( numpy ) p
(import) K
( matrix, diag, cross, sqrt, array, dot, product) p n
(# Singular value decomposition, inverse, determinant, eigencouples) c n
(from) K
( numpy.linalg ) p
(import) K
( svd, inv, det, eigh) p n
(# Gradient functions from homework 6) c n
(from) K
( hw6.hw6 ) p
(import) K
( defGradVec, cauchyGreen, RUDecSVD) p n
(# Plotting) c n
(from) K
( matplotlib ) p
(import) K
( pyplot as pl) p n
(from) K
( matplotlib ) p
(import) K
( rc) p n
(# Reading data) c n
(from) K
( openData ) p
(import) K
( readByCols) p n
() N
(def) K
( greenLagrangeTensor\(F\):) p n
(    C = cauchyGreen\(F\)) N
(    E = 1/2 * \(C - matrix\(diag\([1, 1, 1]\)\)\)) N
(    ) S
(return) K
( E) p n
() N
() N
(def) K
( uPrinc\(F\):) p n
(    R, U = RUDecSVD\(F\)) N
(    eigvalU, eigvecU = eigh\(U\)) N
(    Up = diag\(eigvalU\)) N
(    ) S
(return) K
( Up, R) p n
() N
() N
(def) K
( engLagrangeTensor\(F\):) p n
(    R, U = RUDecSVD\(F\)) N
(    E_eng = U - diag\([1, 1, 1]\)) N
(    ) S
(return) K
( E_eng) p n
() N
() N
(def) K
( infinitesimalStrain\(F\):) p n
(    R, U = RUDecSVD\(F\)) N
border
/v 1 store
/x0 x v get 3.360000 add sx cw mul add store
/y0 y v get bfs  sub store
x0 y0 moveto
(    tmp = U.transpose\(\) \\) p n
(          * R.transpose\(\)) N
(    I = diag\([1, 1, 1]\)) N
(    ) S
(# epsilon = 0.5*\(R*U + tmp\)\\) c n
(    ) p
(#           - diag\([1, 1, 1]\)) c n
(    epsilon = 0.5*\(\(F - I\) + \(F - I\).transpose\(\)\)) p n
(    epsilon_eigvl, tmp = eigh\(epsilon\)) N
() N
(    ) S
(return) K
( epsilon, epsilon_eigvl) p n
() N
() N
(def) K
( plotPlaneMohrEig\(l1, l2, name=None\):) p n
(    eigvl = \(l1, l2\)) N
(    l_max = max\(eigvl\)) N
(    l_min = min\(eigvl\)) N
(    c = [\(l1 + l2\)/2, 0]) N
(    r = abs\(\(l2 - l1\)/2\)) N
() N
(    fig = pl.gcf\(\)) N
(    ax = fig.gca\(\)) N
(    ) S
(# Set the LaTeX output) c n
(    ) p
(# http://matplotlib.org/users/usetex.html) c n
(    pl.rc\(') p
(text) str
(', usetex=True\)) p n
(    circ = pl.Circle\(c, r, fill=False\)) N
(    ax.add_artist\(circ\)) N
(    ax.axis\(") S
(scaled) str
("\)) p n
(    ax.axhline\(y=0, color=') S
(gray) str
('\)) p n
(    ax.axvline\(x=0, color=') S
(gray) str
('\)) p n
(    sign1 = -1 ) S
(if) K
( l_min < 1 ) p
(else) K
( 1) p n
(    sign2 = -1 ) S
(if) K
( l_max < 1 ) p
(else) K
( 1) p n
(    ) S
(# Make the axes range bigger) c n
(    ax.axis\([1.2 * sign1 * abs\(l_min\),) p n
(             1.2*sign2*abs\(l_max\),) N
(             -r*1.2,) N
(             r*1.2]\)) N
(    ) S
(# Max tangent marker) c n
(    ax.annotate\(r") p
(Max shear:\\\\%0.3e) str
(" % r,) p n
(                xy=\(c[0], r\),) N
(                xytext=\(c[0], r*1.2\),) N
(                arrowprops=dict\(facecolor=') S
(black) str
(', shrink=0.03\)\)) p n
(    ax.plot\([c[0]], [r], ') S
(o) str
('\)) p n
(    ) S
(# Max normal marker) c n
(    ax.annotate\(r") p
(Max normal:\\\\%0.3e) str
(" % l_max,) p n
(                xy=\(l_max, 0\),) N
(                xytext=\(1.2*sign2*l_max, 0\),) N
(                arrowprops=dict\(facecolor=') S
(black) str
(', shrink=0.03\)\)) p n
(    ax.plot\([l_max], [0], ') S
(o) str
('\)) p n
(    ) S
(if) K
( name ) p
(is) K
( None:) p n
(        pl.show\(\)) N
(        pl.close\(\)) N
(    ) S
(elif) K
( name ) p
(is) K
( False:) p n
(        ) S
(pass) K n
(    ) p
(else) K
(:) p n
(        pl.savefig\(name\)) N
(        pl.close\(\)) N
() N
() N
(def) K
( multiMohr\(l\):) p n
(    ) S
(for) K
( [l1, l2] ) p
(in) K
( l:) p n
(        eigvl = \(l1, l2\)) N
(        l_max = max\(eigvl\)) N
(        l_min = min\(eigvl\)) N
(        c = [\(l1 + l2\)/2, 0]) N
(        r = abs\(\(l2 - l1\)/2\)) N
() N
(        fig = pl.gcf\(\)) N
(        ax = fig.gca\(\)) N
(        ) S
(# Set the LaTeX output) c n
(        ) p
(# http://matplotlib.org/users/usetex.html) c n
border
grestore
end % of iso1dict
pagesave restore
showpage
%%Page: (3-4) 2
%%BeginPageSetup
/pagesave save def
sh 0 translate 90 rotate
%%EndPageSetup
iso1dict begin
gsave
llx lly 0 add translate
/v 0 store
/x0 x v get 3.360000 add sx cw mul add store
/y0 y v get bfs  sub store
x0 y0 moveto
(        pl.rc\(') p
(text) str
(', usetex=True\)) p n
(        circ = pl.Circle\(c, r, fill=False\)) N
(        ax.add_artist\(circ\)) N
(        ax.axis\(") S
(scaled) str
("\)) p n
(        ax.axhline\(y=0, color=') S
(gray) str
('\)) p n
(        ax.axvline\(x=0, color=') S
(gray) str
('\)) p n
(        ) S
(# sign1 = -1 if l_min < 1 else 1) c n
(        ) p
(# sign2 = -1 if l_max < 1 else 1) c n
(        ) p
(# # Make the axes range bigger) c n
(        ) p
(# ax.axis\([1.2 * sign1 * abs\(l_min\),) c n
(        ) p
(#          1.2*sign2*abs\(l_max\),) c n
(        ) p
(#          -r*1.2,) c n
(        ) p
(#          r*1.2]\)) c n
(        ) p
(# Max tangent marker) c n
(        ax.plot\([c[0]], [r], ') p
(o) str
('\)) p n
(        ) S
(# Max normal marker) c n
(        ax.plot\([l_max], [0], ') p
(o) str
('\)) p n
() N
() N
(def) K
( squareLengthFromPoints\(p1, p2=None\):) p n
(    """) N
(    innefficient \(this is better:) str n
(    a = matrix\([[1], [2], [3]]\)) N
(    b = matrix\([[5], [7], [11]]\)) N
(    a.transpose\(\)*b) N
(    \)) N
(    ) S
(""") p n
(    ) S
(if) K
( p2 ) p
(is) K
( None ) p
(and) K
( \(isinstance\(p1, list\)) p n
(                       ) S
(or) K
( isinstance\(p1, type\(array\([]\)\)\)\):) p n
(        l = p1[1] - p1[0]) N
(    ) S
(else) K
(:) p n
(        l = array\(p2\) - array\(p1\)) N
(    ) S
(return) K
( dot\(l, l\)) p n
() N
() N
(def) K
( dxMat2D\(dx1, dx2, dx3\):) p n
(    ) S
(return) K
( matrix\([[dx1[0, 0]*dx1[0, 0],) p n
(                    2*dx1[0, 0]*dx1[1, 0],) N
(                    dx1[1, 0]*dx1[1, 0]],) N
(                   [dx2[0, 0]*dx2[0, 0],) N
(                    2*dx2[0, 0]*dx2[1, 0],) N
(                    dx2[1, 0]*dx2[1, 0]],) N
(                   [dx3[0, 0]*dx3[0, 0],) N
(                    2*dx3[0, 0]*dx3[1, 0],) N
(                    dx3[1, 0]*dx3[1, 0]]]\)) N
() N
() N
(def) K
( p1a\(\):) p n
(    cX1 = [1, 0, 0]) N
(    cX2 = [0, 1, 0]) N
(    cX3 = [0, 0, 1]) N
() N
(    cx1 = [2, 0.5, 0]) N
(    cx2 = [1, 1, 0]) N
(    cx3 = [0, 0, 1.8]) N
() N
(    F = defGradVec\(cX1, cX2, cX3, cx1, cx2, cx3\)) N
(    E = greenLagrangeTensor\(F\)) N
(    E_p = eigh\(E\)) N
() N
(    ) S
(print) K
(\(") p
(Deformation tensor \(F\):) str
("\)) p n
(    ) S
(print) K
(\(F\)) p n
(    ) S
(print) K
(\(") p
(Green-Lagrange tensor \(E\):) str
("\)) p n
(    ) S
(print) K
(\(E\)) p n
(    ) S
(print) K
(\(") p
(Eigenvalues of E:) str
("\)) p n
(    ) S
(print) K
(\(E_p[0]\)) p n
() N
(    plotPlaneMohrEig\(E_p[0][0], E_p[0][1], ") S
(hw7P1a.svg) str
("\)) p n
(    ) S
(print) K
(\(") p
(See hw7P1a.svg) str
("\)) p n
border
/v 1 store
/x0 x v get 3.360000 add sx cw mul add store
/y0 y v get bfs  sub store
x0 y0 moveto
() p n
(    ) S
(return) K
( F, E, E_p) p n
() N
() N
(def) K
( p1b\(F\):) p n
(    """) S
(Using Matlab, calculate the engineering strain tensor, E eng , at) str n
(    point A. Calculate the eigenvalues of E eng .  Plot the in-plane) N
(    Mohr\342M-^@M-^Ys circle for E eng , and label the max normal strain and max) N
(    shear strain) N
(    ) S
(""") p n
(    E_eng = engLagrangeTensor\(F\)) N
(    E_eng_eigvl = eigh\(E_eng\)) N
() N
(    ) S
(print) K
(\(") p
(Engineering strain tensor \(E_eng\):) str
("\)) p n
(    ) S
(print) K
(\(E_eng\)) p n
(    ) S
(print) K
(\(") p
(Eigenvalues of E_eng:) str
("\)) p n
(    ) S
(print) K
(\(E_eng_eigvl[0]\)) p n
() N
(    plotPlaneMohrEig\(E_eng_eigvl[0][0],) N
(                     E_eng_eigvl[0][2],) N
(                     ") S
(hw7P1b.svg) str
("\)) p n
(    ) S
(print) K
(\(") p
(See hw7P1b.svg) str
("\)) p n
(    ) S
(return) K
( E_eng, E_eng_eigvl[0]) p n
() N
() N
(def) K
( p1c\(F\):) p n
(    """) S
(Using Matlab, calculate the infinitesimal strain tensor, \316\265, at) str n
(    point A. Calculate the eigenvalues of \316\265. Plot the in-plane Mohr\342M-^@M-^Ys) N
(    circle for \316\265 at point A, and label the max normal strain and max shear) N
(    strain.  Compare your results to E eng , and interpret any differences) N
() N
(    ) S
(""") p n
(    epsilon, epsilon_eigvl = infinitesimalStrain\(F\)) N
(    ) S
(print) K
(\(") p
(The infinitesimal strain \(\\epsilon\) is:) str
("\)) p n
(    ) S
(print) K
(\(epsilon\)) p n
(    ) S
(print) K
(\(") p
(The eigenvalues of \\epsilon are:) str
("\)) p n
(    ) S
(print) K
(\(epsilon_eigvl\)) p n
() N
(    plotPlaneMohrEig\(epsilon_eigvl[0],) N
(                     epsilon_eigvl[2],) N
(                     ") S
(hw7P1c.svg) str
("\)) p n
(    ) S
(print) K
(\(") p
(See hw7P1c.svg) str
("\)) p n
() N
(    ) S
(return) K
( epsilon, epsilon_eigvl) p n
() N
() N
(def) K
( p2d\(\):) p n
(    """) N
(    Using python, calculate E at point A \(problem 1\) using the method) str n
(    in \(2c\)) N
(    ) S
(""") p n
(    ) S
(# See the figure to get the points) c n
() p n
(    ) S
(# Get three lines for material \(reference; initial\) coordinates) c n
(    ) p
(# * First line) c n
(    ) p
(# ** Points) c n
(    p1l1 = [0, 0]) p n
(    p2l1 = [1, 0]) N
(    ) S
(# ** Line as a vector) c n
(    dX1 = matrix\(array\(p2l1\) - array\(p1l1\)\).transpose\(\)) p n
(    ) S
(# ** Length) c n
(    dS1 = squareLengthFromPoints\(p1l1, p2l1\)         ) p
(# Overkill) c n
() p n
(    ) S
(# * Second line) c n
(    ) p
(# ** Points) c n
(    p1l2 = [0, 0]) p n
(    p2l2 = [0, 1]) N
(    ) S
(# ** Line as a vector) c n
(    dX2 = matrix\(array\(p2l2\) - array\(p1l2\)\).transpose\(\)) p n
border
grestore
end % of iso1dict
pagesave restore
showpage
%%Page: (5-6) 3
%%BeginPageSetup
/pagesave save def
sh 0 translate 90 rotate
%%EndPageSetup
iso1dict begin
gsave
llx lly 0 add translate
/v 0 store
/x0 x v get 3.360000 add sx cw mul add store
/y0 y v get bfs  sub store
x0 y0 moveto
(    ) p
(# ** Length) c n
(    dS2 = squareLengthFromPoints\(p1l2, p2l2\)) p n
() N
(    ) S
(# * Third line length \(diagonal from p2l1 to p2l2\)) c n
(    ) p
(# ** Line as a vector) c n
(    dX3 = matrix\(array\(p2l2\) - array\(p2l1\)\).transpose\(\)) p n
(    dS3 = squareLengthFromPoints\([1, 0], [0, 1]\)) N
() N
(    ) S
(# Get three lines for spatial \(current; deformed\) coordinates) c n
(    p1 = [0, 0]) p n
(    p2 = [2, 0.5]) N
(    p3 = [1, 1]) N
(    ds1 = squareLengthFromPoints\(p2, p1\)) N
(    ds2 = squareLengthFromPoints\(p3, p1\)) N
(    ds3 = squareLengthFromPoints\(p3, p2\)) N
() N
(    ) S
(# Build column vector of squared lengths) c n
(    ) p
(# \(the segments correspond\)) c n
(    ds_dS = matrix\([[ds1 - dS1],) p n
(                    [ds2 - dS2],) N
(                    [ds3 - dS3]]\)) N
(    ) S
(print) K
(\(") p
(The vector of the differences of square lengths is:) str
("\)) p n
(    ) S
(print) K
(\(ds_dS\)) p n
(    dXmat = 2*dxMat2D\(dX1, dX2, dX3\)) N
(    ) S
(print) K
(\(") p
(The coefficient matrix for strain is:) str
("\)) p n
(    ) S
(print) K
(\(dXmat\)) p n
(    E_vec = inv\(dXmat\)*ds_dS) N
(    ) S
(print) K
(\(") p
(The resulting Green-Lagrange strain vector is:) str
("\)) p n
(    ) S
(print) K
(\(E_vec\)) p n
(    ) S
(return) K
( E_vec) p n
() N
() N
(def) K
( p3\(\):) p n
(    lamb = [I*4/100 ) S
(for) K
( I ) p
(in) K
( range\(10,100\)]) p n
(    pl.rc\(') S
(text) str
(', usetex=True\)) p n
(    pl.plot\(lamb, [l - 1 ) S
(for) K
( l ) p
(in) K
( lamb], label=") p
(Engineernig) str
("\)) p n
(    pl.plot\(lamb, [\(l**2 - 1\)/2 ) S
(for) K
( l ) p
(in) K
( lamb], label=") p
(Lagrange) str
("\)) p n
(    pl.plot\(lamb, [1 - 1/l ) S
(for) K
( l ) p
(in) K
( lamb], label=") p
(True) str
("\)) p n
(    pl.plot\(lamb, [\(1 - 1/l**2\)/2 ) S
(for) K
( l ) p
(in) K
( lamb], label=") p
(Euler) str
("\)) p n
(    pl.legend\(\)) N
(    pl.savefig\(") S
(hw7P3.svg) str
("\)) p n
(    ) S
(# pl.show\(\)) c n
(    pl.clf\(\)) p n
() N
() N
(def) K
( p5a\(\):) p n
(    ) S
(# width = 20 mm) c n
(    ) p
(# height = 10 mm) c n
(    ) p
(# thickness = 1.5 mm) c n
(    ) p
(# vertical displacement = 7.5 mm) c n
(    ) p
(# linear force response) c n
(    ) p
(# maximum force response coincides with maximum strain) c n
(    ) p
(# maximum force = 5 N) c n
(    ) p
(# data collected at 30 Hz) c n
(    ) p
(# milimeters) c n
(    ) p
(# E13 E23 are zero) c n
(    ) p
(# Assume incompressibility \(det\(F\) = 1\)) c n
(    ) p
(#) c n
(    ) p
(# Calculate out-of-plane normal strain E33) c n
() p n
(    ) S
(# a = readByCols\("data.txt", sep="|", cab="2"\)) c n
() p n
(    ) S
(# Frequency \(data collected at 30 Hz\)) c n
(    freq = 30.0) p n
() N
(    ) S
(# Read data) c n
(    data = readByCols\(") p
(simple_shear_video.txt) str
(", cab=0\)) p n
(    dataRan = range\(len\(data\)\)) N
(    ) S
(# Unpack data as points [x, y] in 4 variables \(u_: upper; l_:lower;) c n
border
/v 1 store
/x0 x v get 3.360000 add sx cw mul add store
/y0 y v get bfs  sub store
x0 y0 moveto
(    ) p
(# _l:left; _r:right\)) c n
(    ul, ur, ll, lr = [array\([[J[2*I], J[2*I + 1]] ) p
(for) K
( J ) p
(in) K
( data]\)) p n
(                      ) S
(for) K
( I ) p
(in) K
( range\(4\)]) p n
(    ) S
(del) K
( data) p n
(    ) S
(# *Calculate strains) c n
(    ) p
(# *Calculate dx for each line \(left-right, down-up\) at each instant) c n
(    dxi = [) p n
(        ) S
(# **Bottom line \(0\)) c n
(        lr - ll,) p n
(        ) S
(# **Right vertical \(1\)) c n
(        ur - lr,) p n
(        ) S
(# **Top line \(2\)) c n
(        ur - ul,) p n
(        ) S
(# **Left vertical \(3\)) c n
(        ul - ll,) p n
(        ) S
(# **Diagonal going up \(4\)) c n
(        ur - ll,) p n
(        ) S
(# **Diagonal going down \(5\)) c n
(        lr - ul,) p n
(    ]) N
(    ) S
(# **Reference coordinates are at t = 0) c n
(    dXi = [dx[0] ) p
(for) K
( dx ) p
(in) K
( dxi]) p n
(    ) S
(# **Calculate dS \(magnitude of dX\) for each line) c n
(    dSi = [sqrt\(I[0]**2 + I[1]**2\) ) p
(for) K
( I ) p
(in) K
( dXi]) p n
(    ) S
(# **Calculate ds for each line at each instant) c n
(    dsi = [[sqrt\(J[0]**2 + J[1]**2\) ) p
(for) K
( J ) p
(in) K
( I]) p n
(           ) S
(for) K
( I ) p
(in) K
( dxi]) p n
(    ) S
(# **Calculate the vector of ds^2 - dS^2 at each instant) c n
(    ) p
(# \(could be faster if I didn't calculate the sqrt of ds and dS before\)) c n
(    ds2_dS2 = [matrix\([ds[J]**2 - dSi[I]**2 ) p
(for) K
( I, ds ) p
(in) K
( enumerate\(dsi\)]\).) p n
(T) N
(               ) S
(for) K
( J ) p
(in) K
( dataRan]) p n
(    ) S
(# **Build single coefficient matrix \(6x3\)) c n
(    dXmat = 2*matrix\([[dX[0]**2, 2*dX[0]*dX[1], dX[1]**2] ) p
(for) K
( dX ) p
(in) K
( dXi]\)) p n
(    ) S
(# **Build assmebled inverted matrix \(3x6\)) c n
(    aMatInv = inv\(dXmat.T*dXmat\)*dXmat.T) p n
(    ) S
(# **Calculate resulting planar Lagrange strain for each instant) c n
(    ) p
(# \(E11 = E_vec[0,0], E12 = E_vec[1,0], E21 = E11, E22 = E_vec[2,0]\)) c n
(    E_vec = [aMatInv * v ) p
(for) K
( v ) p
(in) K
( ds2_dS2]) p n
(    ) S
(# **Calculate The E33 component) c n
(    ) p
(# ***det\(2E + I\) = 1) c n
(    """) p n
(    E_33 = \(calculate based on det\(F\) = 1 \342M-^FM-^R det\(C\) = \342M-^FM-^R det\(2E + I\)=1\)) str n
(    \(\(2*E11+1\)*\(\(2*E22+1\)*\(2*E33+1\)) N
(                -4*E23*E32\)) N
(     -2*E12*\(2*E21*\(2*E33+1\)) N
(             -4*E23*E31\)) N
(     +2*E13*\(4*E21*E32-2*\(2*E22+1\)*E31\)\) = 1) N
() N
(    E13 = 0) N
(    E23 = 0) N
(    E31 = 0) N
(    E32 = 0) N
(    E33 = \(\(-2*E11-1\)*E22+2*E12^2-E11\)/\(\(4*E11+2\)*E22-4*E12^2+2*E11+1\)) N
(    \(E11 = v[0,0], E12 = v[1,0], E21 = E11, E22 = v[2,0]\)) N
(    ) S
(""") p n
(    E33 = [\(\(-2*v[0, 0] - 1\)*v[2, 0]) N
(            + 2*v[1, 0]**2 - v[0, 0]\)/\(\(4*v[0, 0] + 2\)*v[2, 0]) N
(                                       - 4*v[1, 0]**2 + 2*v[0, 0] + 1\)) N
(           ) S
(for) K
( v ) p
(in) K
( E_vec]) p n
(    pl.rc\(') S
(text) str
(', usetex=True\)) p n
(    ) S
(# Plot) c n
(    time = [I*\(1/freq\) ) p
(for) K
( I ) p
(in) K
( dataRan]) p n
(    lines = pl.plot\(time, [[I[J, 0] ) S
(for) K
( J ) p
(in) K
( range\(3\)] ) p
(for) K
( I ) p
(in) K
( E_vec]\)) p n
(    lines = lines + pl.plot\(time, E33\)) N
(    pl.legend\(lines, [r") S
($E_{1,1}$) str
(",) p n
(                      r") S
($E_{1,2}$) str
(",) p n
(                      r") S
($E_{2,2}$) str
(",) p n
(                      r") S
($E_{3,3}$) str
("]\)) p n
border
grestore
end % of iso1dict
pagesave restore
showpage
%%Page: (7-8) 4
%%BeginPageSetup
/pagesave save def
sh 0 translate 90 rotate
%%EndPageSetup
iso1dict begin
gsave
llx lly 0 add translate
/v 0 store
/x0 x v get 3.360000 add sx cw mul add store
/y0 y v get bfs  sub store
x0 y0 moveto
() p n
(    ) S
(# pl.xticks\([I for I in range\(133\)],) c n
(    ) p
(#           [I/\(freq*len\(dataRan\)\) for I in dataRan]\)) c n
(    ticks = pl.xticks\(\)) p n
(    pl.savefig\(") S
(hw7P5a.svg) str
("\)) p n
(    ) S
(# pl.show\(\)) c n
(    pl.clf\(\)) p n
(    ) S
(# pl.close\(\)) c n
(    ) p
(return) K
( E_vec, E33) p n
() N
() N
(def) K
( p5b\(\):) p n
(# * Lagrange strain by means of deformation gradient) c n
(# 1. E = 0.5 * \(C - I\)) N
(# 2. C = transpose\(F\) * F) N
(# 3. F[i, j] = dx[i]/dX[j]) N
(# ** Estimate F[i,j] by dx[i]/dX[j]) N
(#          [ dx1  dx1  dx1 ]) N
(#          [ ---  ---  --- ]) N
(#          [ dX1  dX2  dX3 ]) N
(#          [               ]) N
(#          [ dx2  dx2  dx2 ]) N
(# F[i,j] = [ ---  ---  --- ]) N
(#          [ dX1  dX2  dX3 ]) N
(#          [               ]) N
(#          [ dx3  dx3  dx3 ]) N
(#          [ ---  ---  --- ]) N
(#          [ dX1  dX2  dX3 ]) N
(# # Reported frequency) N
(# freq = 30 Hz) N
(# Number of samples) N
(N = 133) p n
(# Reference vector \(2D, because I need \)) c n
(dX = [20, 10, 1.5]) p n
(# Final y-displacement) c n
(h = 7.5) p n
(# y-displacement increment) c n
(dh = h/\(N-1\)) p n
(# vector of the deformed \(horizontal; only in reference\) line at) c n
(# each instant \(could be 2D\)) N
(dx1 = [dX[0], 0, 0]) p n
(# vertical component \(could be 2D\)) c n
(# dx2 = [[dh*I, dX[1], 0] for I in range\(N\)]) N
(theta =) p n
(dx2 = [[dh*I, dX[1], 0] ) S
(for) K
( I ) p
(in) K
( range\(N\)]) p n
(# *** Calculate area \(to get volume, and solve for dx3\)) c n
(# A = cross\(dx1, dx2\), dx3_z = 1/A) N
(# z-component \(to be calculated by means of the incompressibility;) N
(# V = 20*10*1.5\)) N
(V = product\(dX\)) p n
(dx3 = [[0, 0, V/cross\(dx1[:2], dx2[I][:2]\)] ) S
(for) K
( I ) p
(in) K
( range\(N\)]) p n
() N
(# *** Deformation gradient) c n
(def) K
( singleDefGrad\(dX, dx1, dx2, dx3\):) p n
(   F = matrix\([[dx1[0]/dX[0], dx1[1]/dX[1], dx1[2]/dX[2]],) N
(               [dx2[0]/dX[0], dx2[1]/dX[1], dx2[2]/dX[2]],) N
(               [dx3[0]/dX[0], dx3[1]/dX[1], dx3[2]/dX[2]]]\)) N
(   ) S
(return) K
( F) p n
() N
(F = [singleDefGrad\(dX, dx1, dx2[I], dx3[I]\) ) S
(for) K
( I ) p
(in) K
( range\(N\)]) p n
(# ** Cauchy stress) c n
(C = [I.transpose\(\)*I ) p
(for) K
( I ) p
(in) K
( F]) p n
(# ** Lagrange strain) c n
(E = [0.5 * \(I - diag\([1, 1, 1]\)\) ) p
(for) K
( I ) p
(in) K
( C]) p n
(return) K
( E) p n
() N
() N
(def) K
( main\(\):) p n
(    ) S
(# F, E, E_p = p1a\(\)) c n
border
/v 1 store
/x0 x v get 3.360000 add sx cw mul add store
/y0 y v get bfs  sub store
x0 y0 moveto
(    ) p
(# E_eng, E_eng_eigvl = p1b\(F\)) c n
(    ) p
(# epsilon, epsilon_eigvl = p1c\(F\)) c n
(    ) p
(#) c n
(    ) p
(# multiMohr\([[E_eng_eigvl[0], E_eng_eigvl[2]],) c n
(    ) p
(#            [epsilon_eigvl[0], epsilon_eigvl[2]]]\)) c n
(    ) p
(# pl.savefig\("hw7P1comp.svg"\)) c n
(    ) p
(# print\("See hw7pP1comp.svg"\)) c n
(    ) p
(# pl.close\(\)) c n
(    ) p
(#) c n
(    ) p
(# E_vec = p2d\(\)) c n
(    E_vecs, E33s = p5a\(\)) p n
(    E = p5b\(\)) N
() N
(    freq = 1/30) N
(    time = [I*\(1/freq\) ) S
(for) K
( I ) p
(in) K
( range\(len\(E\)\)]) p n
(    ) S
(# lines = pl.plot\([[I[J, 0] for J in range\(3\)] for I in E_vecs],) c n
(    ) p
(#                 marker="+"\)) c n
(    ) p
(# lines = pl.plot\(E33s\)) c n
(    ) p
(# lines = lines + pl.plot\(E33s\)) c n
(    lines = lines + pl.plot\([I[0, 0] ) p
(for) K
( I ) p
(in) K
( E],) p n
(                                   [I[0, 1] ) S
(for) K
( I ) p
(in) K
( E],) p n
(                                   [I[1, 1] ) S
(for) K
( I ) p
(in) K
( E],) p n
(                                   [I[2, 2] ) S
(for) K
( I ) p
(in) K
( E]\)) p n
(    ) S
(# pl.legend\(lines, [r"$E_{1,1}$ from markers",) c n
(    ) p
(#                   r"$E_{1,2}$ from markers",) c n
(    ) p
(#                   r"$E_{2,2}$ from markers",) c n
(    ) p
(#                   r"$E_{3,3}$ from markers",) c n
(    ) p
(#                   r"$E_{1,1}$ from clamp",) c n
(    ) p
(#                   r"$E_{1,2}$ from clamp",) c n
(    ) p
(#                   r"$E_{2,2}$ from clamp",) c n
(    ) p
(#                   r"$E_{3,3}$ from clamp"]\)) c n
border
grestore
end % of iso1dict
pagesave restore
showpage

%%Trailer
end
%%EOF
