<?xml version="1.0" encoding="utf-8" standalone="no"?>
<!DOCTYPE svg PUBLIC "-//W3C//DTD SVG 1.1//EN"
  "http://www.w3.org/Graphics/SVG/1.1/DTD/svg11.dtd">
<!-- Created with matplotlib (http://matplotlib.org/) -->
<svg height="432pt" version="1.1" viewBox="0 0 576 432" width="576pt" xmlns="http://www.w3.org/2000/svg" xmlns:xlink="http://www.w3.org/1999/xlink">
 <defs>
  <style type="text/css">
*{stroke-linecap:butt;stroke-linejoin:round;}
  </style>
 </defs>
 <g id="figure_1">
  <g id="patch_1">
   <path d="
M0 432
L576 432
L576 0
L0 0
z
" style="fill:#ffffff;"/>
  </g>
  <g id="axes_1">
   <g id="patch_2">
    <path d="
M122.4 388.8
L468 388.8
L468 43.2
L122.4 43.2
z
" style="fill:#ffffff;"/>
   </g>
   <g id="patch_3">
    <path clip-path="url(#pa2aeb1a477)" d="
M279.225 360
C317.414 360 354.044 344.827 381.048 317.823
C408.052 290.82 423.225 254.189 423.225 216
C423.225 177.811 408.052 141.18 381.048 114.177
C354.044 87.1727 317.414 72 279.225 72
C241.035 72 204.405 87.1727 177.401 114.177
C150.397 141.18 135.225 177.811 135.225 216
C135.225 254.189 150.397 290.82 177.401 317.823
C204.405 344.827 241.035 360 279.225 360
z
" style="fill:none;stroke:#000000;"/>
   </g>
   <g id="line2d_1">
    <path clip-path="url(#pa2aeb1a477)" d="
M122.4 216
L468 216" style="fill:none;stroke:#808080;stroke-linecap:square;"/>
   </g>
   <g id="line2d_2">
    <path clip-path="url(#pa2aeb1a477)" d="
M199.348 388.8
L199.348 43.2" style="fill:none;stroke:#808080;stroke-linecap:square;"/>
   </g>
   <g id="line2d_3">
    <defs>
     <path d="
M0 3
C0.795609 3 1.55874 2.6839 2.12132 2.12132
C2.6839 1.55874 3 0.795609 3 0
C3 -0.795609 2.6839 -1.55874 2.12132 -2.12132
C1.55874 -2.6839 0.795609 -3 0 -3
C-0.795609 -3 -1.55874 -2.6839 -2.12132 -2.12132
C-2.6839 -1.55874 -3 -0.795609 -3 0
C-3 0.795609 -2.6839 1.55874 -2.12132 2.12132
C-1.55874 2.6839 -0.795609 3 0 3
z
" id="mdb00ba95ec" style="stroke:#000000;stroke-width:0.5;"/>
    </defs>
    <g clip-path="url(#pa2aeb1a477)">
     <use style="fill:#0000ff;stroke:#000000;stroke-width:0.5;" x="279.224634349" xlink:href="#mdb00ba95ec" y="72.0"/>
    </g>
   </g>
   <g id="line2d_4">
    <defs>
     <path d="
M0 3
C0.795609 3 1.55874 2.6839 2.12132 2.12132
C2.6839 1.55874 3 0.795609 3 0
C3 -0.795609 2.6839 -1.55874 2.12132 -2.12132
C1.55874 -2.6839 0.795609 -3 0 -3
C-0.795609 -3 -1.55874 -2.6839 -2.12132 -2.12132
C-2.6839 -1.55874 -3 -0.795609 -3 0
C-3 0.795609 -2.6839 1.55874 -2.12132 2.12132
C-1.55874 2.6839 -0.795609 3 0 3
z
" id="m25f47eefb8" style="stroke:#000000;stroke-width:0.5;"/>
    </defs>
    <g clip-path="url(#pa2aeb1a477)">
     <use style="fill:#008000;stroke:#000000;stroke-width:0.5;" x="423.224634349" xlink:href="#m25f47eefb8" y="216.0"/>
    </g>
   </g>
   <g id="matplotlib.axis_1">
    <g id="xtick_1">
     <g id="line2d_5">
      <defs>
       <path d="
M0 0
L0 -4" id="mc7db9fdffb" style="stroke:#000000;stroke-width:0.5;"/>
      </defs>
      <g>
       <use style="stroke:#000000;stroke-width:0.5;" x="199.347806092" xlink:href="#mc7db9fdffb" y="388.8"/>
      </g>
     </g>
     <g id="line2d_6">
      <defs>
       <path d="
M0 0
L0 4" id="m5a7d422ac3" style="stroke:#000000;stroke-width:0.5;"/>
      </defs>
      <g>
       <use style="stroke:#000000;stroke-width:0.5;" x="199.347806092" xlink:href="#m5a7d422ac3" y="43.2"/>
      </g>
     </g>
     <g id="text_1">
      <!-- $0.0$ -->
      <defs>
       <path d="
M42 31.6406
C42 37.75 41.9062 48.125 37.7031 56.1094
C34 63.1094 28.0938 65.5938 22.9062 65.5938
C18.0938 65.5938 12 63.4062 8.20312 56.2031
C4.20312 48.7188 3.79688 39.4375 3.79688 31.6406
C3.79688 25.9531 3.90625 17.2812 7 9.67188
C11.2969 -0.609375 19 -2 22.9062 -2
C27.5 -2 34.5 -0.109375 38.5938 9.375
C41.5938 16.2812 42 24.3594 42 31.6406
M22.9062 -0.40625
C16.5 -0.40625 12.7031 5.07812 11.2969 12.6875
C10.2031 18.5625 10.2031 27.1562 10.2031 32.75
C10.2031 40.4375 10.2031 46.8281 11.5 52.9219
C13.4062 61.3906 19 64 22.9062 64
C27 64 32.2969 61.2969 34.2031 53.125
C35.5 47.4375 35.5938 40.7344 35.5938 32.75
C35.5938 26.25 35.5938 18.2656 34.4062 12.375
C32.2969 1.48438 26.4062 -0.40625 22.9062 -0.40625" id="CMR17-48"/>
       <path d="
M18.4062 4.79688
C18.4062 7.6875 16 9.67188 13.5938 9.67188
C10.7031 9.67188 8.70312 7.28125 8.70312 4.89062
C8.70312 2 11.0938 0 13.5 0
C16.4062 0 18.4062 2.39062 18.4062 4.79688" id="CMMI12-58"/>
      </defs>
      <g transform="translate(191.868985215 401.317984317)scale(0.12 -0.12)">
       <use transform="scale(0.9962640099626402)" xlink:href="#CMR17-48"/>
       <use transform="translate(45.69047711706103 0.0)scale(0.9962640099626402)" xlink:href="#CMMI12-58"/>
       <use transform="translate(72.78765420688046 0.0)scale(0.9962640099626402)" xlink:href="#CMR17-48"/>
      </g>
     </g>
    </g>
    <g id="xtick_2">
     <g id="line2d_7">
      <g>
       <use style="stroke:#000000;stroke-width:0.5;" x="279.224634349" xlink:href="#mc7db9fdffb" y="388.8"/>
      </g>
     </g>
     <g id="line2d_8">
      <g>
       <use style="stroke:#000000;stroke-width:0.5;" x="279.224634349" xlink:href="#m5a7d422ac3" y="43.2"/>
      </g>
     </g>
     <g id="text_2">
      <!-- $0.5$ -->
      <defs>
       <path d="
M11.4062 57.6875
C12.4062 57.2812 16.5 56 20.7031 56
C30 56 35.0938 61.0156 38 63.9219
C38 64.7344 38 65.25 37.4062 65.25
C37.2969 65.25 37.0938 65.25 36.2969 64.8281
C32.7969 63.3125 28.7031 62.0781 23.7031 62.0781
C20.7031 62.0781 16.2031 62.5 11.2969 64.7344
C10.2031 65.25 10 65.25 9.90625 65.25
C9.40625 65.25 9.29688 65.1406 9.29688 63.1562
L9.29688 34.2812
C9.29688 32.5 9.29688 32 10.2969 32
C10.7969 32 11 32.2031 11.5 32.9062
C14.7031 37.4844 19.0938 39.4062 24.0938 39.4062
C27.5938 39.4062 35.0938 37.2188 35.0938 20.1406
C35.0938 16.9531 35.0938 11.1719 32.0938 6.57812
C29.5938 2.48438 25.7031 0.390625 21.4062 0.390625
C14.7969 0.390625 8.09375 5 6.29688 12.7188
C6.70312 12.6094 7.5 12.4219 7.90625 12.4219
C9.20312 12.4219 11.7031 13.125 11.7031 16.2188
C11.7031 18.9062 9.79688 20 7.90625 20
C5.59375 20 4.09375 18.5938 4.09375 15.7969
C4.09375 7.09375 11 -2 21.5938 -2
C31.9062 -2 41.7031 6.875 41.7031 19.75
C41.7031 31.7188 33.9062 41 24.2031 41
C19.0938 41 14.7969 39.0938 11.4062 35.4531
z
" id="CMR17-53"/>
      </defs>
      <g transform="translate(271.745813472 401.317984317)scale(0.12 -0.12)">
       <use transform="scale(0.9962640099626402)" xlink:href="#CMR17-48"/>
       <use transform="translate(45.69047711706103 0.0)scale(0.9962640099626402)" xlink:href="#CMMI12-58"/>
       <use transform="translate(72.78765420688046 0.0)scale(0.9962640099626402)" xlink:href="#CMR17-53"/>
      </g>
     </g>
    </g>
    <g id="xtick_3">
     <g id="line2d_9">
      <g>
       <use style="stroke:#000000;stroke-width:0.5;" x="359.101462605" xlink:href="#mc7db9fdffb" y="388.8"/>
      </g>
     </g>
     <g id="line2d_10">
      <g>
       <use style="stroke:#000000;stroke-width:0.5;" x="359.101462605" xlink:href="#m5a7d422ac3" y="43.2"/>
      </g>
     </g>
     <g id="text_3">
      <!-- $1.0$ -->
      <defs>
       <path d="
M26.5938 63.3125
C26.5938 65.4062 26.5 65.5 25.0938 65.5
C21.2031 61.1875 15.2969 59.7969 9.70312 59.7969
C9.40625 59.7969 8.90625 59.7969 8.79688 59.6094
C8.70312 59.3906 8.70312 59.1719 8.70312 57
C11.7969 57 17 57.5938 21 59.9844
L21 7.20312
C21 3.6875 20.7969 2.5 12.2031 2.5
L9.20312 2.5
L9.20312 0
C14 0 19 0 23.7969 0
C28.5938 0 33.5938 0 38.4062 0
L38.4062 2.5
L35.4062 2.5
C26.7969 2.5 26.5938 3.59375 26.5938 7.15625
z
" id="CMR17-49"/>
      </defs>
      <g transform="translate(351.622641728 401.317984317)scale(0.12 -0.12)">
       <use transform="scale(0.9962640099626402)" xlink:href="#CMR17-49"/>
       <use transform="translate(45.69047711706103 0.0)scale(0.9962640099626402)" xlink:href="#CMMI12-58"/>
       <use transform="translate(72.78765420688046 0.0)scale(0.9962640099626402)" xlink:href="#CMR17-48"/>
      </g>
     </g>
    </g>
    <g id="xtick_4">
     <g id="line2d_11">
      <g>
       <use style="stroke:#000000;stroke-width:0.5;" x="438.978290862" xlink:href="#mc7db9fdffb" y="388.8"/>
      </g>
     </g>
     <g id="line2d_12">
      <g>
       <use style="stroke:#000000;stroke-width:0.5;" x="438.978290862" xlink:href="#m5a7d422ac3" y="43.2"/>
      </g>
     </g>
     <g id="text_4">
      <!-- $1.5$ -->
      <g transform="translate(431.499469985 401.317984317)scale(0.12 -0.12)">
       <use transform="scale(0.9962640099626402)" xlink:href="#CMR17-49"/>
       <use transform="translate(45.69047711706103 0.0)scale(0.9962640099626402)" xlink:href="#CMMI12-58"/>
       <use transform="translate(72.78765420688046 0.0)scale(0.9962640099626402)" xlink:href="#CMR17-53"/>
      </g>
     </g>
    </g>
   </g>
   <g id="matplotlib.axis_2">
    <g id="ytick_1">
     <g id="line2d_13">
      <defs>
       <path d="
M0 0
L4 0" id="md7965d1ba0" style="stroke:#000000;stroke-width:0.5;"/>
      </defs>
      <g>
       <use style="stroke:#000000;stroke-width:0.5;" x="122.4" xlink:href="#md7965d1ba0" y="375.753656513"/>
      </g>
     </g>
     <g id="line2d_14">
      <defs>
       <path d="
M0 0
L-4 0" id="md9a1c1a7cd" style="stroke:#000000;stroke-width:0.5;"/>
      </defs>
      <g>
       <use style="stroke:#000000;stroke-width:0.5;" x="468.0" xlink:href="#md9a1c1a7cd" y="375.753656513"/>
      </g>
     </g>
     <g id="text_5">
      <!-- $-1.0$ -->
      <defs>
       <path d="
M65.9062 23
C67.5938 23 69.4062 23 69.4062 25
C69.4062 27 67.5938 27 65.9062 27
L11.7969 27
C10.0938 27 8.29688 27 8.29688 25
C8.29688 23 10.0938 23 11.7969 23
z
" id="CMSY10-0"/>
      </defs>
      <g transform="translate(94.1438688171 378.739461393)scale(0.12 -0.12)">
       <use transform="scale(0.9962640099626402)" xlink:href="#CMSY10-0"/>
       <use transform="translate(77.4874676506071 0.0)scale(0.9962640099626402)" xlink:href="#CMR17-49"/>
       <use transform="translate(123.17794476766814 0.0)scale(0.9962640099626402)" xlink:href="#CMMI12-58"/>
       <use transform="translate(150.27512185748756 0.0)scale(0.9962640099626402)" xlink:href="#CMR17-48"/>
      </g>
     </g>
    </g>
    <g id="ytick_2">
     <g id="line2d_15">
      <g>
       <use style="stroke:#000000;stroke-width:0.5;" x="122.4" xlink:href="#md7965d1ba0" y="295.876828256"/>
      </g>
     </g>
     <g id="line2d_16">
      <g>
       <use style="stroke:#000000;stroke-width:0.5;" x="468.0" xlink:href="#md9a1c1a7cd" y="295.876828256"/>
      </g>
     </g>
     <g id="text_6">
      <!-- $-0.5$ -->
      <g transform="translate(94.1438688171 298.862633136)scale(0.12 -0.12)">
       <use transform="scale(0.9962640099626402)" xlink:href="#CMSY10-0"/>
       <use transform="translate(77.4874676506071 0.0)scale(0.9962640099626402)" xlink:href="#CMR17-48"/>
       <use transform="translate(123.17794476766814 0.0)scale(0.9962640099626402)" xlink:href="#CMMI12-58"/>
       <use transform="translate(150.27512185748756 0.0)scale(0.9962640099626402)" xlink:href="#CMR17-53"/>
      </g>
     </g>
    </g>
    <g id="ytick_3">
     <g id="line2d_17">
      <g>
       <use style="stroke:#000000;stroke-width:0.5;" x="122.4" xlink:href="#md7965d1ba0" y="216.0"/>
      </g>
     </g>
     <g id="line2d_18">
      <g>
       <use style="stroke:#000000;stroke-width:0.5;" x="468.0" xlink:href="#md9a1c1a7cd" y="216.0"/>
      </g>
     </g>
     <g id="text_7">
      <!-- $0.0$ -->
      <g transform="translate(103.442358246 218.98580488)scale(0.12 -0.12)">
       <use transform="scale(0.9962640099626402)" xlink:href="#CMR17-48"/>
       <use transform="translate(45.69047711706103 0.0)scale(0.9962640099626402)" xlink:href="#CMMI12-58"/>
       <use transform="translate(72.78765420688046 0.0)scale(0.9962640099626402)" xlink:href="#CMR17-48"/>
      </g>
     </g>
    </g>
    <g id="ytick_4">
     <g id="line2d_19">
      <g>
       <use style="stroke:#000000;stroke-width:0.5;" x="122.4" xlink:href="#md7965d1ba0" y="136.123171744"/>
      </g>
     </g>
     <g id="line2d_20">
      <g>
       <use style="stroke:#000000;stroke-width:0.5;" x="468.0" xlink:href="#md9a1c1a7cd" y="136.123171744"/>
      </g>
     </g>
     <g id="text_8">
      <!-- $0.5$ -->
      <g transform="translate(103.442358246 139.108976623)scale(0.12 -0.12)">
       <use transform="scale(0.9962640099626402)" xlink:href="#CMR17-48"/>
       <use transform="translate(45.69047711706103 0.0)scale(0.9962640099626402)" xlink:href="#CMMI12-58"/>
       <use transform="translate(72.78765420688046 0.0)scale(0.9962640099626402)" xlink:href="#CMR17-53"/>
      </g>
     </g>
    </g>
    <g id="ytick_5">
     <g id="line2d_21">
      <g>
       <use style="stroke:#000000;stroke-width:0.5;" x="122.4" xlink:href="#md7965d1ba0" y="56.2463434871"/>
      </g>
     </g>
     <g id="line2d_22">
      <g>
       <use style="stroke:#000000;stroke-width:0.5;" x="468.0" xlink:href="#md9a1c1a7cd" y="56.2463434871"/>
      </g>
     </g>
     <g id="text_9">
      <!-- $1.0$ -->
      <g transform="translate(103.442358246 59.2321483668)scale(0.12 -0.12)">
       <use transform="scale(0.9962640099626402)" xlink:href="#CMR17-49"/>
       <use transform="translate(45.69047711706103 0.0)scale(0.9962640099626402)" xlink:href="#CMMI12-58"/>
       <use transform="translate(72.78765420688046 0.0)scale(0.9962640099626402)" xlink:href="#CMR17-48"/>
      </g>
     </g>
    </g>
   </g>
   <g id="patch_4">
    <path d="
M122.4 388.8
L122.4 43.2" style="fill:none;stroke:#000000;"/>
   </g>
   <g id="patch_5">
    <path d="
M468 388.8
L468 43.2" style="fill:none;stroke:#000000;"/>
   </g>
   <g id="patch_6">
    <path d="
M122.4 388.8
L468 388.8" style="fill:none;stroke:#000000;"/>
   </g>
   <g id="patch_7">
    <path d="
M122.4 43.2
L468 43.2" style="fill:none;stroke:#000000;"/>
   </g>
   <g id="patch_8">
    <path d="
M281.225 46.534
L277.225 46.534
L277.225 68.7446
L273.225 68.7446
L279.225 71.2124
L285.225 68.7446
L281.225 68.7446
z
" style="stroke:#000000;"/>
   </g>
   <g id="text_10">
    <!-- Max shear:\\9.014e-01 -->
    <defs>
     <path d="
M21.4062 10.4219
L11 10.4219
L11 0
L21.4062 0
z

M21.4062 52.4062
L11 52.4062
L11 42
L21.4062 42
z
" id="Nimbus_Sans_L_Regular-58"/>
     <path d="
M19.0938 10.4219
L8.70312 10.4219
L8.70312 0
L19.0938 0
z
" id="Nimbus_Sans_L_Regular-46"/>
     <path d="
M51.2969 24
C51.2969 31.875 50.7031 36.5938 49.2031 40.4219
C45.7969 48.875 37.7969 54 28 54
C13.4062 54 4 42.8438 4 25.7031
C4 8.54688 13.0938 -2 27.7969 -2
C39.7969 -2 48.0938 4.875 50.2031 16.375
L41.7969 16.375
C39.5 9.35938 34.7969 5.70312 28.0938 5.70312
C22.7969 5.70312 18.2969 8.14062 15.5 12.6094
C13.5 15.6562 12.7969 18.7188 12.7031 24
z

M12.9062 30.8125
C13.5938 40.1875 19.5 46.2812 27.9062 46.2812
C36.0938 46.2812 42.4062 39.7031 42.4062 31.4062
C42.4062 31.2031 42.4062 31.0156 42.2969 30.8125
z
" id="Nimbus_Sans_L_Regular-101"/>
     <path d="
M6.90625 52.4844
L6.90625 0
L15.2969 0
L15.2969 27.25
C15.2969 34.7656 17.2031 39.6719 21.2031 42.5781
C23.7969 44.4844 26.2969 45.0781 32.0938 45.0781
L32.0938 53.7031
C30.7031 53.8906 30 54 28.9062 54
C23.5 54 19.4062 50.7812 14.5938 42.9688
L14.5938 52.4844
z
" id="Nimbus_Sans_L_Regular-114"/>
     <path d="
M32.7031 17
L32.7031 0
L41.5 0
L41.5 17
L52 17
L52 24.9062
L41.5 24.9062
L41.5 71.0156
L35 71.0156
L2.79688 26.3125
L2.79688 17
z

M32.7031 24.9062
L10.5 24.9062
L32.7031 55.9844
z
" id="Nimbus_Sans_L_Regular-52"/>
     <path d="
M25.9062 50.5938
L25.9062 0
L34.7031 0
L34.7031 71.0156
L28.9062 71.0156
C25.7969 60.1094 23.7969 58.6094 10.2031 56.9062
L10.2031 50.5938
z
" id="Nimbus_Sans_L_Regular-49"/>
     <path d="
M28.4062 31.2031
L4.59375 31.2031
L4.59375 24
L28.4062 24
z
" id="Nimbus_Sans_L_Regular-45"/>
     <path d="
M7 73
L7 -0.03125
L15.2969 -0.03125
L15.2969 28.9375
C15.2969 39.6719 20.9062 46.6875 29.5 46.6875
C32.2031 46.6875 34.9062 45.7812 36.9062 44.2812
C39.2969 42.5781 40.2969 40.0625 40.2969 36.3594
L40.2969 -0.03125
L48.5938 -0.03125
L48.5938 39.6562
C48.5938 48.4844 42.2969 54 32.0938 54
C24.7031 54 20.2031 51.6875 15.2969 45.2812
L15.2969 73
z
" id="Nimbus_Sans_L_Regular-104"/>
     <path d="
M46.7969 -0.03125
L67.2969 61.1719
L67.2969 -0.03125
L76.0938 -0.03125
L76.0938 73
L63.2031 73
L42 9.39062
L20.4062 73
L7.5 73
L7.5 -0.03125
L16.2969 -0.03125
L16.2969 61.1719
L37 -0.03125
z
" id="Nimbus_Sans_L_Regular-77"/>
     <path d="
M53.5 5.20312
C52.5938 5 52.2031 5 51.7031 5
C48.7969 5 47.2031 6.48438 47.2031 9.07812
L47.2031 39.7656
C47.2031 49.0156 40.4062 54 27.5 54
C19.9062 54 13.5938 51.8125 10.0938 47.9062
C7.70312 45.2031 6.70312 42.2188 6.5 37.0312
L14.9062 37.0312
C15.5938 43.3906 19.4062 46.2812 27.2031 46.2812
C34.7031 46.2812 38.9062 43.4844 38.9062 38.5156
L38.9062 36.3281
C38.9062 32.8281 36.7969 31.3438 30.2031 30.5469
C18.4062 29.0625 16.5938 28.6562 13.4062 27.3594
C7.29688 24.875 4.20312 20.1875 4.20312 13.4219
C4.20312 3.96875 10.7969 -2 21.4062 -2
C28 -2 33.2969 0.296875 39.2031 5.70312
C39.7969 0.390625 42.4062 -2 47.7969 -2
C49.5 -2 50.7969 -1.8125 53.5 -1.09375
z

M38.9062 16.75
C38.9062 13.9531 38.0938 12.2656 35.5938 9.98438
C32.2031 6.89062 28.0938 5.3125 23.2031 5.3125
C16.7031 5.3125 12.9062 8.39062 12.9062 13.6562
C12.9062 19.1406 16.5938 21.9219 25.5 23.2188
C34.2969 24.4062 36.0938 24.8125 38.9062 26.0938
z
" id="Nimbus_Sans_L_Regular-97"/>
     <path d="
M27.5 71
C20.9062 71 14.9062 68.125 11.2031 63.2188
C6.59375 57.0469 4.29688 47.5625 4.29688 34.5
C4.29688 10.6719 12.2969 -2 27.5 -2
C42.5 -2 50.7031 10.6719 50.7031 33.9062
C50.7031 47.6562 48.5 56.8438 43.7969 63.2188
C40.0938 68.2188 34.2031 71 27.5 71
M27.5 63.1875
C37 63.1875 41.7031 53.625 41.7031 34.7031
C41.7031 14.6719 37.0938 5.3125 27.2969 5.3125
C18 5.3125 13.2969 15.0781 13.2969 34.4062
C13.2969 53.7188 18 63.1875 27.5 63.1875" id="Nimbus_Sans_L_Regular-48"/>
     <path d="
M29.2031 27.1406
L46.7969 52.4844
L37.4062 52.4844
L24.7969 33.4531
L12.2031 52.4844
L2.70312 52.4844
L20.2031 26.75
L1.70312 0
L11.2031 0
L24.5 20.125
L37.5938 0
L47.2969 0
z
" id="Nimbus_Sans_L_Regular-120"/>
     <path d="
M43.7969 37.9219
C43.7031 48.2031 36.9062 54 24.7969 54
C12.5938 54 4.70312 47.7188 4.70312 38.0625
C4.70312 29.8906 8.90625 26.0156 21.2969 23.0312
L29.0938 21.1406
C34.9062 19.7344 37.2031 17.6562 37.2031 13.875
C37.2031 9 32.2969 5.70312 25 5.70312
C20.5 5.70312 16.7031 7 14.5938 9.1875
C13.2969 10.6875 12.7031 12.1719 12.2031 15.8438
L3.40625 15.8438
C3.79688 3.76562 10.5938 -2 24.2969 -2
C37.5 -2 45.9062 4.45312 45.9062 14.5156
C45.9062 22.2812 41.5 26.5781 31.0938 29.0625
L23.0938 30.9531
C16.2969 32.5312 13.4062 34.7344 13.4062 38.4062
C13.4062 43.1875 17.7031 46.2812 24.5 46.2812
C31.2031 46.2812 34.7969 43.3906 35 37.9219
z
" id="Nimbus_Sans_L_Regular-115"/>
     <path d="
M5.29688 16.625
C7 4.9375 14.5938 -2 25.4062 -2
C33.2031 -2 40.2969 1.78125 44.4062 8.0625
C48.9062 14.9375 50.9062 23.625 50.9062 36.4844
C50.9062 48.3594 49.0938 55.9375 44.9062 62.2188
C41 67.9219 34.7969 71 27 71
C13.5 71 3.79688 61.0781 3.79688 47.2969
C3.79688 34.2188 12.7969 25 25.5938 25
C32.2969 25 37.2031 27.4062 41.7969 32.9062
C41.7031 15.4844 36.0938 5.8125 26 5.8125
C19.7969 5.8125 15.5 9.75 14.0938 16.625
z

M26.9062 63.2969
C35.0938 63.2969 41.2969 56.5938 41.2969 47.5156
C41.2969 38.9219 35.2031 32.8125 26.5938 32.8125
C18.0938 32.8125 12.7969 38.625 12.7969 48
C12.7969 56.875 18.7969 63.2969 26.9062 63.2969" id="Nimbus_Sans_L_Regular-57"/>
    </defs>
    <g transform="translate(279.224634349 43.2)scale(0.12 -0.12)">
     <use transform="translate(14.943960149439603 72.82524821470268)scale(0.9962640099626402)" xlink:href="#Nimbus_Sans_L_Regular-77"/>
     <use transform="translate(97.93239037690692 72.82524821470268)scale(0.9962640099626402)" xlink:href="#Nimbus_Sans_L_Regular-97"/>
     <use transform="translate(153.32406734024752 72.82524821470268)scale(0.9962640099626402)" xlink:href="#Nimbus_Sans_L_Regular-120"/>
     <use transform="translate(230.8324374416252 72.82524821470268)scale(0.9962640099626402)" xlink:href="#Nimbus_Sans_L_Regular-115"/>
     <use transform="translate(280.6456379397572 72.82524821470268)scale(0.9962640099626402)" xlink:href="#Nimbus_Sans_L_Regular-104"/>
     <use transform="translate(336.0373149030978 72.82524821470268)scale(0.9962640099626402)" xlink:href="#Nimbus_Sans_L_Regular-101"/>
     <use transform="translate(391.42899186643837 72.82524821470268)scale(0.9962640099626402)" xlink:href="#Nimbus_Sans_L_Regular-97"/>
     <use transform="translate(446.820668829779 72.82524821470268)scale(0.9962640099626402)" xlink:href="#Nimbus_Sans_L_Regular-114"/>
     <use transform="translate(482.9839913070128 72.82524821470268)scale(0.9962640099626402)" xlink:href="#Nimbus_Sans_L_Regular-58"/>
     <use transform="scale(0.9962640099626402)" xlink:href="#Nimbus_Sans_L_Regular-57"/>
     <use transform="translate(55.3916769633406 0.0)scale(0.9962640099626402)" xlink:href="#Nimbus_Sans_L_Regular-46"/>
     <use transform="translate(83.08684656658625 0.0)scale(0.9962640099626402)" xlink:href="#Nimbus_Sans_L_Regular-48"/>
     <use transform="translate(138.47852352992686 0.0)scale(0.9962640099626402)" xlink:href="#Nimbus_Sans_L_Regular-49"/>
     <use transform="translate(193.87020049326745 0.0)scale(0.9962640099626402)" xlink:href="#Nimbus_Sans_L_Regular-52"/>
     <use transform="translate(249.26187745660806 0.0)scale(0.9962640099626402)" xlink:href="#Nimbus_Sans_L_Regular-101"/>
     <use transform="translate(304.65355441994865 0.0)scale(0.9962640099626402)" xlink:href="#Nimbus_Sans_L_Regular-45"/>
     <use transform="translate(337.828784149284 0.0)scale(0.9962640099626402)" xlink:href="#Nimbus_Sans_L_Regular-48"/>
     <use transform="translate(393.22046111262455 0.0)scale(0.9962640099626402)" xlink:href="#Nimbus_Sans_L_Regular-49"/>
    </g>
   </g>
   <g id="patch_9">
    <path d="
M466.77 216.473
L466.543 220.467
L428.663 218.313
L428.436 222.306
L424.568 216.076
L429.117 210.325
L428.89 214.319
z
" style="stroke:#000000;"/>
   </g>
   <g id="text_11">
    <!-- Max normal:\\1.401e+00 -->
    <defs>
     <path d="
M53.4062 27
L32.7031 27
L32.7031 47.4844
L25.7031 47.4844
L25.7031 27
L5 27
L5 19.9844
L25.7031 19.9844
L25.7031 -1
L32.7031 -1
L32.7031 19.9844
L53.4062 19.9844
z
" id="Nimbus_Sans_L_Regular-43"/>
     <path d="
M7 52.4844
L7 0
L15.4062 0
L15.4062 28.9531
C15.4062 39.6719 21 46.6875 29.5938 46.6875
C36.2031 46.6875 40.4062 42.6719 40.4062 36.3594
L40.4062 0
L48.7031 0
L48.7031 39.6719
C48.7031 48.3906 42.2031 54 32.0938 54
C24.2969 54 19.2969 50.9844 14.7031 43.6875
L14.7031 52.4844
z
" id="Nimbus_Sans_L_Regular-110"/>
     <path d="
M15.2031 73
L6.79688 73
L6.79688 -0.03125
L15.2031 -0.03125
z
" id="Nimbus_Sans_L_Regular-108"/>
     <path d="
M27.2031 54
C12.5 54 3.59375 43.5312 3.59375 26
C3.59375 8.45312 12.4062 -2 27.2969 -2
C42 -2 51 8.45312 51 25.5938
C51 43.6406 42.2969 54 27.2031 54
M27.2969 46.2812
C36.7031 46.2812 42.2969 38.625 42.2969 25.7031
C42.2969 13.4531 36.5 5.70312 27.2969 5.70312
C18 5.70312 12.2969 13.3594 12.2969 26
C12.2969 38.5312 18 46.2812 27.2969 46.2812" id="Nimbus_Sans_L_Regular-111"/>
     <path d="
M7 52.4844
L7 0
L15.4062 0
L15.4062 32.9531
C15.4062 40.5781 20.9062 46.6875 27.7031 46.6875
C33.9062 46.6875 37.4062 42.875 37.4062 36.1562
L37.4062 0
L45.7969 0
L45.7969 32.9531
C45.7969 40.5781 51.2969 46.6875 58.0938 46.6875
C64.2031 46.6875 67.7969 42.7812 67.7969 36.1562
L67.7969 0
L76.2031 0
L76.2031 39.375
C76.2031 48.7812 70.7969 54 61 54
C54 54 49.7969 51.8906 44.9062 45.9844
C41.7969 51.5938 37.5938 54 30.7969 54
C23.7969 54 19.2031 51.3906 14.7031 45.0781
L14.7031 52.4844
z
" id="Nimbus_Sans_L_Regular-109"/>
    </defs>
    <g transform="translate(468.0 216.0)scale(0.12 -0.12)">
     <use transform="translate(14.943960149439603 72.82524821470268)scale(0.9962640099626402)" xlink:href="#Nimbus_Sans_L_Regular-77"/>
     <use transform="translate(97.93239037690692 72.82524821470268)scale(0.9962640099626402)" xlink:href="#Nimbus_Sans_L_Regular-97"/>
     <use transform="translate(153.32406734024752 72.82524821470268)scale(0.9962640099626402)" xlink:href="#Nimbus_Sans_L_Regular-120"/>
     <use transform="translate(230.8324374416252 72.82524821470268)scale(0.9962640099626402)" xlink:href="#Nimbus_Sans_L_Regular-110"/>
     <use transform="translate(286.2241144049658 72.82524821470268)scale(0.9962640099626402)" xlink:href="#Nimbus_Sans_L_Regular-111"/>
     <use transform="translate(341.61579136830636 72.82524821470268)scale(0.9962640099626402)" xlink:href="#Nimbus_Sans_L_Regular-114"/>
     <use transform="translate(377.28163551720115 72.82524821470268)scale(0.9962640099626402)" xlink:href="#Nimbus_Sans_L_Regular-109"/>
     <use transform="translate(460.2700657446685 72.82524821470268)scale(0.9962640099626402)" xlink:href="#Nimbus_Sans_L_Regular-97"/>
     <use transform="translate(515.6617427080091 72.82524821470268)scale(0.9962640099626402)" xlink:href="#Nimbus_Sans_L_Regular-108"/>
     <use transform="translate(537.7785270567404 72.82524821470268)scale(0.9962640099626402)" xlink:href="#Nimbus_Sans_L_Regular-58"/>
     <use transform="scale(0.9962640099626402)" xlink:href="#Nimbus_Sans_L_Regular-49"/>
     <use transform="translate(55.3916769633406 0.0)scale(0.9962640099626402)" xlink:href="#Nimbus_Sans_L_Regular-46"/>
     <use transform="translate(83.08684656658625 0.0)scale(0.9962640099626402)" xlink:href="#Nimbus_Sans_L_Regular-52"/>
     <use transform="translate(138.47852352992686 0.0)scale(0.9962640099626402)" xlink:href="#Nimbus_Sans_L_Regular-48"/>
     <use transform="translate(193.87020049326745 0.0)scale(0.9962640099626402)" xlink:href="#Nimbus_Sans_L_Regular-49"/>
     <use transform="translate(249.26187745660806 0.0)scale(0.9962640099626402)" xlink:href="#Nimbus_Sans_L_Regular-101"/>
     <use transform="translate(304.65355441994865 0.0)scale(0.9962640099626402)" xlink:href="#Nimbus_Sans_L_Regular-43"/>
     <use transform="translate(362.83504728362396 0.0)scale(0.9962640099626402)" xlink:href="#Nimbus_Sans_L_Regular-48"/>
     <use transform="translate(418.2267242469645 0.0)scale(0.9962640099626402)" xlink:href="#Nimbus_Sans_L_Regular-48"/>
    </g>
   </g>
  </g>
 </g>
 <defs>
  <clipPath id="pa2aeb1a477">
   <rect height="345.6" width="345.6" x="122.4" y="43.2"/>
  </clipPath>
 </defs>
</svg>
