
>>> main()
The orthotropic compliance tensor is:
[[ 0.005      -0.0062     -0.0022      0.          0.          0.        ]
 [-0.0003875   0.02       -0.00193333  0.          0.          0.        ]
 [-0.0012375  -0.0174      0.00666667  0.          0.          0.        ]
 [ 0.          0.          0.          0.01310616  0.          0.        ]
 [ 0.          0.          0.          0.          0.01310616  0.        ]
 [ 0.          0.          0.          0.          0.          0.01310616]]
The infinitesimal strain is:
[[ 0.0124    ]
 [-0.04      ]
 [ 0.0348    ]
 [ 0.00655308]
 [ 0.        ]
 [ 0.        ]]
The first stress tensor is:
[[ 3.99732552  0.          0.        ]
 [ 0.          1.53694689  0.        ]
 [ 0.          0.          4.75343494]]

The second stress tensor is:
[[-1.48502216  0.          0.        ]
 [ 0.         -2.36046432  0.        ]
 [ 0.          0.         -8.08646911]]
>>> 
