%!PS-Adobe-3.0
%%Title: hw6.py, hw6.res
%%For: e-Dgar
%%Creator: a2ps version 4.14
%%CreationDate: Tue Feb 28 09:39:11 2017
%%BoundingBox: 24 24 588 768
%%DocumentData: Clean7Bit
%%Orientation: Landscape
%%Pages: 4
%%PageOrder: Ascend
%%DocumentMedia: Letter 612 792 0 () ()
%%DocumentNeededResources: font Courier
%%+ font Courier-Bold
%%+ font Helvetica
%%+ font Helvetica-Bold
%%+ font Symbol
%%+ font Times-Bold
%%+ font Times-Roman
%%DocumentProcessColors: Black Blue Green Red 
%%DocumentSuppliedResources: procset a2ps-color-prolog
%%+ encoding ISO-8859-1Encoding
%%EndComments
/a2psdict 200 dict def
a2psdict begin
%%BeginProlog
%%Copyright: (c) 1988, 89, 90, 91, 92, 93 Miguel Santana
%%Copyright: (c) 1995, 96, 97, 98 Akim Demaille, Miguel Santana
% Check PostScript language level.
/languagelevel where {
  pop /gs_languagelevel languagelevel def
} {
  /gs_languagelevel 1 def
} ifelse

% EPSF import as in the Red Book
/BeginInclude {
  /b4_Inc_state save def    		% Save state for cleanup
  /dict_count countdictstack def	% Count objects on dict stack
  /op_count count 1 sub def		% Count objects on operand stack 
  userdict begin
    0 setgray 0 setlinecap
    1 setlinewidth 0 setlinejoin
    10 setmiterlimit [ ] 0 setdash newpath
    gs_languagelevel 1 ne {
      false setstrokeadjust false setoverprint 
    } if
} bind def

/EndInclude {
  count op_count sub { pos } repeat	% Clean up stacks
  countdictstack dict_count sub { end } repeat
  b4_Inc_state restore
} bind def

/BeginEPSF {
  BeginInclude
  /showpage { } def
} bind def

/EndEPSF {
  EndInclude
} bind def

% Page prefeed
/page_prefeed {         % bool -> -
  statusdict /prefeed known {
    statusdict exch /prefeed exch put
  } {
    pop
  } ifelse
} bind def

/deffont {
  findfont exch scalefont def
} bind def

/reencode_font {
  findfont reencode 2 copy definefont pop def
} bind def

% Function c-show (str => -)
% centers text only according to x axis.
/c-show { 
  dup stringwidth pop
  2 div neg 0 rmoveto
  show
} bind def

% Function l-show (str => -)
% prints texts so that it ends at currentpoint
/l-show {
  dup stringwidth pop neg 
  0 
  rmoveto show
} bind def

% center-fit show (str w => -)
% show centered, and scale currentfont so that the width is less than w
/cfshow {
  exch dup stringwidth pop
  % If the title is too big, try to make it smaller
  3 2 roll 2 copy
  gt
  { % if, i.e. too big
    exch div
    currentfont exch scalefont setfont
  } { % ifelse
    pop pop 
  }
  ifelse
  c-show			% center title
} bind def

% Return the y size of the current font
% - => fontsize
/currentfontsize {
  currentfont /FontType get 0 eq {
    currentfont /FontMatrix get 3 get
  }{
    currentfont /FontMatrix get 3 get 1000 mul
  } ifelse
} bind def

% reencode the font
% <encoding-vector> <fontdict> -> <newfontdict>
/reencode { %def
  dup length 5 add dict begin
    { %forall
      % <vector> <key> <val>
      1 index /FID ne 
      { def }{ pop pop } ifelse
    } forall
    /Encoding exch def % -

    % Use the font's bounding box to determine the ascent, descent,
    % and overall height; don't forget that these values have to be
    % transformed using the font's matrix.
    % We use `load' because sometimes BBox is executable, sometimes not.
    % Since we need 4 numbers an not an array avoid BBox from being executed
    /FontBBox load aload pop
    FontMatrix transform /Ascent exch def pop
    FontMatrix transform /Descent exch def pop
    /FontHeight Ascent Descent sub def

    % Get the underline position and thickness if they're defined.
    % Use 1 if they are not defined.
    currentdict /FontInfo 2 copy known
    { get
      /UnderlinePosition 2 copy % <FontInfo> /UP <FontInfo> /UP
      2 copy known
      { get }{ pop pop 1 } ifelse
      0 exch FontMatrix transform exch pop
      def % <FontInfo>

      /UnderlineThickness 2 copy % <FontInfo> /UT <FontInfo> /UT
      2 copy known
      { get }{ pop pop 1 } ifelse
      0 exch FontMatrix transform exch pop
      def % <FontInfo>
      pop % -
    }{ pop pop
    } ifelse

    currentdict
  end 
} bind def

% composite fonts for ASCII-EUC mixed strings
% Version 1.2 1/31/1990
% Original Ken'ichi HANDA (handa@etl.go.jp)
% Modified Norio Katayama (katayama@rd.nacsis.ac.jp),1998
% Extend & Fix Koji Nakamaru (maru@on.cs.keio.ac.jp), 1999
% Anyone can freely copy, modify, distribute this program.

/copyfont {	% font-dic extra-entry-count  copyfont  font-dic
	1 index maxlength add dict begin
	{	1 index /FID ne 2 index /UniqueID ne and
		{def} {pop pop} ifelse
	} forall
	currentdict
	end
} bind def

/compositefont { % ASCIIFontName EUCFontName RomanScale RomanOffset Rot(T/F) compositefont font
    /RomanRotation exch def
    /RomanOffset exch def
    /RomanScale exch def
    userdict /fixeucfont_dict known not {
	userdict begin
	    /fixeucfont_dict 2 dict begin
		/UpperByteEncoding [
		    16#00 1 16#20 { pop 0 } for
		    16#21 1 16#28 { 16#20 sub } for
		    16#29 1 16#2F { pop 0 } for
		    16#30 1 16#74 { 16#27 sub } for
		    16#75 1 16#FF { pop 0 } for
		] def
	        /LowerByteEncoding [
		    16#00 1 16#A0 { pop /.notdef } for
		    16#A1 1 16#FE { 16#80 sub 16 2 string cvrs
				    (cXX) dup 1 4 -1 roll
				    putinterval cvn } for
		    /.notdef
		] def
		currentdict
	    end def
	end
    } if
    findfont dup /FontType get 0 eq {
	14 dict begin
	    %
	    % 7+8 bit EUC font
	    %
	    12 dict begin
		/EUCFont exch def
		/FontInfo (7+8 bit EUC font) readonly def
		/PaintType 0 def
		/FontType 0 def
		/FontMatrix matrix def
		% /FontName
		/Encoding fixeucfont_dict /UpperByteEncoding get def
		/FMapType 2 def
		EUCFont /WMode known
		{ EUCFont /WMode get /WMode exch def }
		{ /WMode 0 def } ifelse
		/FDepVector [
		    EUCFont /FDepVector get 0 get
		    [ 16#21 1 16#28 {} for 16#30 1 16#74 {} for ]
		    {
			13 dict begin
			    /EUCFont EUCFont def
			    /UpperByte exch 16#80 add def	
			    % /FontName
			    /FontInfo (EUC lower byte font) readonly def
			    /PaintType 0 def
			    /FontType 3 def
			    /FontMatrix matrix def
			    /FontBBox {0 0 0 0} def
			    /Encoding
				fixeucfont_dict /LowerByteEncoding get def
			    % /UniqueID
			    % /WMode
			    /BuildChar {
				gsave
				exch dup /EUCFont get setfont
				/UpperByte get
				2 string
				dup 0 4 -1 roll put
				dup 1 4 -1 roll put
				dup stringwidth setcharwidth
				0 0 moveto show
				grestore
			    } bind def
			    currentdict
			end
			/lowerbytefont exch definefont
		    } forall
		] def
		currentdict
	    end
	    /eucfont exch definefont
	    exch
	    findfont 1 copyfont dup begin
		RomanRotation {
			/FontMatrix FontMatrix
			[ 0 RomanScale neg RomanScale 0 RomanOffset neg 0 ]
			matrix concatmatrix def
		}{
			/FontMatrix FontMatrix
			[ RomanScale 0 0 RomanScale 0 RomanOffset ] matrix concatmatrix
			def
			/CDevProc
			    {pop pop pop pop 0 exch -1000 exch 2 div 880} def
		} ifelse
	    end
	    /asciifont exch definefont
	    exch
	    /FDepVector [ 4 2 roll ] def
	    /FontType 0 def
	    /WMode 0 def
	    /FMapType 4 def
	    /FontMatrix matrix def
	    /Encoding [0 1] def
	    /FontBBox {0 0 0 0} def
%	    /FontHeight 1.0 def % XXXX
	    /FontHeight RomanScale 1.0 ge { RomanScale }{ 1.0 } ifelse def
	    /Descent -0.3 def   % XXXX
	    currentdict
	end
	/tmpfont exch definefont
	pop
	/tmpfont findfont
    }{
	pop findfont 0 copyfont
    } ifelse
} def	

/slantfont {	% FontName slant-degree  slantfont  font'
    exch findfont 1 copyfont begin
    [ 1 0 4 -1 roll 1 0 0 ] FontMatrix exch matrix concatmatrix
    /FontMatrix exch def
    currentdict
    end
} def

% Function print line number (<string> # -)
/# {
  gsave
    sx cw mul neg 2 div 0 rmoveto
    f# setfont
    c-show
  grestore
} bind def

% -------- Some routines to enlight plain b/w printings ---------

% Underline
% width --
/dounderline {
  currentpoint
  gsave
    moveto
    0 currentfont /Descent get currentfontsize mul rmoveto
    0 rlineto
    stroke
  grestore
} bind def

% Underline a string
% string --
/dounderlinestring {
  stringwidth pop
  dounderline
} bind def

/UL {
  /ul exch store
} bind def

% Draw a box of WIDTH wrt current font
% width --
/dobox {
  currentpoint
  gsave
    newpath
    moveto
    0 currentfont /Descent get currentfontsize mul rmoveto
    dup 0 rlineto
    0 currentfont /FontHeight get currentfontsize mul rlineto
    neg 0 rlineto
    closepath
    stroke
  grestore
} bind def

/BX {
  /bx exch store
} bind def

% Box a string
% string --
/doboxstring {
  stringwidth pop
  dobox
} bind def

%
% ------------- Color routines ---------------
%
/FG /setrgbcolor load def

% Draw the background
% width --
/dobackground {
  currentpoint
  gsave
    newpath
    moveto
    0 currentfont /Descent get currentfontsize mul rmoveto
    dup 0 rlineto
    0 currentfont /FontHeight get currentfontsize mul rlineto
    neg 0 rlineto
    closepath
    bgcolor aload pop setrgbcolor
    fill
  grestore
} bind def

% Draw bg for a string
% string --
/dobackgroundstring {
  stringwidth pop
  dobackground
} bind def


/BG {
  dup /bg exch store
  { mark 4 1 roll ] /bgcolor exch store } if
} bind def


/Show {
  bg { dup dobackgroundstring } if
  ul { dup dounderlinestring } if
  bx { dup doboxstring } if
  show
} bind def

% Function T(ab), jumps to the n-th tabulation in the current line
/T {
  cw mul x0 add
  bg { dup currentpoint pop sub dobackground } if
  ul { dup currentpoint pop sub dounderline } if
  bx { dup currentpoint pop sub dobox } if
  y0 moveto
} bind def

% Function n: move to the next line
/n {
  /y0 y0 bfs sub store
  x0 y0 moveto
} bind def

% Function N: show and move to the next line
/N {
  Show
  /y0 y0 bfs sub store
  x0 y0 moveto
} bind def

/S {
  Show
} bind def

%%Copyright: (c) 1988, 89, 90, 91, 92, 93 Miguel Santana
%%Copyright: (c) 1995, 96, 97, 98 Akim Demaille, Miguel Santana
% Function title: prints page header.
% <ct> <rt> <lt> are passed as argument
/title { 
  % 1. Draw the background
  x v get y v get moveto
  0 setgray
  gsave
    0 th 2 div neg rmoveto 
    th setlinewidth
    0.5 0.5 1 setrgbcolor
    pw 0 rlineto stroke
  grestore
  % 2. Border it
  gsave
    0.7 setlinewidth
    pw 0 rlineto
    0 th neg rlineto
    pw neg 0 rlineto
    closepath stroke
  grestore
  % stk: ct rt lt
  x v get y v get th sub 1 add moveto
%%IncludeResource: font Helvetica
  fHelvetica fnfs 0.8 mul scalefont setfont
  % 3. The left title
  gsave
    dup stringwidth pop fnfs 0.8 mul add exch % leave space took on stack
    fnfs 0.8 mul hm rmoveto
    show			% left title
  grestore
  exch
  % stk: ct ltw rt
  % 4. the right title
  gsave
    dup stringwidth pop fnfs 0.8 mul add exch % leave space took on stack
    dup
    pw exch stringwidth pop fnfs 0.8 mul add sub
    hm
    rmoveto
    show			% right title
  grestore
  % stk: ct ltw rtw
  % 5. the center title
  gsave
    pw 3 1 roll
    % stk: ct pw ltw rtw
    3 copy 
    % Move to the center of the left room
    sub add 2 div hm rmoveto
    % What is the available space in here?
    add sub fnfs 0.8 mul sub fnfs 0.8 mul sub
    % stk: ct space_left
%%IncludeResource: font Helvetica-Bold
  fHelvetica-Bold fnfs scalefont setfont
    1 setgray
    cfshow
  grestore
} bind def

% Function border: prints virtual page border
/border { %def
  gsave				% print four sides
    0 setgray
    x v get y v get moveto
    0.7 setlinewidth		% of the square
    pw 0 rlineto
    0 ph neg rlineto
    pw neg 0 rlineto
    closepath stroke
  grestore
} bind def

% Function water: prints a water mark in background
/water { %def
  gsave
    scx scy moveto rotate
%%IncludeResource: font Times-Bold
  fTimes-Bold 100 scalefont setfont
    .97 setgray
    dup stringwidth pop 2 div neg -50 rmoveto
    show
  grestore
} bind def

% Function rhead: prints the right header
/rhead {  %def
  lx ly moveto
  fHelvetica fnfs 0.8 mul scalefont setfont
  l-show
} bind def

% Function footer (cf rf lf -> -)
/footer {
  fHelvetica fnfs 0.8 mul scalefont setfont
  dx dy moveto
  show

  snx sny moveto
  l-show
  
  fnx fny moveto
  c-show
} bind def

% Function print line number (<string> # -)
/# {
  gsave
    sx cw mul neg 2 div 0 rmoveto
    f# setfont
    c-show
  grestore
} bind def
%%BeginResource: procset a2ps-color-prolog 2.0 1

%% Definition of the color faces.
/p {
  0 0 0 FG
  false BG
  false UL
  false BX
  fCourier bfs scalefont setfont
  Show
} bind def

/sy {
  0 0 0 FG
  false BG
  fSymbol bfs scalefont setfont
  Show
} bind def

/k {
  false BG
  false UL
  false BX
  0 0 0.9 FG
  fCourier bfs scalefont setfont
  Show
} bind def

/K {
  false BG
  false UL
  false BX
  0 0 0.8 FG
  fCourier-Bold bfs scalefont setfont
  Show
} bind def

/c {
  false BG
  false UL
  false BX
  0.8 0 0 FG
  fCourier bfs scalefont setfont
  Show
} bind def

/C {
  false BG
  false UL
  false BX
  0.8 0 0 FG
  fCourier-Bold bfs scalefont setfont
  Show
} bind def

/l {
  0 0 0 FG
  0.8 0.8 0 true BG
  false UL
  false BX
  fCourier bfs scalefont setfont
  Show
} bind def

/L {
  0 0 0 FG
  1 1 0 true BG
  false UL
  false BX
  fCourier-Bold bfs scalefont setfont
  Show
} bind def

/str {
  false BG
  false UL
  false BX
  0 0.5 0 FG
  fTimes-Roman bfs scalefont setfont
  Show
} bind def

/e{
  1 0 0 true BG
  false UL
  true BX
  1 1 1 FG
  fHelvetica-Bold bfs scalefont setfont
  Show
} bind def

% Function print line number (<string> # -)
/# {
  gsave
    sx cw mul 2 div neg 0 rmoveto
    f# setfont
    0.8 0.1 0.1 FG
    c-show
  grestore
} bind def
%%EndResource
%%EndProlog
%%BeginSetup
%%IncludeResource: font Courier
%%IncludeResource: font Courier-Bold
%%IncludeResource: font Times-Roman
%%IncludeResource: font Symbol
%%BeginResource: encoding ISO-8859-1Encoding
/ISO-8859-1Encoding [
/.notdef /.notdef /.notdef /.notdef /.notdef /.notdef /.notdef /.notdef 
/.notdef /.notdef /.notdef /.notdef /.notdef /.notdef /.notdef /.notdef 
/.notdef /.notdef /.notdef /.notdef /.notdef /.notdef /.notdef /.notdef 
/.notdef /.notdef /.notdef /.notdef /.notdef /.notdef /.notdef /.notdef 
/space /exclam /quotedbl /numbersign /dollar /percent /ampersand /quoteright 
/parenleft /parenright /asterisk /plus /comma /minus /period /slash 
/zero /one /two /three /four /five /six /seven 
/eight /nine /colon /semicolon /less /equal /greater /question 
/at /A /B /C /D /E /F /G 
/H /I /J /K /L /M /N /O 
/P /Q /R /S /T /U /V /W 
/X /Y /Z /bracketleft /backslash /bracketright /asciicircum /underscore 
/quoteleft /a /b /c /d /e /f /g 
/h /i /j /k /l /m /n /o 
/p /q /r /s /t /u /v /w 
/x /y /z /braceleft /bar /braceright /asciitilde /.notdef 
/.notdef /.notdef /.notdef /.notdef /.notdef /.notdef /.notdef /.notdef 
/.notdef /.notdef /.notdef /.notdef /.notdef /.notdef /.notdef /.notdef 
/.notdef /.notdef /.notdef /.notdef /.notdef /.notdef /.notdef /.notdef 
/.notdef /.notdef /.notdef /.notdef /.notdef /.notdef /.notdef /.notdef 
/space /exclamdown /cent /sterling /currency /yen /brokenbar /section 
/dieresis /copyright /ordfeminine /guillemotleft /logicalnot /hyphen /registered /macron 
/degree /plusminus /twosuperior /threesuperior /acute /mu /paragraph /bullet 
/cedilla /onesuperior /ordmasculine /guillemotright /onequarter /onehalf /threequarters /questiondown 
/Agrave /Aacute /Acircumflex /Atilde /Adieresis /Aring /AE /Ccedilla 
/Egrave /Eacute /Ecircumflex /Edieresis /Igrave /Iacute /Icircumflex /Idieresis 
/Eth /Ntilde /Ograve /Oacute /Ocircumflex /Otilde /Odieresis /multiply 
/Oslash /Ugrave /Uacute /Ucircumflex /Udieresis /Yacute /Thorn /germandbls 
/agrave /aacute /acircumflex /atilde /adieresis /aring /ae /ccedilla 
/egrave /eacute /ecircumflex /edieresis /igrave /iacute /icircumflex /idieresis 
/eth /ntilde /ograve /oacute /ocircumflex /otilde /odieresis /divide 
/oslash /ugrave /uacute /ucircumflex /udieresis /yacute /thorn /ydieresis 
] def
%%EndResource
% Initialize page description variables.
/sh 612 def
/sw 792 def
/llx 24 def
/urx 768 def
/ury 588 def
/lly 24 def
/#copies 1 def
/th 0.000000 def
/fnfs 11 def
/bfs 8.000000 def
/cw 4.800000 def

% Dictionary for ISO-8859-1 support
/iso1dict 6 dict begin
  /fCourier ISO-8859-1Encoding /Courier reencode_font
  /fCourier-Bold ISO-8859-1Encoding /Courier-Bold reencode_font
  /fHelvetica ISO-8859-1Encoding /Helvetica reencode_font
  /fHelvetica-Bold ISO-8859-1Encoding /Helvetica-Bold reencode_font
  /fTimes-Bold ISO-8859-1Encoding /Times-Bold reencode_font
  /fTimes-Roman ISO-8859-1Encoding /Times-Roman reencode_font
currentdict end def
/bgcolor [ 0 0 0 ] def
/bg false def
/ul false def
/bx false def
% The font for line numbering
/f# /Helvetica findfont bfs .6 mul scalefont def
/fSymbol /Symbol findfont def
/hm fnfs 0.25 mul def
/pw
   cw 75.400000 mul
def
/ph
   557.600000 th add
def
/pmw urx llx sub pw 2 mul sub 1 div def
/pmh 0 def
/v 0 def
/x [
  0
  dup pmw add pw add
] def
/y [
  pmh ph add 0 mul ph add
  dup
] def
/scx sw 2 div def
/scy sh 2 div def
/snx urx def
/sny lly 2 add def
/dx llx def
/dy sny def
/fnx scx def
/fny dy def
/lx snx def
/ly ury fnfs 0.8 mul sub def
/sx 0 def
/tab 8 def
/x0 0 def
/y0 0 def
%%EndSetup

%%Page: (1-2) 1
%%BeginPageSetup
/pagesave save def
sh 0 translate 90 rotate
%%EndPageSetup
iso1dict begin
gsave
llx lly 0 add translate
/v 0 store
/x0 x v get 3.360000 add sx cw mul add store
/y0 y v get bfs  sub store
x0 y0 moveto
(#!/usr/env python3) c n
(# -*- coding: utf-8 -*-) N
(''') p n
(* To run:) str n
(import hw6) N
() N
(* To import from same directory:) N
(from hw6 import *) N
() N
(* To import from sibling directory:) N
(from sys import path as syspath) N
(from os import path as ospath) N
(from os import getcwd) N
(if not getcwd\(\) + "/.." in syspath:) N
(    syspath.append\(ospath.join\(getcwd\(\), ".."\)\)) N
(#  ... and reload modules) N
(from importlib import reload) N
(# Import routines from homework 4) N
(from hw6.hw6 import *) N
(''') p n
() N
(# To pretty print:) c n
(# a2ps hw6.py hw6.res --pro=color --columns=2 -B -E) N
(#   --font-size=8 -o hw6_code.ps && ps2pdf hw6_code.ps) N
() p n
(# Libraries to import...) c n
(from) K
( sys ) p
(import) K
( path as syspath) p n
(from) K
( os ) p
(import) K
( path as ospath) p n
(from) K
( os ) p
(import) K
( getcwd) p n
(if) K
( ) p
(not) K
( getcwd\(\) + ") p
(/..) str
(" ) p
(in) K
( syspath:) p n
(    syspath.append\(ospath.join\(getcwd\(\), ") S
(..) str
("\)\)) p n
(#  ... and reload modules) c n
(from) K
( importlib ) p
(import) K
( reload) p n
(# --end) c n
(# # Import routines from homework 4) N
(# from hw4.hw4 import *) N
(# Singular value decomposition, inverse, determinant, eigencouples) N
(from) K
( numpy.linalg ) p
(import) K
( svd, inv, det, eigh) p n
(# Utilities) c n
(from) K
( numpy ) p
(import) K
( matrix, pi, diag, cross, sqrt, array) p n
(# Plotting) c n
(from) K
( matplotlib ) p
(import) K
( pyplot as pl) p n
(from) K
( matplotlib ) p
(import) K
( rc) p n
() N
() N
() N
(def) K
( J3x3\(F\):) p n
(    """) N
(    Does nothing!) str n
(    Calculate the Jacobian of a 3x3 \(may be more, feeling brave?\)) N
(    deformation gradient tensor) N
() N
(    Keyword Arguments:) N
(    F -- Deformation gradient tensor) N
(    ) S
(""") p n
() N
() N
(def) K
( defGradVec\(cX1, cX2, cX3, cx1, cx2, cx3\):) p n
(    """) N
(    Calculates the deformation gradient based on the coordinates of) str n
(    the parallelepipid coordinates) N
(    Keyword Arguments:) N
(    cX1 -- coordinates of node 1 at reference configuration) N
(    cX2 -- coordinates of node 2 at reference configuration) N
(    cX3 -- coordinates of node 3 at reference configuration) N
(    cx1 -- coordinates of node 1 at deformed state) N
(    cx2 -- coordinates of node 2 at deformed state) N
(    cx3 -- coordinates of node 3 at deformed state) N
(    ) S
(""") p n
border
/v 1 store
/x0 x v get 3.360000 add sx cw mul add store
/y0 y v get bfs  sub store
x0 y0 moveto
(    dx1 = array\(cx1\)/cX1[0]) p n
(    dx2 = array\(cx2\)/cX2[1]) N
(    dx3 = array\(cx3\)/cX3[2]) N
(    F = matrix\([dx1, dx2, dx3]\).transpose\(\)) N
(    ) S
(return) K
( F) p n
() N
() N
(def) K
( defGradPt\(dX, dx\):) p n
(    """) N
(    Function to calculate the \(3x3\) deformation gradient \(F\) at a) str n
(    point from local increments. F[i,j] = dx[i]/dX[j]) N
() N
(    Keyword Arguments:) N
(    dX -- local increment in the reference configuration \(3x1 matrix\)) N
(    dx -- local increment in the deformed state \(3x1 matrix\)) N
(    ) S
(""") p n
(    F = matrix\([[dx[I]/dX[J] ) S
(for) K
( J ) p
(in) K
( range\(3\)]) p n
(               ) S
(for) K
( I ) p
(in) K
( range\(3\)]\)) p n
(    ) S
(return) K
( F) p n
() N
() N
(def) K
( RUDecSVD\(F\):) p n
(    """) N
(    Polar decomposition by means of a singular value decomposition) str n
() N
(    Keyword Arguments:) N
(    F -- deformation gradient \(or anything else; check svd\)) N
() N
(    ) S
(""") p n
(    P, S, V = svd\(F\)) N
(    ) S
(# Right stretch) c n
(    U = V.transpose\(\) * diag\(S\) * V) p n
(    R = F * inv\(U\)) N
(    ) S
(return) K
( R, U) p n
() N
() N
(def) K
( VRDecSVD\(F, u_bol=None\):) p n
(    """) S
(Left polar decomposition by means of a right polar) str n
(    decomposition \(not efficient, but saves me code\).) N
() N
(    Keyword Arguments:) N
(    F -- deformation gradient) N
(    ) S
(""") p n
(    U, R = RUDecSVD\(F\)) N
(    V = F * inv\(R\)) N
(    ) S
(if) K
( u_bol ) p
(is) K
( True:) p n
(        res = \(V, R, U\)) N
(    ) S
(else) K
(:) p n
(        res = \(V, R\)) N
(    ) S
(return) K
( res) p n
() N
() N
(def) K
( cauchyGreen\(F\):) p n
(    """) N
(    Calculates the right Cauchy-Green deformation tensor from the) str n
(    deformation gradient tensor.) N
(    Keyword Arguments:) N
(    F -- deformation gradient) N
(    ) S
(""") p n
(    ) S
(# Right Cauchy-Green tensor) c n
(    C = F.transpose\(\)*F) p n
(    ) S
(return) K
( C) p n
() N
() N
(def) K
( UPrinDec\(F, q_bol=None\):) p n
(    """) N
(    Polar decomposition by means of a singular value decomposition) str n
() N
(    Keyword Arguments:) N
border
grestore
end % of iso1dict
pagesave restore
showpage
%%Page: (3-4) 2
%%BeginPageSetup
/pagesave save def
sh 0 translate 90 rotate
%%EndPageSetup
iso1dict begin
gsave
llx lly 0 add translate
/v 0 store
/x0 x v get 3.360000 add sx cw mul add store
/y0 y v get bfs  sub store
x0 y0 moveto
(    F -- deformation gradient \(or anything else; check svd\)) str n
() N
(    ) S
(""") p n
(    C = cauchyGreen\(F\)) N
(    ) S
(# Eigenvalues and eigenvectors \(as columns\)) c n
(    dum, Qt = eigh\(C\)) p n
(    ) S
(# Set eigenvectors in rows as the transformation matrix) c n
(    Q = Qt.transpose\(\)) p n
(    ) S
(# Make a matrix out of the eigenvalues \(principal Cauchy-Green\)) c n
(    Cp = Q * C * Qt) p n
(    ) S
(# I don't need the dummy variable) c n
(    ) p
(del) K
( dum) p n
(    ) S
(# Get right stretch from Cauchy-Green in principal configuration) c n
(    Up = sqrt\(Cp\)) p n
(    ) S
(if) K
( q_bol ) p
(is) K
( True:) p n
(        res = \(Up, Cp, Q, Qt\)) N
(    ) S
(else) K
(:) p n
(        res = \(Up, Cp\)) N
(    ) S
(return) K
( res) p n
() N
() N
(def) K
( RUDec\(F, p_bol=None, q_bol=None\):) p n
(    """) N
(    Right polar decomposition through the Cauchy-Green tensor) str n
() N
(    Keyword Arguments:) N
(    F -- deformation gradient) N
() N
(    ) S
(""") p n
(    ) S
(# Get the right stretch tensor and the Cauchy-Green tensor in the) c n
(    ) p
(# principal configuration, together with the transformation matrix) c n
(    Up, Cp, Q, Qt = UPrinDec\(F, q_bol=True\)) p n
(    U = Qt*Up*Q) N
(    R = F*inv\(U\)) N
(    ) S
(return) K
( R, U, Q) p n
() N
() N
(def) K
( defDiffA\(F, dX1, dX2\):) p n
(    """) N
(    Deformed area differential) str n
() N
(    Keyword Arguments:) N
(    F   -- deformation gradient) N
(    dX1 -- vector of the first basis deformation in the reference) N
(           configuration \(1x3\)) N
(    dX2 -- vector of the second basis deformation in the reference) N
(           configuration \(1x3\)) N
(    ) S
(""") p n
(    ) S
(return) K
( det\(F\)*inv\(F.transpose\(\)\)*matrix\(cross\(dX1, dX2\)\).transpose\(\)) p n
() N
(""") N
(Write a Python \(which I, Trevor Lujan, admit to be a superior language\)) str n
(program where you input dX1, dX2, dX3, dx1, dx2, and dx3, and) N
(calculate the deformation gradient tensor, F. Using this program,) N
(calculate F at point A.) N
(""") p n
(cX1 = [1, 0, 0]) N
(cX2 = [0, 1, 0]) N
(cX3 = [0, 0, 1]) N
() N
(cx1 = [2, 0.5, 0]) N
(cx2 = [1, 1, 0]) N
(cx3 = [0, 0, 1.8]) N
() N
(F = defGradVec\(cX1, cX2, cX3, cx1, cx2, cx3\)) N
(print) K
(\(") p
(F = ) str
(", F\)) p n
() N
() N
(""") N
border
/v 1 store
/x0 x v get 3.360000 add sx cw mul add store
/y0 y v get bfs  sub store
x0 y0 moveto
(Using Python, calculate the Jacobian, J, and the change in surface) str n
(area, dA \(shaded gray\), and interpret the answers. [2 pts]) N
(""") p n
(J = det\(F\)) N
(print) K
(\(") p
(\\nJacobian: J = ) str
(", J\)) p n
() N
(dA = defDiffA\(F, [1, 0, 0], [0, 1, 0]\)) N
(print) K
(\(") p
(\\nChange in area differential \(deformed state\):) str
("\)) p n
(print) K
(\(") p
(dA = ) str
(", dA\)) p n
() N
() N
(""") N
(Using Python, calculate U and V for point A in the principal basis) str n
(\(use earlier Python code that computes eigenvalues\).) N
(""") p n
(R, U = RUDecSVD\(F\)) N
(V, R, U = VRDecSVD\(F, True\)) N
(eigvalU, eigvecU = eigh\(U\)) N
(Up = diag\(eigvalU\)) N
(print) K
(\(") p
(\\nRight stretch in the principal direction:) str
("\)) p n
(print) K
(\(") p
(Up = ) str
(", Up\)) p n
() N
(eigvalV, eigvecV = eigh\(V\)) N
(Vp = diag\(V\)) N
(print) K
(\(") p
(\\nLeft stretch in the principal direction:) str
("\)) p n
(print) K
(\(") p
(Vp = ) str
(", Vp\)) p n
() N
() N
(""") N
(Using Python, calculate U and V for point A in the lab basis \(use) str n
(earlier Python code that computes eigenvectors and transforms 2ndorder) N
(tensors\).) N
(""") p n
(print) K
(\(") p
(\\nRight stretch in the original \(lab\) configuration:) str
("\)) p n
(print) K
(\(") p
(U = ) str
(", U\)) p n
() N
(print) K
(\(") p
(\\nLeft stretch in the original \(lab\) configuration:) str
("\)) p n
(print) K
(\(") p
(V = ) str
(", V\)) p n
() N
() N
(""") N
(Using Python, calculate R at point A.[2 pts]) str n
(""") p n
(print) K
(\(") p
(\\nOrthogonal \(unitary\) matrix of the polar decomposition:) str
("\)) p n
(print) K
(\(") p
(R = ) str
(", R\)) p n
() N
() N
(""") N
(4 Using  an  ellipse,  sketch  the  in-plane  principal stretch directions in the  current  and  reference) str n
(configuration. Explain whether this sketch make physical sense when comparing to the in-plane) N
(components of R calculated using Matlab? [4 pts]) N
(""") p n
(eigvl, eigvc = eigh\(U\)) N
(fig = pl.figure\(\)) N
(ax1 = fig.add_subplot\(121\)) N
(# Set the LaTeX output) c n
(# http://matplotlib.org/users/usetex.html) N
(pl.rc\(') p
(text) str
(', usetex=True\)) p n
(# pl.plot\([0, eigvc[0,0]], [0, eigvc[1,0]]\)) c n
(ax1.arrow\(0, 0, eigvc[0, 0], eigvc[1, 0], length_includes_head=True,) p n
(         head_width=0.05\)) N
(ax1.annotate\(r") S
($G_{1}$) str
(", xy=\(eigvc[0, 0], eigvc[1, 0]\),) p n
(            xytext=\(eigvc[0, 0]*1.1, eigvc[1,0]*1.1\)\)) N
(ax1.arrow\(0, 0, eigvc[0, 2], eigvc[1, 2], length_includes_head=True,) N
(         head_width=0.05\)) N
(ax1.annotate\(r") S
($G_{2}$) str
(", xy=\(eigvc[0, 2], eigvc[1, 2]\),) p n
(            xytext=\(eigvc[0, 2]*1.3, eigvc[1, 2]*1.1\)\)) N
(ax1.axis\(") S
(scaled) str
("\)) p n
(ax1.axis\([-1, 1, -1, 1]\)) N
border
grestore
end % of iso1dict
pagesave restore
showpage
%%Page: (5) 3
%%BeginPageSetup
/pagesave save def
sh 0 translate 90 rotate
%%EndPageSetup
iso1dict begin
gsave
llx lly 0 add translate
/v 0 store
/x0 x v get 3.360000 add sx cw mul add store
/y0 y v get bfs  sub store
x0 y0 moveto
(ax1.grid\(\)) p n
(pl.title\(r") S
(Reference \(undeformed\)) str
("\)) p n
() N
(ax2 = fig.add_subplot\(122\)) N
(# Set the LaTeX output) c n
(# http://matplotlib.org/users/usetex.html) N
(pl.rc\(') p
(text) str
(', usetex=True\)) p n
(# pl.plot\([0, eigvc[0,0]], [0, eigvc[1,0]]\)) c n
(ax2.arrow\(0, 0, eigvc[0, 0]*eigvl[0], eigvc[1, 0]*eigvl[0], length_include) p n
(s_head=True,) N
(         head_width=0.05\)) N
(ax2.annotate\(r") S
($g_{1}$) str
(", xy=\(eigvc[0, 0]*eigvl[0], eigvc[1, 0]*eigvl[0]\),) p n
(            xytext=\(eigvc[0, 0]*eigvl[0]*1.2, eigvc[1,0]*eigvl[0]*1.2\)\)) N
(ax2.arrow\(0, 0, eigvc[0, 2]*eigvl[2], eigvc[1, 2]*eigvl[2], length_include) N
(s_head=True,) N
(         head_width=0.05\)) N
(ax2.annotate\(r") S
($g_{2}$) str
(", xy=\(eigvc[0, 2]*eigvl[2], eigvc[1, 2]*eigvl[2]\),) p n
(            xytext=\(eigvc[0, 2]*eigvl[2]*1.1, eigvc[1, 2]*eigvl[2]*1.1\)\)) N
(ax2.axis\(") S
(scaled) str
("\)) p n
(ax2.axis\([-1, 1, -1, 1]\)) N
(ax2.grid\(\)) N
(pl.title\(r") S
(Current \(deformed\)) str
("\)) p n
() N
(pl.savefig\(") S
(hw6_fig.pdf) str
("\)) p n
(pl.show\(\)) N
(# Set equal axes) c n
(pl.axis\(") p
(equal) str
("\)) p n
(fig.clf\(\)) N
border
grestore
end % of iso1dict
pagesave restore
showpage
%%Page: (1) 4
%%BeginPageSetup
/pagesave save def
sh 0 translate 90 rotate
%%EndPageSetup
iso1dict begin
gsave
llx lly 0 add translate
/v 0 store
/x0 x v get 3.360000 add sx cw mul add store
/y0 y v get bfs  sub store
x0 y0 moveto
(Python 3.4.3 \(default, Nov 17 2016, 01:08:31\)) p n
([GCC 4.8.4] on linux) N
(Type "help", "copyright", "credits" or "license" for more information.) N
(>>> F =  [[ 2.   1.   0. ]) N
( [ 0.5  1.   0. ]) N
( [ 0.   0.   1.8]]) N
() N
(Jacobian: J =  2.7) N
() N
(Change in area differential \(deformed state\):) N
(dA =  [[ 0. ]) N
( [ 0. ]) N
( [ 1.5]]) N
() N
(Right stretch in the principal direction:) N
(Up =  [[ 0.82199494  0.          0.        ]) N
( [ 0.          1.          0.        ]) N
( [ 0.          0.          1.15079291]]) N
() N
(Left stretch in the principal direction:) N
(Vp =  [ 0.98639392  0.98639392  1.        ]) N
() N
(Right stretch in the original \(lab\) configuration:) N
(U =  [[ 0.98639392  0.16439899  0.        ]) N
( [-0.16439899  0.98639392  0.        ]) N
( [ 0.          0.          1.        ]]) N
() N
(Left stretch in the original \(lab\) configuration:) N
(V =  [[ 0.98639392  0.16439899  0.        ]) N
( [-0.16439899  0.98639392  0.        ]) N
( [ 0.          0.          1.        ]]) N
() N
(Orthogonal \(unitary\) matrix of the polar decomposition:) N
(R =  [[ 1.89058835  0.82199494  0.        ]) N
( [ 0.82199494  1.15079291  0.        ]) N
( [ 0.          0.          1.8       ]]) N
(>>> ) N
border
grestore
end % of iso1dict
pagesave restore
showpage

%%Trailer
end
%%EOF
